[Try][10:51:39] | Init web panel
[Info][10:51:39] | rightId 2, right AllUserCmd
[Info][10:51:39] | rightId 3, right goTo
[Info][10:51:39] | rightId 4, right setWorldState
[Info][10:51:39] | rightId 5, right setNpcStat
[Info][10:51:39] | rightId 6, right setProperty
[Info][10:51:39] | rightId 7, right editItem
[Info][10:51:39] | rightId 8, right getItem
[Error][10:51:42] | page
[Info][10:51:42] | C:\Users\AVIS\Desktop\gametools\A4Engine\bin\Debug\netcoreapp2.2\/assets/controllers/page/index.html
[Info][10:51:42] | UserId 1, right 1
[Info][10:51:42] | UserId 1, right 2
[Error][10:51:43] | System.FormatException: Input string was not in a correct format.
   at System.Text.StringBuilder.FormatError()
   at System.Text.StringBuilder.AppendFormatHelper(IFormatProvider provider, String format, ParamsArray args)
   at System.String.FormatHelper(IFormatProvider provider, String format, ParamsArray args)
   at System.String.Format(String format, Object[] args)
   at NetworkEngineCommon.Logger.Write(ConsoleColor color, String type, String text, String[] arg) in C:\LastCorenrOfHope\Server\ANetEngineCommon\Utility\Logger.cs:line 30
{"Id":1,"Login":"admin","Password":"f626cac9d093515f0cb0fc431c78e3c1","Email":"mail","FullName":"Anton 386","Session":"5411d0cfa09ed5f88cc2ad7ee2fd943e","RegIp":"","LastIp":"","RegMac":"","LastMac":""}
[Error][10:51:43] | Ты адмиин
[Error][10:51:43] | asset
[Error][10:51:43] | asset
[Error][10:51:43] | asset
[Info][10:51:43] | text/css
[Error][10:51:43] | asset
[Info][10:51:43] | application/.JS
[Error][10:51:43] | asset
[Info][10:51:43] | application/.JS
[Info][10:51:43] | text/css
[Info][10:51:43] | text/css
[Error][10:51:43] | asset
[Error][10:51:43] | asset
[Error][10:51:43] | asset
[Info][10:51:43] | application/.JS
[Error][10:51:43] | asset
[Info][10:51:43] | application/.JS
[Error][10:51:43] | asset
[Error][10:51:43] | asset
[Error][10:51:43] | asset
[Error][10:51:43] | asset
[Info][10:51:43] | application/.JS
[Info][10:51:43] | application/.JS
[Error][10:51:43] | asset
[Info][10:51:43] | application/.JS
[Info][10:51:43] | application/.JS
[Info][10:51:43] | application/.JS
[Info][10:51:43] | image/jpeg
[Info][10:51:43] | application/.JS
[Error][10:51:43] | asset
[Error][10:51:43] | asset
[Info][10:51:43] | application/.PNG
[Info][10:51:43] | application/.WOFF2
[Error][10:51:45] | page
[Info][10:51:45] | C:\Users\AVIS\Desktop\gametools\A4Engine\bin\Debug\netcoreapp2.2\/assets/controllers/page/itemeditor.html
[Error][10:51:46] | asset
[Error][10:51:46] | asset
[Error][10:51:46] | asset
[Error][10:51:46] | asset
[Error][10:51:46] | asset
[Error][10:51:46] | asset
[Info][10:51:46] | text/css
[Info][10:51:46] | text/css
[Info][10:51:46] | application/.JS
[Info][10:51:46] | application/.JS
[Info][10:51:46] | application/.JS
[Info][10:51:46] | application/.JS
[Error][10:51:46] | asset
[Error][10:51:46] | asset
[Info][10:51:46] | application/.JS
[Info][10:51:46] | text/css
[Error][10:51:46] | asset
[Error][10:51:46] | asset
[Error][10:51:46] | asset
[Error][10:51:46] | asset
[Error][10:51:46] | asset
[Info][10:51:46] | application/.JS
[Info][10:51:46] | application/.JS
[Info][10:51:46] | application/.JS
[Info][10:51:46] | application/.JS
[Info][10:51:46] | application/.JS
[Error][10:51:46] | asset
[Error][10:51:46] | asset
[Error][10:51:46] | asset
[Info][10:51:46] | text/css
[Info][10:51:46] | image/jpeg
[Info][10:51:46] | application/.JS
[Error][10:51:46] | asset
[Error][10:51:46] | asset
[Error][10:51:46] | asset
[Info][10:51:46] | application/.PNG
[Error][10:51:46] | asset
[Info][10:51:46] | application/.WOFF2
[Info][10:51:46] | application/.JS
[Info][10:51:46] | application/.JS
[Error][10:51:46] | handler
[Error][10:52:05] | handler
[Info][10:52:05] | System.OverflowException: The TimeSpan could not be parsed because at least one of the numeric components is out of range or contains too many digits.
   at System.Globalization.TimeSpanParse.TimeSpanResult.SetFailure(ParseFailureKind kind, String resourceKey, Object messageArgument, String argumentName)
   at System.Globalization.TimeSpanParse.ProcessTerminal_HMS_F_D(TimeSpanRawInfo& raw, TimeSpanStandardStyles style, TimeSpanResult& result)
   at System.Globalization.TimeSpanParse.ProcessTerminalState(TimeSpanRawInfo& raw, TimeSpanStandardStyles style, TimeSpanResult& result)
   at System.Globalization.TimeSpanParse.TryParseTimeSpan(ReadOnlySpan`1 input, TimeSpanStandardStyles style, IFormatProvider formatProvider, TimeSpanResult& result)
   at WebPanel.Base.TypeFormat(String value, Type type) in C:\Users\AVIS\Desktop\gametools\A4Engine\Base.cs:line 83
   at WebPanel.Base.GetObjectByParams[T](NameValueCollection data) in C:\Users\AVIS\Desktop\gametools\A4Engine\Base.cs:line 59
[Error][10:52:12] | page
[Info][10:52:12] | C:\Users\AVIS\Desktop\gametools\A4Engine\bin\Debug\netcoreapp2.2\/assets/controllers/page/itemeditor.html
[Error][10:52:12] | asset
[Info][10:52:12] | text/css
[Error][10:52:12] | asset
[Info][10:52:12] | text/css
[Error][10:52:12] | asset
[Info][10:52:12] | text/css
[Error][10:52:12] | asset
[Info][10:52:12] | text/css
[Error][10:52:12] | asset
[Info][10:52:12] | application/.JS
[Error][10:52:12] | asset
[Info][10:52:12] | application/.JS
[Error][10:52:13] | asset
[Info][10:52:13] | application/.JS
[Error][10:52:13] | asset
[Info][10:52:13] | application/.JS
[Error][10:52:13] | asset
[Info][10:52:13] | application/.JS
[Error][10:52:13] | asset
[Info][10:52:13] | application/.JS
[Error][10:52:13] | asset
[Info][10:52:13] | application/.JS
[Error][10:52:13] | asset
[Info][10:52:13] | application/.JS
[Error][10:52:13] | asset
[Info][10:52:13] | application/.JS
[Error][10:52:13] | asset
[Info][10:52:13] | application/.JS
[Error][10:52:13] | asset
[Info][10:52:13] | application/.JS
[Error][10:52:13] | asset
[Info][10:52:13] | application/.JS
[Error][10:52:13] | asset
[Info][10:52:13] | application/.JS
[Error][10:52:13] | asset
[Info][10:52:13] | image/jpeg
[Error][10:52:13] | asset
[Info][10:52:13] | application/.PNG
[Error][10:52:13] | asset
[Info][10:52:13] | application/.WOFF2
[Error][10:52:13] | handler
[Error][10:52:13] | asset
[Info][10:52:13] | application/.ICO
[Error][10:54:00] | page
[Info][10:54:01] | C:\Users\AVIS\Desktop\gametools\A4Engine\bin\Debug\netcoreapp2.2\/assets/controllers/page/weaponeditor.html
[Error][10:54:01] | asset
[Info][10:54:01] | text/css
[Error][10:54:01] | asset
[Info][10:54:01] | application/.JS
[Error][10:54:01] | asset
[Info][10:54:01] | text/css
[Error][10:54:01] | asset
[Error][10:54:01] | asset
[Info][10:54:01] | application/.JS
[Info][10:54:01] | text/css
[Error][10:54:01] | asset
[Error][10:54:01] | asset
[Info][10:54:01] | text/css
[Error][10:54:01] | asset
[Info][10:54:01] | application/.JS
[Info][10:54:01] | application/.JS
[Error][10:54:01] | asset
[Info][10:54:01] | application/.JS
[Error][10:54:01] | asset
[Error][10:54:01] | asset
[Error][10:54:01] | asset
[Info][10:54:01] | application/.JS
[Info][10:54:01] | application/.JS
[Info][10:54:01] | application/.JS
[Error][10:54:01] | asset
[Error][10:54:01] | asset
[Error][10:54:01] | asset
[Info][10:54:01] | application/.JS
[Info][10:54:01] | application/.JS
[Error][10:54:01] | asset
[Info][10:54:01] | image/jpeg
[Error][10:54:01] | asset
[Info][10:54:01] | application/.JS
[Info][10:54:01] | application/.JS
[Error][10:54:01] | asset
[Info][10:54:01] | application/.PNG
[Error][10:54:01] | asset
[Info][10:54:01] | application/.WOFF2
[Error][10:54:01] | handler
[Error][10:57:46] | page
[Info][10:57:46] | C:\Users\AVIS\Desktop\gametools\A4Engine\bin\Debug\netcoreapp2.2\/assets/controllers/page/weaponeditor.html
[Error][10:57:46] | asset
[Error][10:57:46] | asset
[Info][10:57:46] | text/css
[Info][10:57:46] | application/.JS
[Error][10:57:46] | asset
[Error][10:57:46] | asset
[Info][10:57:46] | text/css
[Info][10:57:46] | text/css
[Error][10:57:46] | asset
[Error][10:57:46] | asset
[Info][10:57:46] | text/css
[Info][10:57:46] | application/.JS
[Error][10:57:46] | asset
[Error][10:57:46] | asset
[Info][10:57:46] | application/.JS
[Info][10:57:46] | application/.JS
[Error][10:57:46] | asset
[Error][10:57:46] | asset
[Info][10:57:46] | application/.JS
[Info][10:57:46] | application/.JS
[Error][10:57:46] | asset
[Error][10:57:46] | asset
[Info][10:57:46] | application/.JS
[Info][10:57:46] | application/.JS
[Error][10:57:46] | asset
[Error][10:57:46] | asset
[Info][10:57:46] | application/.JS
[Info][10:57:46] | application/.JS
[Error][10:57:46] | asset
[Error][10:57:46] | asset
[Info][10:57:46] | image/jpeg
[Info][10:57:46] | application/.JS
[Error][10:57:46] | asset
[Info][10:57:46] | application/.JS
[Error][10:57:46] | asset
[Info][10:57:46] | application/.PNG
[Error][10:57:46] | asset
[Info][10:57:46] | application/.WOFF2
[Error][10:57:46] | handler
[Error][10:57:46] | asset
[Info][10:57:46] | application/.ICO
[Error][10:58:09] | handler
[Info][10:58:09] | Newtonsoft.Json.JsonSerializationException: Error converting value 11 to type 'System.Int32[]'. Path '', line 1, position 2. ---> System.ArgumentException: Could not cast or convert from System.Int64 to System.Int32[].
   at Newtonsoft.Json.Utilities.ConvertUtils.EnsureTypeAssignable(Object value, Type initialType, Type targetType) in /_/Src/Newtonsoft.Json/Utilities/ConvertUtils.cs:line 616
   at Newtonsoft.Json.Utilities.ConvertUtils.ConvertOrCast(Object initialValue, CultureInfo culture, Type targetType) in /_/Src/Newtonsoft.Json/Utilities/ConvertUtils.cs:line 587
   at Newtonsoft.Json.Serialization.JsonSerializerInternalReader.EnsureType(JsonReader reader, Object value, CultureInfo culture, JsonContract contract, Type targetType) in /_/Src/Newtonsoft.Json/Serialization/JsonSerializerInternalReader.cs:line 982
   --- End of inner exception stack trace ---
   at Newtonsoft.Json.Serialization.JsonSerializerInternalReader.EnsureType(JsonReader reader, Object value, CultureInfo culture, JsonContract contract, Type targetType) in /_/Src/Newtonsoft.Json/Serialization/JsonSerializerInternalReader.cs:line 989
   at Newtonsoft.Json.Serialization.JsonSerializerInternalReader.Deserialize(JsonReader reader, Type objectType, Boolean checkAdditionalContent) in /_/Src/Newtonsoft.Json/Serialization/JsonSerializerInternalReader.cs:line 167
   at Newtonsoft.Json.JsonSerializer.DeserializeInternal(JsonReader reader, Type objectType) in /_/Src/Newtonsoft.Json/JsonSerializer.cs:line 907
   at Newtonsoft.Json.JsonConvert.DeserializeObject(String value, Type type, JsonSerializerSettings settings) in /_/Src/Newtonsoft.Json/JsonConvert.cs:line 828
   at WebPanel.Base.TypeFormat(String value, Type type) in C:\Users\AVIS\Desktop\gametools\A4Engine\Base.cs:line 83
   at WebPanel.Base.GetObjectByParams[T](NameValueCollection data) in C:\Users\AVIS\Desktop\gametools\A4Engine\Base.cs:line 59
[Info][10:58:09] | Newtonsoft.Json.JsonSerializationException: Error converting value 13 to type 'System.Int32[]'. Path '', line 1, position 2. ---> System.ArgumentException: Could not cast or convert from System.Int64 to System.Int32[].
   at Newtonsoft.Json.Utilities.ConvertUtils.EnsureTypeAssignable(Object value, Type initialType, Type targetType) in /_/Src/Newtonsoft.Json/Utilities/ConvertUtils.cs:line 616
   at Newtonsoft.Json.Utilities.ConvertUtils.ConvertOrCast(Object initialValue, CultureInfo culture, Type targetType) in /_/Src/Newtonsoft.Json/Utilities/ConvertUtils.cs:line 587
   at Newtonsoft.Json.Serialization.JsonSerializerInternalReader.EnsureType(JsonReader reader, Object value, CultureInfo culture, JsonContract contract, Type targetType) in /_/Src/Newtonsoft.Json/Serialization/JsonSerializerInternalReader.cs:line 982
   --- End of inner exception stack trace ---
   at Newtonsoft.Json.Serialization.JsonSerializerInternalReader.EnsureType(JsonReader reader, Object value, CultureInfo culture, JsonContract contract, Type targetType) in /_/Src/Newtonsoft.Json/Serialization/JsonSerializerInternalReader.cs:line 989
   at Newtonsoft.Json.Serialization.JsonSerializerInternalReader.Deserialize(JsonReader reader, Type objectType, Boolean checkAdditionalContent) in /_/Src/Newtonsoft.Json/Serialization/JsonSerializerInternalReader.cs:line 167
   at Newtonsoft.Json.JsonSerializer.DeserializeInternal(JsonReader reader, Type objectType) in /_/Src/Newtonsoft.Json/JsonSerializer.cs:line 907
   at Newtonsoft.Json.JsonConvert.DeserializeObject(String value, Type type, JsonSerializerSettings settings) in /_/Src/Newtonsoft.Json/JsonConvert.cs:line 828
   at WebPanel.Base.TypeFormat(String value, Type type) in C:\Users\AVIS\Desktop\gametools\A4Engine\Base.cs:line 83
   at WebPanel.Base.GetObjectByParams[T](NameValueCollection data) in C:\Users\AVIS\Desktop\gametools\A4Engine\Base.cs:line 59
[Error][10:58:11] | handler
[Info][10:58:11] | Newtonsoft.Json.JsonSerializationException: Error converting value 11 to type 'System.Int32[]'. Path '', line 1, position 2. ---> System.ArgumentException: Could not cast or convert from System.Int64 to System.Int32[].
   at Newtonsoft.Json.Utilities.ConvertUtils.EnsureTypeAssignable(Object value, Type initialType, Type targetType) in /_/Src/Newtonsoft.Json/Utilities/ConvertUtils.cs:line 616
   at Newtonsoft.Json.Utilities.ConvertUtils.ConvertOrCast(Object initialValue, CultureInfo culture, Type targetType) in /_/Src/Newtonsoft.Json/Utilities/ConvertUtils.cs:line 587
   at Newtonsoft.Json.Serialization.JsonSerializerInternalReader.EnsureType(JsonReader reader, Object value, CultureInfo culture, JsonContract contract, Type targetType) in /_/Src/Newtonsoft.Json/Serialization/JsonSerializerInternalReader.cs:line 982
   --- End of inner exception stack trace ---
   at Newtonsoft.Json.Serialization.JsonSerializerInternalReader.EnsureType(JsonReader reader, Object value, CultureInfo culture, JsonContract contract, Type targetType) in /_/Src/Newtonsoft.Json/Serialization/JsonSerializerInternalReader.cs:line 989
   at Newtonsoft.Json.Serialization.JsonSerializerInternalReader.Deserialize(JsonReader reader, Type objectType, Boolean checkAdditionalContent) in /_/Src/Newtonsoft.Json/Serialization/JsonSerializerInternalReader.cs:line 167
   at Newtonsoft.Json.JsonSerializer.DeserializeInternal(JsonReader reader, Type objectType) in /_/Src/Newtonsoft.Json/JsonSerializer.cs:line 907
   at Newtonsoft.Json.JsonConvert.DeserializeObject(String value, Type type, JsonSerializerSettings settings) in /_/Src/Newtonsoft.Json/JsonConvert.cs:line 828
   at WebPanel.Base.TypeFormat(String value, Type type) in C:\Users\AVIS\Desktop\gametools\A4Engine\Base.cs:line 83
   at WebPanel.Base.GetObjectByParams[T](NameValueCollection data) in C:\Users\AVIS\Desktop\gametools\A4Engine\Base.cs:line 59
[Info][10:58:11] | Newtonsoft.Json.JsonSerializationException: Error converting value 13 to type 'System.Int32[]'. Path '', line 1, position 2. ---> System.ArgumentException: Could not cast or convert from System.Int64 to System.Int32[].
   at Newtonsoft.Json.Utilities.ConvertUtils.EnsureTypeAssignable(Object value, Type initialType, Type targetType) in /_/Src/Newtonsoft.Json/Utilities/ConvertUtils.cs:line 616
   at Newtonsoft.Json.Utilities.ConvertUtils.ConvertOrCast(Object initialValue, CultureInfo culture, Type targetType) in /_/Src/Newtonsoft.Json/Utilities/ConvertUtils.cs:line 587
   at Newtonsoft.Json.Serialization.JsonSerializerInternalReader.EnsureType(JsonReader reader, Object value, CultureInfo culture, JsonContract contract, Type targetType) in /_/Src/Newtonsoft.Json/Serialization/JsonSerializerInternalReader.cs:line 982
   --- End of inner exception stack trace ---
   at Newtonsoft.Json.Serialization.JsonSerializerInternalReader.EnsureType(JsonReader reader, Object value, CultureInfo culture, JsonContract contract, Type targetType) in /_/Src/Newtonsoft.Json/Serialization/JsonSerializerInternalReader.cs:line 989
   at Newtonsoft.Json.Serialization.JsonSerializerInternalReader.Deserialize(JsonReader reader, Type objectType, Boolean checkAdditionalContent) in /_/Src/Newtonsoft.Json/Serialization/JsonSerializerInternalReader.cs:line 167
   at Newtonsoft.Json.JsonSerializer.DeserializeInternal(JsonReader reader, Type objectType) in /_/Src/Newtonsoft.Json/JsonSerializer.cs:line 907
   at Newtonsoft.Json.JsonConvert.DeserializeObject(String value, Type type, JsonSerializerSettings settings) in /_/Src/Newtonsoft.Json/JsonConvert.cs:line 828
   at WebPanel.Base.TypeFormat(String value, Type type) in C:\Users\AVIS\Desktop\gametools\A4Engine\Base.cs:line 83
   at WebPanel.Base.GetObjectByParams[T](NameValueCollection data) in C:\Users\AVIS\Desktop\gametools\A4Engine\Base.cs:line 59
[Info][10:58:11] | Newtonsoft.Json.JsonSerializationException: Error converting value 0 to type 'System.Int32[]'. Path '', line 1, position 1. ---> System.ArgumentException: Could not cast or convert from System.Int64 to System.Int32[].
   at Newtonsoft.Json.Utilities.ConvertUtils.EnsureTypeAssignable(Object value, Type initialType, Type targetType) in /_/Src/Newtonsoft.Json/Utilities/ConvertUtils.cs:line 616
   at Newtonsoft.Json.Utilities.ConvertUtils.ConvertOrCast(Object initialValue, CultureInfo culture, Type targetType) in /_/Src/Newtonsoft.Json/Utilities/ConvertUtils.cs:line 587
   at Newtonsoft.Json.Serialization.JsonSerializerInternalReader.EnsureType(JsonReader reader, Object value, CultureInfo culture, JsonContract contract, Type targetType) in /_/Src/Newtonsoft.Json/Serialization/JsonSerializerInternalReader.cs:line 982
   --- End of inner exception stack trace ---
   at Newtonsoft.Json.Serialization.JsonSerializerInternalReader.EnsureType(JsonReader reader, Object value, CultureInfo culture, JsonContract contract, Type targetType) in /_/Src/Newtonsoft.Json/Serialization/JsonSerializerInternalReader.cs:line 989
   at Newtonsoft.Json.Serialization.JsonSerializerInternalReader.Deserialize(JsonReader reader, Type objectType, Boolean checkAdditionalContent) in /_/Src/Newtonsoft.Json/Serialization/JsonSerializerInternalReader.cs:line 167
   at Newtonsoft.Json.JsonSerializer.DeserializeInternal(JsonReader reader, Type objectType) in /_/Src/Newtonsoft.Json/JsonSerializer.cs:line 907
   at Newtonsoft.Json.JsonConvert.DeserializeObject(String value, Type type, JsonSerializerSettings settings) in /_/Src/Newtonsoft.Json/JsonConvert.cs:line 828
   at WebPanel.Base.TypeFormat(String value, Type type) in C:\Users\AVIS\Desktop\gametools\A4Engine\Base.cs:line 83
   at WebPanel.Base.GetObjectByParams[T](NameValueCollection data) in C:\Users\AVIS\Desktop\gametools\A4Engine\Base.cs:line 59
[Error][10:58:13] | page
[Info][10:58:13] | C:\Users\AVIS\Desktop\gametools\A4Engine\bin\Debug\netcoreapp2.2\/assets/controllers/page/weaponeditor.html
[Error][10:58:13] | asset
[Error][10:58:13] | asset
[Info][10:58:13] | text/css
[Info][10:58:13] | application/.JS
[Error][10:58:13] | asset
[Info][10:58:13] | text/css
[Error][10:58:13] | asset
[Info][10:58:13] | text/css
[Error][10:58:13] | asset
[Info][10:58:13] | application/.JS
[Error][10:58:13] | asset
[Error][10:58:13] | asset
[Info][10:58:13] | text/css
[Info][10:58:13] | application/.JS
[Error][10:58:13] | asset
[Error][10:58:13] | asset
[Info][10:58:13] | application/.JS
[Info][10:58:13] | application/.JS
[Error][10:58:13] | asset
[Error][10:58:13] | asset
[Info][10:58:13] | application/.JS
[Info][10:58:13] | application/.JS
[Error][10:58:13] | asset
[Error][10:58:13] | asset
[Info][10:58:13] | application/.JS
[Info][10:58:13] | application/.JS
[Error][10:58:13] | asset
[Error][10:58:13] | asset
[Info][10:58:13] | application/.JS
[Info][10:58:13] | application/.JS
[Error][10:58:13] | asset
[Info][10:58:13] | image/jpeg
[Error][10:58:13] | asset
[Info][10:58:13] | application/.JS
[Error][10:58:13] | asset
[Info][10:58:13] | application/.PNG
[Error][10:58:13] | asset
[Info][10:58:13] | application/.WOFF2
[Error][10:58:13] | handler
[Error][10:58:13] | asset
[Info][10:58:13] | application/.ICO
[Error][11:00:14] | page
[Info][11:00:14] | C:\Users\AVIS\Desktop\gametools\A4Engine\bin\Debug\netcoreapp2.2\/assets/controllers/page/ammoedtior.html
[Error][11:00:14] | asset
[Error][11:00:14] | asset
[Info][11:00:14] | text/css
[Info][11:00:14] | application/.JS
[Error][11:00:14] | asset
[Info][11:00:14] | text/css
[Error][11:00:14] | asset
[Info][11:00:14] | application/.JS
[Error][11:00:14] | asset
[Error][11:00:14] | asset
[Info][11:00:14] | text/css
[Info][11:00:14] | application/.JS
[Error][11:00:14] | asset
[Error][11:00:14] | asset
[Info][11:00:14] | application/.JS
[Info][11:00:14] | application/.JS
[Error][11:00:14] | asset
[Error][11:00:14] | asset
[Info][11:00:14] | application/.JS
[Info][11:00:14] | application/.JS
[Error][11:00:14] | asset
[Error][11:00:14] | asset
[Info][11:00:14] | application/.JS
[Info][11:00:14] | application/.JS
[Error][11:00:14] | asset
[Error][11:00:14] | asset
[Info][11:00:14] | application/.JS
[Error][11:00:14] | asset
[Info][11:00:14] | image/jpeg
[Error][11:00:14] | asset
[Info][11:00:14] | application/.PNG
[Error][11:00:14] | asset
[Info][11:00:14] | application/.WOFF2
[Info][11:00:15] | application/.JS
[Error][11:00:15] | handler
[Error][11:00:17] | page
[Info][11:00:17] | C:\Users\AVIS\Desktop\gametools\A4Engine\bin\Debug\netcoreapp2.2\/assets/controllers/page/weaponeditor.html
[Error][11:00:17] | asset
[Error][11:00:17] | asset
[Error][11:00:17] | asset
[Info][11:00:17] | text/css
[Error][11:00:17] | asset
[Info][11:00:17] | application/.JS
[Error][11:00:17] | asset
[Error][11:00:17] | asset
[Info][11:00:17] | application/.JS
[Error][11:00:17] | asset
[Info][11:00:17] | application/.JS
[Info][11:00:17] | application/.JS
[Info][11:00:17] | text/css
[Info][11:00:17] | text/css
[Error][11:00:17] | asset
[Error][11:00:17] | asset
[Error][11:00:17] | asset
[Error][11:00:17] | asset
[Error][11:00:17] | asset
[Error][11:00:17] | asset
[Info][11:00:17] | application/.JS
[Info][11:00:17] | text/css
[Info][11:00:17] | application/.JS
[Info][11:00:17] | application/.JS
[Info][11:00:17] | application/.JS
[Info][11:00:17] | application/.JS
[Error][11:00:17] | asset
[Info][11:00:17] | application/.JS
[Error][11:00:17] | asset
[Error][11:00:17] | asset
[Info][11:00:17] | image/jpeg
[Info][11:00:17] | application/.JS
[Error][11:00:17] | asset
[Info][11:00:17] | application/.JS
[Error][11:00:17] | asset
[Info][11:00:17] | application/.PNG
[Error][11:00:17] | asset
[Info][11:00:17] | application/.WOFF2
[Error][11:00:17] | handler
[Error][11:00:32] | handler
[Error][11:00:35] | handler
[Error][11:00:54] | handler
[Error][11:08:57] | page
[Info][11:08:57] | C:\Users\AVIS\Desktop\gametools\A4Engine\bin\Debug\netcoreapp2.2\/assets/controllers/page/weaponeditor.html
[Error][11:08:57] | asset
[Error][11:08:57] | asset
[Info][11:08:57] | text/css
[Info][11:08:57] | application/.JS
[Error][11:08:57] | asset
[Info][11:08:57] | text/css
[Error][11:08:57] | asset
[Error][11:08:57] | asset
[Info][11:08:57] | text/css
[Info][11:08:57] | text/css
[Error][11:08:57] | asset
[Error][11:08:57] | asset
[Info][11:08:57] | application/.JS
[Info][11:08:57] | application/.JS
[Error][11:08:57] | asset
[Error][11:08:57] | asset
[Info][11:08:57] | application/.JS
[Info][11:08:57] | application/.JS
[Error][11:08:57] | asset
[Error][11:08:57] | asset
[Info][11:08:57] | application/.JS
[Info][11:08:57] | application/.JS
[Error][11:08:57] | asset
[Error][11:08:57] | asset
[Info][11:08:57] | application/.JS
[Info][11:08:57] | application/.JS
[Error][11:08:57] | asset
[Error][11:08:57] | asset
[Info][11:08:57] | application/.JS
[Info][11:08:57] | application/.JS
[Error][11:08:57] | asset
[Info][11:08:57] | image/jpeg
[Error][11:08:57] | asset
[Info][11:08:57] | application/.JS
[Error][11:08:58] | asset
[Info][11:08:58] | application/.PNG
[Error][11:08:58] | asset
[Info][11:08:58] | application/.WOFF2
[Error][11:08:58] | handler
[Error][11:08:58] | asset
[Info][11:08:58] | application/.ICO
[Error][11:09:00] | asset
[Error][11:09:00] | asset
[Error][11:09:00] | asset
[Error][11:09:00] | asset
[Info][11:09:00] | text/css
[Info][11:09:00] | text/css
[Info][11:09:00] | text/css
[Info][11:09:00] | text/css
[Error][11:09:19] | page
[Info][11:09:19] | C:\Users\AVIS\Desktop\gametools\A4Engine\bin\Debug\netcoreapp2.2\/assets/controllers/page/itemeditor.html
[Error][11:09:19] | asset
[Error][11:09:19] | asset
[Info][11:09:19] | application/.JS
[Info][11:09:19] | text/css
[Error][11:09:19] | asset
[Error][11:09:19] | asset
[Info][11:09:19] | text/css
[Info][11:09:19] | text/css
[Error][11:09:19] | asset
[Error][11:09:19] | asset
[Info][11:09:19] | application/.JS
[Info][11:09:19] | text/css
[Error][11:09:19] | asset
[Error][11:09:19] | asset
[Info][11:09:19] | application/.JS
[Info][11:09:19] | application/.JS
[Error][11:09:19] | asset
[Error][11:09:19] | asset
[Info][11:09:19] | application/.JS
[Info][11:09:19] | application/.JS
[Error][11:09:19] | asset
[Error][11:09:19] | asset
[Info][11:09:19] | application/.JS
[Info][11:09:19] | application/.JS
[Error][11:09:19] | asset
[Error][11:09:19] | asset
[Info][11:09:19] | application/.JS
[Info][11:09:19] | application/.JS
[Error][11:09:19] | asset
[Error][11:09:19] | asset
[Info][11:09:19] | image/jpeg
[Info][11:09:19] | application/.JS
[Error][11:09:19] | asset
[Error][11:09:19] | asset
[Info][11:09:19] | application/.JS
[Info][11:09:19] | application/.JS
[Error][11:09:19] | asset
[Info][11:09:19] | application/.PNG
[Error][11:09:19] | asset
[Info][11:09:19] | application/.WOFF2
[Error][11:09:19] | handler
[Error][11:09:35] | page
[Info][11:09:35] | C:\Users\AVIS\Desktop\gametools\A4Engine\bin\Debug\netcoreapp2.2\/assets/controllers/page/itemeditor.html
[Error][11:09:35] | asset
[Error][11:09:35] | asset
[Info][11:09:35] | text/css
[Info][11:09:35] | application/.JS
[Error][11:09:35] | asset
[Error][11:09:35] | asset
[Info][11:09:35] | text/css
[Info][11:09:35] | text/css
[Error][11:09:35] | asset
[Error][11:09:35] | asset
[Info][11:09:35] | application/.JS
[Info][11:09:35] | text/css
[Error][11:09:35] | asset
[Error][11:09:35] | asset
[Info][11:09:35] | application/.JS
[Info][11:09:35] | application/.JS
[Error][11:09:35] | asset
[Error][11:09:35] | asset
[Info][11:09:35] | application/.JS
[Info][11:09:35] | application/.JS
[Error][11:09:35] | asset
[Error][11:09:35] | asset
[Info][11:09:35] | application/.JS
[Info][11:09:35] | application/.JS
[Error][11:09:35] | asset
[Error][11:09:35] | asset
[Info][11:09:35] | application/.JS
[Info][11:09:35] | application/.JS
[Error][11:09:35] | asset
[Error][11:09:35] | asset
[Info][11:09:35] | application/.JS
[Info][11:09:35] | image/jpeg
[Error][11:09:35] | asset
[Error][11:09:35] | asset
[Info][11:09:35] | application/.JS
[Info][11:09:35] | application/.JS
[Error][11:09:35] | asset
[Info][11:09:35] | application/.PNG
[Error][11:09:35] | asset
[Info][11:09:35] | application/.WOFF2
[Error][11:09:35] | handler
[Error][11:09:35] | asset
[Info][11:09:35] | application/.ICO
[Error][11:10:11] | page
[Info][11:10:11] | C:\Users\AVIS\Desktop\gametools\A4Engine\bin\Debug\netcoreapp2.2\/assets/controllers/page/itemeditor.html
[Error][11:10:11] | asset
[Error][11:10:11] | asset
[Info][11:10:11] | application/.JS
[Info][11:10:11] | text/css
[Error][11:10:11] | asset
[Error][11:10:11] | asset
[Info][11:10:11] | text/css
[Info][11:10:11] | text/css
[Error][11:10:11] | asset
[Error][11:10:11] | asset
[Info][11:10:11] | text/css
[Info][11:10:11] | application/.JS
[Error][11:10:11] | asset
[Info][11:10:11] | application/.JS
[Error][11:10:11] | asset
[Error][11:10:11] | asset
[Info][11:10:11] | application/.JS
[Info][11:10:11] | application/.JS
[Error][11:10:11] | asset
[Error][11:10:11] | asset
[Info][11:10:11] | application/.JS
[Info][11:10:11] | application/.JS
[Error][11:10:11] | asset
[Info][11:10:11] | application/.JS
[Error][11:10:11] | asset
[Error][11:10:11] | asset
[Error][11:10:11] | asset
[Info][11:10:11] | application/.JS
[Info][11:10:11] | application/.JS
[Info][11:10:11] | application/.JS
[Error][11:10:11] | asset
[Info][11:10:11] | image/jpeg
[Error][11:10:11] | asset
[Info][11:10:11] | application/.JS
[Error][11:10:11] | asset
[Info][11:10:11] | application/.JS
[Error][11:10:11] | asset
[Info][11:10:11] | application/.PNG
[Error][11:10:11] | asset
[Info][11:10:11] | application/.WOFF2
[Error][11:10:11] | handler
[Error][11:10:11] | asset
[Info][11:10:11] | application/.ICO
[Error][11:15:23] | page
[Info][11:15:23] | C:\Users\AVIS\Desktop\gametools\A4Engine\bin\Debug\netcoreapp2.2\/assets/controllers/page/itemeditor.html
[Error][11:15:24] | asset
[Error][11:15:24] | asset
[Info][11:15:24] | text/css
[Info][11:15:24] | application/.JS
[Error][11:15:24] | asset
[Info][11:15:24] | text/css
[Error][11:15:24] | asset
[Error][11:15:24] | asset
[Info][11:15:24] | text/css
[Info][11:15:24] | application/.JS
[Error][11:15:24] | asset
[Error][11:15:24] | asset
[Info][11:15:24] | text/css
[Info][11:15:24] | application/.JS
[Error][11:15:24] | asset
[Error][11:15:24] | asset
[Info][11:15:24] | application/.JS
[Info][11:15:24] | application/.JS
[Error][11:15:24] | asset
[Info][11:15:24] | application/.JS
[Error][11:15:24] | asset
[Error][11:15:24] | asset
[Info][11:15:24] | application/.JS
[Info][11:15:24] | application/.JS
[Error][11:15:24] | asset
[Error][11:15:24] | asset
[Error][11:15:24] | asset
[Info][11:15:24] | application/.JS
[Info][11:15:24] | application/.JS
[Info][11:15:24] | application/.JS
[Error][11:15:24] | asset
[Info][11:15:24] | image/jpeg
[Error][11:15:24] | asset
[Info][11:15:24] | application/.JS
[Error][11:15:24] | asset
[Info][11:15:24] | application/.JS
[Error][11:15:24] | asset
[Info][11:15:24] | application/.PNG
[Error][11:15:24] | asset
[Info][11:15:24] | application/.WOFF2
[Error][11:15:24] | handler
[Error][11:15:24] | asset
[Info][11:15:24] | application/.ICO
[Error][11:16:37] | page
[Info][11:16:37] | C:\Users\AVIS\Desktop\gametools\A4Engine\bin\Debug\netcoreapp2.2\/assets/controllers/page/itemeditor.html
[Error][11:16:37] | asset
[Error][11:16:37] | asset
[Info][11:16:37] | text/css
[Info][11:16:37] | application/.JS
[Error][11:16:37] | asset
[Error][11:16:37] | asset
[Info][11:16:37] | text/css
[Info][11:16:37] | text/css
[Error][11:16:37] | asset
[Info][11:16:37] | text/css
[Error][11:16:37] | asset
[Info][11:16:37] | application/.JS
[Error][11:16:37] | asset
[Info][11:16:37] | application/.JS
[Error][11:16:37] | asset
[Info][11:16:37] | application/.JS
[Error][11:16:37] | asset
[Info][11:16:37] | application/.JS
[Error][11:16:37] | asset
[Info][11:16:37] | application/.JS
[Error][11:16:37] | asset
[Info][11:16:37] | application/.JS
[Error][11:16:37] | asset
[Info][11:16:37] | application/.JS
[Error][11:16:37] | asset
[Info][11:16:37] | application/.JS
[Error][11:16:37] | asset
[Info][11:16:37] | application/.JS
[Error][11:16:37] | asset
[Info][11:16:37] | application/.JS
[Error][11:16:37] | asset
[Info][11:16:37] | application/.JS
[Error][11:16:37] | asset
[Info][11:16:37] | application/.JS
[Error][11:16:37] | asset
[Info][11:16:37] | image/jpeg
[Error][11:16:37] | asset
[Info][11:16:37] | application/.PNG
[Error][11:16:37] | asset
[Info][11:16:37] | application/.WOFF2
[Error][11:16:38] | handler
[Error][11:16:38] | asset
[Info][11:16:38] | application/.ICO
[Error][11:16:59] | page
[Info][11:16:59] | C:\Users\AVIS\Desktop\gametools\A4Engine\bin\Debug\netcoreapp2.2\/assets/controllers/page/itemeditor.html
[Error][11:16:59] | asset
[Error][11:16:59] | asset
[Info][11:16:59] | text/css
[Info][11:16:59] | application/.JS
[Error][11:16:59] | asset
[Info][11:16:59] | text/css
[Error][11:16:59] | asset
[Error][11:16:59] | asset
[Info][11:16:59] | text/css
[Info][11:16:59] | application/.JS
[Error][11:16:59] | asset
[Error][11:16:59] | asset
[Info][11:16:59] | text/css
[Info][11:16:59] | application/.JS
[Error][11:16:59] | asset
[Info][11:16:59] | application/.JS
[Error][11:16:59] | asset
[Error][11:16:59] | asset
[Info][11:16:59] | application/.JS
[Info][11:16:59] | application/.JS
[Error][11:16:59] | asset
[Info][11:16:59] | application/.JS
[Error][11:16:59] | asset
[Error][11:16:59] | asset
[Info][11:16:59] | application/.JS
[Info][11:16:59] | application/.JS
[Error][11:16:59] | asset
[Error][11:16:59] | asset
[Info][11:16:59] | application/.JS
[Info][11:16:59] | application/.JS
[Error][11:16:59] | asset
[Info][11:16:59] | image/jpeg
[Error][11:16:59] | asset
[Info][11:16:59] | application/.JS
[Error][11:16:59] | asset
[Info][11:16:59] | application/.JS
[Error][11:17:00] | asset
[Info][11:17:00] | application/.PNG
[Error][11:17:00] | asset
[Info][11:17:00] | application/.WOFF2
[Error][11:17:00] | handler
[Error][11:17:00] | asset
[Info][11:17:00] | application/.ICO
[Error][11:19:47] | page
[Info][11:19:47] | C:\Users\AVIS\Desktop\gametools\A4Engine\bin\Debug\netcoreapp2.2\/assets/controllers/page/itemeditor.html
[Error][11:19:47] | asset
[Error][11:19:47] | asset
[Info][11:19:47] | text/css
[Info][11:19:47] | application/.JS
[Error][11:19:47] | asset
[Info][11:19:47] | text/css
[Error][11:19:47] | asset
[Error][11:19:47] | asset
[Info][11:19:47] | application/.JS
[Info][11:19:47] | text/css
[Error][11:19:47] | asset
[Error][11:19:47] | asset
[Info][11:19:47] | text/css
[Info][11:19:47] | application/.JS
[Error][11:19:47] | asset
[Error][11:19:47] | asset
[Info][11:19:47] | application/.JS
[Info][11:19:47] | application/.JS
[Error][11:19:47] | asset
[Error][11:19:47] | asset
[Info][11:19:47] | application/.JS
[Info][11:19:47] | application/.JS
[Error][11:19:47] | asset
[Error][11:19:47] | asset
[Info][11:19:47] | application/.JS
[Info][11:19:47] | application/.JS
[Error][11:19:47] | asset
[Error][11:19:47] | asset
[Info][11:19:47] | application/.JS
[Info][11:19:47] | application/.JS
[Error][11:19:47] | asset
[Info][11:19:47] | image/jpeg
[Error][11:19:47] | asset
[Info][11:19:47] | application/.JS
[Error][11:19:47] | asset
[Info][11:19:47] | application/.JS
[Error][11:19:47] | asset
[Info][11:19:47] | application/.PNG
[Error][11:19:47] | asset
[Info][11:19:47] | application/.WOFF2
[Error][11:19:47] | handler
[Error][11:19:48] | asset
[Info][11:19:48] | application/.ICO
[Error][11:20:21] | page
[Info][11:20:21] | C:\Users\AVIS\Desktop\gametools\A4Engine\bin\Debug\netcoreapp2.2\/assets/controllers/page/itemeditor.html
[Error][11:20:21] | asset
[Error][11:20:21] | asset
[Info][11:20:21] | text/css
[Info][11:20:21] | application/.JS
[Error][11:20:21] | asset
[Info][11:20:21] | text/css
[Error][11:20:21] | asset
[Error][11:20:21] | asset
[Info][11:20:21] | text/css
[Info][11:20:21] | text/css
[Error][11:20:21] | asset
[Error][11:20:21] | asset
[Info][11:20:21] | application/.JS
[Info][11:20:21] | application/.JS
[Error][11:20:21] | asset
[Error][11:20:21] | asset
[Info][11:20:21] | application/.JS
[Info][11:20:21] | application/.JS
[Error][11:20:21] | asset
[Error][11:20:21] | asset
[Info][11:20:21] | application/.JS
[Info][11:20:21] | application/.JS
[Error][11:20:21] | asset
[Error][11:20:21] | asset
[Info][11:20:21] | application/.JS
[Info][11:20:21] | application/.JS
[Error][11:20:21] | asset
[Error][11:20:21] | asset
[Info][11:20:21] | application/.JS
[Info][11:20:21] | application/.JS
[Error][11:20:21] | asset
[Info][11:20:21] | image/jpeg
[Error][11:20:21] | asset
[Info][11:20:21] | application/.JS
[Error][11:20:21] | asset
[Info][11:20:21] | application/.JS
[Error][11:20:21] | asset
[Info][11:20:21] | application/.PNG
[Error][11:20:21] | asset
[Info][11:20:21] | application/.WOFF2
[Error][11:20:21] | handler
[Error][11:20:21] | asset
[Info][11:20:21] | application/.ICO
[Error][11:22:41] | page
[Info][11:22:41] | C:\Users\AVIS\Desktop\gametools\A4Engine\bin\Debug\netcoreapp2.2\/assets/controllers/page/itemeditor.html
[Error][11:22:41] | asset
[Error][11:22:41] | asset
[Info][11:22:41] | text/css
[Info][11:22:41] | application/.JS
[Error][11:22:41] | asset
[Info][11:22:41] | text/css
[Error][11:22:41] | asset
[Error][11:22:41] | asset
[Info][11:22:41] | text/css
[Info][11:22:41] | application/.JS
[Error][11:22:41] | asset
[Error][11:22:41] | asset
[Info][11:22:41] | text/css
[Info][11:22:41] | application/.JS
[Error][11:22:41] | asset
[Error][11:22:41] | asset
[Info][11:22:41] | application/.JS
[Info][11:22:41] | application/.JS
[Error][11:22:41] | asset
[Error][11:22:41] | asset
[Info][11:22:41] | application/.JS
[Info][11:22:41] | application/.JS
[Error][11:22:41] | asset
[Error][11:22:41] | asset
[Info][11:22:41] | application/.JS
[Info][11:22:41] | application/.JS
[Error][11:22:41] | asset
[Error][11:22:41] | asset
[Info][11:22:41] | application/.JS
[Info][11:22:41] | application/.JS
[Error][11:22:41] | asset
[Info][11:22:41] | image/jpeg
[Error][11:22:41] | asset
[Info][11:22:41] | application/.JS
[Error][11:22:41] | asset
[Info][11:22:41] | application/.JS
[Error][11:22:41] | asset
[Info][11:22:41] | application/.PNG
[Error][11:22:41] | asset
[Info][11:22:41] | application/.WOFF2
[Error][11:22:41] | handler
[Error][11:22:41] | asset
[Info][11:22:41] | application/.ICO
[Error][11:23:17] | page
[Info][11:23:17] | C:\Users\AVIS\Desktop\gametools\A4Engine\bin\Debug\netcoreapp2.2\/assets/controllers/page/itemeditor.html
[Error][11:23:17] | asset
[Error][11:23:17] | asset
[Info][11:23:17] | text/css
[Info][11:23:17] | application/.JS
[Error][11:23:17] | asset
[Error][11:23:17] | asset
[Info][11:23:17] | text/css
[Info][11:23:17] | text/css
[Error][11:23:17] | asset
[Error][11:23:17] | asset
[Info][11:23:17] | text/css
[Info][11:23:17] | application/.JS
[Error][11:23:17] | asset
[Error][11:23:17] | asset
[Info][11:23:17] | application/.JS
[Info][11:23:17] | application/.JS
[Error][11:23:17] | asset
[Error][11:23:17] | asset
[Info][11:23:17] | application/.JS
[Info][11:23:17] | application/.JS
[Error][11:23:17] | asset
[Error][11:23:17] | asset
[Info][11:23:17] | application/.JS
[Info][11:23:17] | application/.JS
[Error][11:23:17] | asset
[Error][11:23:17] | asset
[Info][11:23:17] | application/.JS
[Info][11:23:17] | application/.JS
[Error][11:23:17] | asset
[Info][11:23:17] | application/.JS
[Error][11:23:17] | asset
[Info][11:23:17] | image/jpeg
[Error][11:23:17] | asset
[Info][11:23:17] | application/.JS
[Error][11:23:17] | asset
[Info][11:23:17] | application/.JS
[Error][11:23:17] | asset
[Info][11:23:17] | application/.PNG
[Error][11:23:17] | asset
[Info][11:23:17] | application/.WOFF2
[Error][11:23:17] | handler
[Error][11:23:18] | asset
[Info][11:23:18] | application/.ICO
[Error][11:27:39] | page
[Info][11:27:39] | C:\Users\AVIS\Desktop\gametools\A4Engine\bin\Debug\netcoreapp2.2\/assets/controllers/page/itemeditor.html
[Error][11:27:39] | asset
[Info][11:27:39] | text/css
[Error][11:27:39] | asset
[Error][11:27:39] | asset
[Info][11:27:39] | application/.JS
[Info][11:27:39] | text/css
[Error][11:27:39] | asset
[Info][11:27:39] | text/css
[Error][11:27:39] | asset
[Info][11:27:39] | application/.JS
[Error][11:27:39] | asset
[Info][11:27:39] | text/css
[Error][11:27:39] | asset
[Info][11:27:39] | application/.JS
[Error][11:27:39] | asset
[Info][11:27:39] | application/.JS
[Error][11:27:39] | asset
[Error][11:27:39] | asset
[Info][11:27:39] | application/.JS
[Info][11:27:39] | application/.JS
[Error][11:27:39] | asset
[Error][11:27:39] | asset
[Info][11:27:39] | application/.JS
[Info][11:27:39] | application/.JS
[Error][11:27:39] | asset
[Error][11:27:39] | asset
[Info][11:27:39] | application/.JS
[Info][11:27:39] | application/.JS
[Error][11:27:39] | asset
[Error][11:27:39] | asset
[Info][11:27:39] | application/.JS
[Info][11:27:39] | image/jpeg
[Error][11:27:39] | asset
[Error][11:27:39] | asset
[Info][11:27:39] | application/.JS
[Info][11:27:39] | application/.JS
[Error][11:27:40] | asset
[Info][11:27:40] | application/.PNG
[Error][11:27:40] | asset
[Info][11:27:40] | application/.WOFF2
[Error][11:27:40] | handler
[Error][11:27:40] | asset
[Info][11:27:40] | application/.ICO
[Error][11:28:52] | page
[Info][11:28:52] | C:\Users\AVIS\Desktop\gametools\A4Engine\bin\Debug\netcoreapp2.2\/assets/controllers/page/itemeditor.html
[Error][11:28:52] | asset
[Error][11:28:52] | asset
[Info][11:28:52] | text/css
[Info][11:28:52] | application/.JS
[Error][11:28:52] | asset
[Info][11:28:52] | text/css
[Error][11:28:52] | asset
[Error][11:28:52] | asset
[Info][11:28:52] | text/css
[Info][11:28:52] | application/.JS
[Error][11:28:52] | asset
[Error][11:28:52] | asset
[Info][11:28:52] | application/.JS
[Info][11:28:52] | text/css
[Error][11:28:52] | asset
[Error][11:28:52] | asset
[Info][11:28:52] | application/.JS
[Info][11:28:52] | application/.JS
[Error][11:28:52] | asset
[Error][11:28:52] | asset
[Info][11:28:52] | application/.JS
[Info][11:28:52] | application/.JS
[Error][11:28:52] | asset
[Error][11:28:52] | asset
[Info][11:28:52] | application/.JS
[Info][11:28:52] | application/.JS
[Error][11:28:52] | asset
[Error][11:28:52] | asset
[Info][11:28:52] | application/.JS
[Info][11:28:52] | application/.JS
[Error][11:28:52] | asset
[Info][11:28:52] | image/jpeg
[Error][11:28:52] | asset
[Info][11:28:52] | application/.JS
[Error][11:28:52] | asset
[Info][11:28:52] | application/.JS
[Error][11:28:53] | asset
[Info][11:28:53] | application/.PNG
[Error][11:28:53] | asset
[Info][11:28:53] | application/.WOFF2
[Error][11:28:53] | handler
[Error][11:28:53] | asset
[Info][11:28:53] | application/.ICO
[Error][11:29:34] | page
[Info][11:29:34] | C:\Users\AVIS\Desktop\gametools\A4Engine\bin\Debug\netcoreapp2.2\/assets/controllers/page/itemeditor.html
[Error][11:29:34] | asset
[Error][11:29:34] | asset
[Info][11:29:34] | text/css
[Info][11:29:34] | application/.JS
[Error][11:29:34] | asset
[Info][11:29:34] | text/css
[Error][11:29:34] | asset
[Error][11:29:34] | asset
[Info][11:29:34] | text/css
[Info][11:29:34] | application/.JS
[Error][11:29:35] | asset
[Error][11:29:35] | asset
[Info][11:29:35] | application/.JS
[Info][11:29:35] | text/css
[Error][11:29:35] | asset
[Info][11:29:35] | application/.JS
[Error][11:29:35] | asset
[Error][11:29:35] | asset
[Info][11:29:35] | application/.JS
[Info][11:29:35] | application/.JS
[Error][11:29:35] | asset
[Info][11:29:35] | application/.JS
[Error][11:29:35] | asset
[Error][11:29:35] | asset
[Info][11:29:35] | application/.JS
[Info][11:29:35] | application/.JS
[Error][11:29:35] | asset
[Error][11:29:35] | asset
[Error][11:29:35] | asset
[Info][11:29:35] | application/.JS
[Info][11:29:35] | image/jpeg
[Info][11:29:35] | application/.JS
[Error][11:29:35] | asset
[Info][11:29:35] | application/.JS
[Error][11:29:35] | asset
[Info][11:29:35] | application/.JS
[Error][11:29:35] | asset
[Info][11:29:35] | application/.PNG
[Error][11:29:35] | asset
[Info][11:29:35] | application/.WOFF2
[Error][11:29:35] | handler
[Error][11:29:35] | asset
[Info][11:29:35] | application/.ICO
[Error][11:33:13] | page
[Info][11:33:13] | C:\Users\AVIS\Desktop\gametools\A4Engine\bin\Debug\netcoreapp2.2\/assets/controllers/page/itemeditor.html
[Error][11:33:13] | asset
[Error][11:33:13] | asset
[Info][11:33:13] | application/.JS
[Info][11:33:13] | text/css
[Error][11:33:13] | asset
[Info][11:33:13] | text/css
[Error][11:33:13] | asset
[Info][11:33:13] | text/css
[Error][11:33:13] | asset
[Info][11:33:13] | application/.JS
[Error][11:33:13] | asset
[Info][11:33:13] | text/css
[Error][11:33:13] | asset
[Info][11:33:13] | application/.JS
[Error][11:33:13] | asset
[Error][11:33:13] | asset
[Info][11:33:13] | application/.JS
[Info][11:33:13] | application/.JS
[Error][11:33:13] | asset
[Error][11:33:13] | asset
[Info][11:33:13] | application/.JS
[Info][11:33:13] | application/.JS
[Error][11:33:13] | asset
[Error][11:33:13] | asset
[Error][11:33:13] | asset
[Info][11:33:13] | application/.JS
[Info][11:33:13] | application/.JS
[Info][11:33:13] | application/.JS
[Error][11:33:13] | asset
[Info][11:33:13] | application/.JS
[Error][11:33:13] | asset
[Info][11:33:13] | image/jpeg
[Error][11:33:13] | asset
[Info][11:33:13] | application/.JS
[Error][11:33:13] | asset
[Info][11:33:13] | application/.JS
[Error][11:33:13] | asset
[Info][11:33:13] | application/.PNG
[Error][11:33:13] | asset
[Info][11:33:13] | application/.WOFF2
[Error][11:33:13] | handler
[Error][11:33:13] | asset
[Info][11:33:13] | application/.ICO
[Error][11:33:35] | page
[Info][11:33:35] | C:\Users\AVIS\Desktop\gametools\A4Engine\bin\Debug\netcoreapp2.2\/assets/controllers/page/itemeditor.html
[Error][11:33:35] | asset
[Info][11:33:35] | text/css
[Error][11:33:35] | asset
[Error][11:33:35] | asset
[Info][11:33:35] | application/.JS
[Info][11:33:35] | text/css
[Error][11:33:35] | asset
[Error][11:33:35] | asset
[Info][11:33:35] | text/css
[Info][11:33:35] | text/css
[Error][11:33:35] | asset
[Error][11:33:35] | asset
[Info][11:33:35] | application/.JS
[Info][11:33:35] | application/.JS
[Error][11:33:35] | asset
[Error][11:33:35] | asset
[Info][11:33:35] | application/.JS
[Info][11:33:35] | application/.JS
[Error][11:33:35] | asset
[Error][11:33:35] | asset
[Info][11:33:35] | application/.JS
[Info][11:33:35] | application/.JS
[Error][11:33:35] | asset
[Error][11:33:35] | asset
[Error][11:33:35] | asset
[Info][11:33:35] | application/.JS
[Info][11:33:35] | application/.JS
[Info][11:33:35] | application/.JS
[Error][11:33:35] | asset
[Error][11:33:35] | asset
[Info][11:33:35] | application/.JS
[Info][11:33:35] | image/jpeg
[Error][11:33:35] | asset
[Error][11:33:35] | asset
[Info][11:33:35] | application/.JS
[Info][11:33:35] | application/.JS
[Error][11:33:35] | asset
[Info][11:33:35] | application/.PNG
[Error][11:33:35] | asset
[Info][11:33:35] | application/.WOFF2
[Error][11:33:35] | handler
[Error][11:33:36] | asset
[Info][11:33:36] | application/.ICO
[Error][11:33:57] | page
[Info][11:33:57] | C:\Users\AVIS\Desktop\gametools\A4Engine\bin\Debug\netcoreapp2.2\/assets/controllers/page/itemeditor.html
[Error][11:33:57] | asset
[Error][11:33:57] | asset
[Info][11:33:57] | text/css
[Info][11:33:57] | application/.JS
[Error][11:33:57] | asset
[Error][11:33:57] | asset
[Info][11:33:57] | text/css
[Info][11:33:57] | text/css
[Error][11:33:57] | asset
[Error][11:33:57] | asset
[Info][11:33:57] | text/css
[Info][11:33:57] | application/.JS
[Error][11:33:57] | asset
[Error][11:33:57] | asset
[Info][11:33:57] | application/.JS
[Info][11:33:57] | application/.JS
[Error][11:33:57] | asset
[Error][11:33:57] | asset
[Info][11:33:57] | application/.JS
[Info][11:33:57] | application/.JS
[Error][11:33:57] | asset
[Error][11:33:57] | asset
[Info][11:33:57] | application/.JS
[Info][11:33:57] | application/.JS
[Error][11:33:57] | asset
[Error][11:33:57] | asset
[Info][11:33:57] | application/.JS
[Info][11:33:57] | application/.JS
[Error][11:33:57] | asset
[Error][11:33:57] | asset
[Info][11:33:57] | application/.JS
[Info][11:33:57] | image/jpeg
[Error][11:33:57] | asset
[Error][11:33:57] | asset
[Info][11:33:57] | application/.JS
[Info][11:33:57] | application/.JS
[Error][11:33:58] | asset
[Info][11:33:58] | application/.PNG
[Error][11:33:58] | asset
[Info][11:33:58] | application/.WOFF2
[Error][11:33:58] | handler
[Error][11:33:58] | asset
[Info][11:33:58] | application/.ICO
[Error][11:34:38] | page
[Info][11:34:38] | C:\Users\AVIS\Desktop\gametools\A4Engine\bin\Debug\netcoreapp2.2\/assets/controllers/page/itemeditor.html
[Error][11:34:38] | asset
[Error][11:34:38] | asset
[Info][11:34:38] | text/css
[Info][11:34:38] | application/.JS
[Error][11:34:38] | asset
[Info][11:34:38] | text/css
[Error][11:34:38] | asset
[Error][11:34:38] | asset
[Info][11:34:38] | application/.JS
[Info][11:34:38] | text/css
[Error][11:34:38] | asset
[Error][11:34:38] | asset
[Info][11:34:38] | text/css
[Info][11:34:38] | application/.JS
[Error][11:34:38] | asset
[Info][11:34:38] | application/.JS
[Error][11:34:38] | asset
[Error][11:34:38] | asset
[Info][11:34:38] | application/.JS
[Info][11:34:38] | application/.JS
[Error][11:34:38] | asset
[Info][11:34:38] | application/.JS
[Error][11:34:38] | asset
[Error][11:34:38] | asset
[Info][11:34:38] | application/.JS
[Info][11:34:38] | application/.JS
[Error][11:34:38] | asset
[Error][11:34:38] | asset
[Info][11:34:38] | application/.JS
[Info][11:34:38] | application/.JS
[Error][11:34:38] | asset
[Info][11:34:38] | image/jpeg
[Error][11:34:38] | asset
[Info][11:34:38] | application/.JS
[Error][11:34:38] | asset
[Info][11:34:38] | application/.JS
[Error][11:34:38] | asset
[Info][11:34:38] | application/.PNG
[Error][11:34:38] | asset
[Info][11:34:38] | application/.WOFF2
[Error][11:34:38] | handler
[Error][11:34:39] | asset
[Info][11:34:39] | application/.ICO
[Error][11:35:33] | page
[Info][11:35:33] | C:\Users\AVIS\Desktop\gametools\A4Engine\bin\Debug\netcoreapp2.2\/assets/controllers/page/itemeditor.html
[Error][11:35:33] | asset
[Error][11:35:33] | asset
[Info][11:35:33] | text/css
[Info][11:35:33] | application/.JS
[Error][11:35:33] | asset
[Error][11:35:33] | asset
[Info][11:35:33] | text/css
[Info][11:35:33] | text/css
[Error][11:35:33] | asset
[Error][11:35:33] | asset
[Info][11:35:33] | text/css
[Info][11:35:33] | application/.JS
[Error][11:35:34] | asset
[Error][11:35:34] | asset
[Info][11:35:34] | application/.JS
[Info][11:35:34] | application/.JS
[Error][11:35:34] | asset
[Error][11:35:34] | asset
[Info][11:35:34] | application/.JS
[Info][11:35:34] | application/.JS
[Error][11:35:34] | asset
[Info][11:35:34] | application/.JS
[Error][11:35:34] | asset
[Error][11:35:34] | asset
[Info][11:35:34] | application/.JS
[Info][11:35:34] | application/.JS
[Error][11:35:34] | asset
[Error][11:35:34] | asset
[Info][11:35:34] | application/.JS
[Info][11:35:34] | application/.JS
[Error][11:35:34] | asset
[Info][11:35:34] | image/jpeg
[Error][11:35:34] | asset
[Info][11:35:34] | application/.JS
[Error][11:35:34] | asset
[Info][11:35:34] | application/.JS
[Error][11:35:34] | asset
[Info][11:35:34] | application/.PNG
[Error][11:35:34] | asset
[Info][11:35:34] | application/.WOFF2
[Error][11:35:34] | handler
[Error][11:35:34] | asset
[Info][11:35:34] | application/.ICO
[Error][11:36:32] | page
[Info][11:36:32] | C:\Users\AVIS\Desktop\gametools\A4Engine\bin\Debug\netcoreapp2.2\/assets/controllers/page/itemeditor.html
[Error][11:36:32] | asset
[Error][11:36:32] | asset
[Info][11:36:32] | text/css
[Info][11:36:33] | application/.JS
[Error][11:36:33] | asset
[Info][11:36:33] | text/css
[Error][11:36:33] | asset
[Error][11:36:33] | asset
[Info][11:36:33] | text/css
[Info][11:36:33] | application/.JS
[Error][11:36:33] | asset
[Error][11:36:33] | asset
[Info][11:36:33] | application/.JS
[Info][11:36:33] | text/css
[Error][11:36:33] | asset
[Error][11:36:33] | asset
[Info][11:36:33] | application/.JS
[Info][11:36:33] | application/.JS
[Error][11:36:33] | asset
[Error][11:36:33] | asset
[Info][11:36:33] | application/.JS
[Info][11:36:33] | application/.JS
[Error][11:36:33] | asset
[Error][11:36:33] | asset
[Info][11:36:33] | application/.JS
[Info][11:36:33] | application/.JS
[Error][11:36:33] | asset
[Error][11:36:33] | asset
[Info][11:36:33] | application/.JS
[Info][11:36:33] | application/.JS
[Error][11:36:33] | asset
[Info][11:36:33] | image/jpeg
[Error][11:36:33] | asset
[Info][11:36:33] | application/.JS
[Error][11:36:33] | asset
[Info][11:36:33] | application/.JS
[Error][11:36:33] | asset
[Info][11:36:33] | application/.PNG
[Error][11:36:33] | asset
[Info][11:36:33] | application/.WOFF2
[Error][11:36:33] | handler
[Error][11:36:33] | asset
[Info][11:36:33] | application/.ICO
[Error][11:37:00] | page
[Info][11:37:00] | C:\Users\AVIS\Desktop\gametools\A4Engine\bin\Debug\netcoreapp2.2\/assets/controllers/page/itemeditor.html
[Error][11:37:00] | asset
[Error][11:37:00] | asset
[Info][11:37:00] | text/css
[Info][11:37:00] | application/.JS
[Error][11:37:00] | asset
[Info][11:37:00] | text/css
[Error][11:37:00] | asset
[Info][11:37:00] | text/css
[Error][11:37:00] | asset
[Error][11:37:00] | asset
[Info][11:37:00] | application/.JS
[Info][11:37:00] | text/css
[Error][11:37:00] | asset
[Error][11:37:00] | asset
[Info][11:37:00] | application/.JS
[Info][11:37:00] | application/.JS
[Error][11:37:00] | asset
[Error][11:37:00] | asset
[Info][11:37:00] | application/.JS
[Info][11:37:00] | application/.JS
[Error][11:37:00] | asset
[Error][11:37:00] | asset
[Info][11:37:00] | application/.JS
[Info][11:37:00] | application/.JS
[Error][11:37:00] | asset
[Error][11:37:00] | asset
[Info][11:37:00] | application/.JS
[Info][11:37:00] | application/.JS
[Error][11:37:00] | asset
[Error][11:37:00] | asset
[Info][11:37:00] | application/.JS
[Info][11:37:00] | image/jpeg
[Error][11:37:00] | asset
[Error][11:37:00] | asset
[Info][11:37:00] | application/.JS
[Info][11:37:00] | application/.JS
[Error][11:37:00] | asset
[Info][11:37:00] | application/.PNG
[Error][11:37:00] | asset
[Info][11:37:00] | application/.WOFF2
[Error][11:37:00] | handler
[Error][11:37:01] | asset
[Info][11:37:01] | application/.ICO
[Error][11:38:51] | page
[Info][11:38:51] | C:\Users\AVIS\Desktop\gametools\A4Engine\bin\Debug\netcoreapp2.2\/assets/controllers/page/itemeditor.html
[Error][11:38:51] | asset
[Info][11:38:51] | text/css
[Error][11:38:51] | asset
[Info][11:38:51] | application/.JS
[Error][11:38:51] | asset
[Info][11:38:51] | text/css
[Error][11:38:51] | asset
[Error][11:38:51] | asset
[Info][11:38:51] | text/css
[Info][11:38:51] | application/.JS
[Error][11:38:51] | asset
[Error][11:38:51] | asset
[Info][11:38:51] | text/css
[Info][11:38:51] | application/.JS
[Error][11:38:51] | asset
[Info][11:38:51] | application/.JS
[Error][11:38:51] | asset
[Error][11:38:51] | asset
[Info][11:38:51] | application/.JS
[Info][11:38:51] | application/.JS
[Error][11:38:51] | asset
[Info][11:38:51] | application/.JS
[Error][11:38:51] | asset
[Info][11:38:51] | application/.JS
[Error][11:38:51] | asset
[Info][11:38:51] | application/.JS
[Error][11:38:51] | asset
[Error][11:38:51] | asset
[Info][11:38:51] | application/.JS
[Info][11:38:51] | application/.JS
[Error][11:38:51] | asset
[Info][11:38:51] | image/jpeg
[Error][11:38:51] | asset
[Error][11:38:51] | asset
[Info][11:38:51] | application/.JS
[Info][11:38:51] | application/.JS
[Error][11:38:51] | asset
[Info][11:38:51] | application/.PNG
[Error][11:38:51] | asset
[Info][11:38:51] | application/.WOFF2
[Error][11:38:51] | handler
[Error][11:38:52] | asset
[Info][11:38:52] | application/.ICO
[Error][11:41:36] | page
[Info][11:41:36] | C:\Users\AVIS\Desktop\gametools\A4Engine\bin\Debug\netcoreapp2.2\/assets/controllers/page/itemeditor.html
[Error][11:41:36] | asset
[Error][11:41:36] | asset
[Info][11:41:36] | application/.JS
[Info][11:41:36] | text/css
[Error][11:41:36] | asset
[Error][11:41:36] | asset
[Info][11:41:36] | text/css
[Info][11:41:36] | text/css
[Error][11:41:36] | asset
[Error][11:41:36] | asset
[Info][11:41:36] | text/css
[Info][11:41:36] | application/.JS
[Error][11:41:36] | asset
[Info][11:41:36] | application/.JS
[Error][11:41:36] | asset
[Error][11:41:36] | asset
[Info][11:41:36] | application/.JS
[Info][11:41:36] | application/.JS
[Error][11:41:36] | asset
[Error][11:41:36] | asset
[Info][11:41:36] | application/.JS
[Info][11:41:36] | application/.JS
[Error][11:41:36] | asset
[Error][11:41:36] | asset
[Info][11:41:36] | application/.JS
[Info][11:41:36] | application/.JS
[Error][11:41:36] | asset
[Error][11:41:36] | asset
[Info][11:41:36] | application/.JS
[Info][11:41:36] | application/.JS
[Error][11:41:36] | asset
[Info][11:41:36] | image/jpeg
[Error][11:41:36] | asset
[Info][11:41:36] | application/.JS
[Error][11:41:36] | asset
[Info][11:41:36] | application/.JS
[Error][11:41:36] | asset
[Info][11:41:36] | application/.PNG
[Error][11:41:36] | asset
[Info][11:41:36] | application/.WOFF2
[Error][11:41:36] | handler
[Error][11:41:37] | asset
[Info][11:41:37] | application/.ICO
[Error][11:42:11] | handler
[Error][11:42:11] | handler
[Error][11:42:11] | handler
[Info][11:42:11] | System.OverflowException: The TimeSpan could not be parsed because at least one of the numeric components is out of range or contains too many digits.
   at System.Globalization.TimeSpanParse.TimeSpanResult.SetFailure(ParseFailureKind kind, String resourceKey, Object messageArgument, String argumentName)
   at System.Globalization.TimeSpanParse.ProcessTerminal_HMS_F_D(TimeSpanRawInfo& raw, TimeSpanStandardStyles style, TimeSpanResult& result)
   at System.Globalization.TimeSpanParse.ProcessTerminalState(TimeSpanRawInfo& raw, TimeSpanStandardStyles style, TimeSpanResult& result)
   at System.Globalization.TimeSpanParse.TryParseTimeSpan(ReadOnlySpan`1 input, TimeSpanStandardStyles style, IFormatProvider formatProvider, TimeSpanResult& result)
   at WebPanel.Base.TypeFormat(String value, Type type) in C:\Users\AVIS\Desktop\gametools\A4Engine\Base.cs:line 83
   at WebPanel.Base.GetObjectByParams[T](NameValueCollection data) in C:\Users\AVIS\Desktop\gametools\A4Engine\Base.cs:line 59
[Info][11:42:11] | System.OverflowException: The TimeSpan could not be parsed because at least one of the numeric components is out of range or contains too many digits.
   at System.Globalization.TimeSpanParse.TimeSpanResult.SetFailure(ParseFailureKind kind, String resourceKey, Object messageArgument, String argumentName)
   at System.Globalization.TimeSpanParse.ProcessTerminal_HMS_F_D(TimeSpanRawInfo& raw, TimeSpanStandardStyles style, TimeSpanResult& result)
   at System.Globalization.TimeSpanParse.ProcessTerminalState(TimeSpanRawInfo& raw, TimeSpanStandardStyles style, TimeSpanResult& result)
   at System.Globalization.TimeSpanParse.TryParseTimeSpan(ReadOnlySpan`1 input, TimeSpanStandardStyles style, IFormatProvider formatProvider, TimeSpanResult& result)
   at WebPanel.Base.TypeFormat(String value, Type type) in C:\Users\AVIS\Desktop\gametools\A4Engine\Base.cs:line 83
   at WebPanel.Base.GetObjectByParams[T](NameValueCollection data) in C:\Users\AVIS\Desktop\gametools\A4Engine\Base.cs:line 59
[Error][11:42:15] | page
[Info][11:42:15] | C:\Users\AVIS\Desktop\gametools\A4Engine\bin\Debug\netcoreapp2.2\/assets/controllers/page/itemeditor.html
[Error][11:42:15] | asset
[Info][11:42:15] | text/css
[Error][11:42:15] | asset
[Info][11:42:15] | text/css
[Error][11:42:15] | asset
[Info][11:42:15] | text/css
[Error][11:42:15] | asset
[Info][11:42:15] | application/.JS
[Error][11:42:15] | asset
[Info][11:42:15] | text/css
[Error][11:42:15] | asset
[Info][11:42:15] | application/.JS
[Error][11:42:15] | asset
[Info][11:42:15] | application/.JS
[Error][11:42:15] | asset
[Info][11:42:15] | application/.JS
[Error][11:42:15] | asset
[Info][11:42:15] | application/.JS
[Error][11:42:15] | asset
[Info][11:42:15] | application/.JS
[Error][11:42:15] | asset
[Info][11:42:15] | application/.JS
[Error][11:42:15] | asset
[Info][11:42:15] | application/.JS
[Error][11:42:15] | asset
[Info][11:42:15] | application/.JS
[Error][11:42:15] | asset
[Info][11:42:15] | application/.JS
[Error][11:42:15] | asset
[Info][11:42:15] | application/.JS
[Error][11:42:15] | asset
[Info][11:42:15] | image/jpeg
[Error][11:42:15] | asset
[Info][11:42:15] | application/.JS
[Error][11:42:15] | asset
[Info][11:42:15] | application/.JS
[Error][11:42:15] | asset
[Info][11:42:15] | application/.PNG
[Error][11:42:15] | asset
[Info][11:42:15] | application/.WOFF2
[Error][11:42:15] | handler
[Error][11:42:16] | asset
[Info][11:42:16] | application/.ICO
[Error][11:43:12] | page
[Info][11:43:12] | C:\Users\AVIS\Desktop\gametools\A4Engine\bin\Debug\netcoreapp2.2\/assets/controllers/page/weaponeditor.html
[Error][11:43:12] | asset
[Error][11:43:12] | asset
[Info][11:43:12] | text/css
[Info][11:43:12] | application/.JS
[Error][11:43:12] | asset
[Info][11:43:12] | text/css
[Error][11:43:12] | asset
[Error][11:43:12] | asset
[Info][11:43:12] | text/css
[Info][11:43:12] | application/.JS
[Error][11:43:13] | asset
[Error][11:43:13] | asset
[Info][11:43:13] | application/.JS
[Info][11:43:13] | text/css
[Error][11:43:13] | asset
[Error][11:43:13] | asset
[Info][11:43:13] | application/.JS
[Info][11:43:13] | application/.JS
[Error][11:43:13] | asset
[Error][11:43:13] | asset
[Info][11:43:13] | application/.JS
[Info][11:43:13] | application/.JS
[Error][11:43:13] | asset
[Error][11:43:13] | asset
[Info][11:43:13] | application/.JS
[Info][11:43:13] | application/.JS
[Error][11:43:13] | asset
[Error][11:43:13] | asset
[Info][11:43:13] | application/.JS
[Info][11:43:13] | application/.JS
[Error][11:43:13] | asset
[Info][11:43:13] | image/jpeg
[Error][11:43:13] | asset
[Info][11:43:13] | application/.JS
[Error][11:43:13] | asset
[Info][11:43:13] | application/.PNG
[Error][11:43:13] | asset
[Info][11:43:13] | application/.WOFF2
[Error][11:43:13] | handler
[Error][11:43:22] | page
[Info][11:43:22] | C:\Users\AVIS\Desktop\gametools\A4Engine\bin\Debug\netcoreapp2.2\/assets/controllers/page/weaponeditor.html
[Error][11:43:22] | asset
[Error][11:43:22] | asset
[Error][11:43:22] | asset
[Info][11:43:22] | text/css
[Error][11:43:22] | asset
[Info][11:43:22] | application/.JS
[Error][11:43:22] | asset
[Error][11:43:22] | asset
[Info][11:43:22] | application/.JS
[Info][11:43:22] | text/css
[Error][11:43:22] | asset
[Info][11:43:22] | application/.JS
[Info][11:43:22] | application/.JS
[Info][11:43:22] | text/css
[Error][11:43:22] | asset
[Info][11:43:22] | application/.JS
[Error][11:43:22] | asset
[Error][11:43:22] | asset
[Error][11:43:22] | asset
[Error][11:43:22] | asset
[Error][11:43:22] | asset
[Error][11:43:22] | asset
[Info][11:43:22] | application/.JS
[Info][11:43:22] | application/.JS
[Info][11:43:22] | application/.JS
[Info][11:43:22] | application/.JS
[Info][11:43:22] | text/css
[Info][11:43:22] | application/.JS
[Error][11:43:22] | asset
[Error][11:43:22] | asset
[Info][11:43:22] | image/jpeg
[Info][11:43:22] | application/.JS
[Error][11:43:22] | asset
[Info][11:43:22] | application/.JS
[Error][11:43:22] | asset
[Info][11:43:22] | application/.PNG
[Error][11:43:22] | asset
[Info][11:43:22] | application/.WOFF2
[Error][11:43:22] | handler
[Error][11:43:27] | page
[Info][11:43:27] | C:\Users\AVIS\Desktop\gametools\A4Engine\bin\Debug\netcoreapp2.2\/assets/controllers/page/itemeditor.html
[Error][11:43:27] | asset
[Error][11:43:27] | asset
[Error][11:43:27] | asset
[Info][11:43:27] | text/css
[Error][11:43:27] | asset
[Error][11:43:27] | asset
[Info][11:43:27] | application/.JS
[Error][11:43:27] | asset
[Info][11:43:27] | application/.JS
[Info][11:43:27] | text/css
[Error][11:43:27] | asset
[Info][11:43:27] | application/.JS
[Info][11:43:27] | text/css
[Info][11:43:27] | application/.JS
[Error][11:43:27] | asset
[Error][11:43:27] | asset
[Error][11:43:27] | asset
[Error][11:43:27] | asset
[Error][11:43:27] | asset
[Info][11:43:27] | application/.JS
[Info][11:43:27] | application/.JS
[Info][11:43:27] | application/.JS
[Info][11:43:27] | application/.JS
[Error][11:43:27] | asset
[Info][11:43:27] | application/.JS
[Info][11:43:27] | application/.JS
[Error][11:43:27] | asset
[Info][11:43:27] | text/css
[Error][11:43:27] | asset
[Error][11:43:27] | asset
[Info][11:43:27] | application/.JS
[Info][11:43:27] | image/jpeg
[Error][11:43:27] | asset
[Info][11:43:27] | application/.JS
[Error][11:43:27] | asset
[Info][11:43:27] | application/.JS
[Error][11:43:27] | asset
[Info][11:43:27] | application/.PNG
[Error][11:43:27] | asset
[Info][11:43:27] | application/.WOFF2
[Error][11:43:27] | handler
[Error][11:43:39] | handler
[Error][11:43:39] | handler
[Error][11:43:43] | page
[Info][11:43:43] | C:\Users\AVIS\Desktop\gametools\A4Engine\bin\Debug\netcoreapp2.2\/assets/controllers/page/itemeditor.html
[Error][11:43:43] | asset
[Error][11:43:43] | asset
[Info][11:43:43] | application/.JS
[Info][11:43:43] | text/css
[Error][11:43:43] | asset
[Error][11:43:43] | asset
[Info][11:43:43] | text/css
[Info][11:43:43] | text/css
[Error][11:43:43] | asset
[Error][11:43:43] | asset
[Info][11:43:43] | application/.JS
[Info][11:43:43] | text/css
[Error][11:43:43] | asset
[Error][11:43:43] | asset
[Info][11:43:43] | application/.JS
[Info][11:43:43] | application/.JS
[Error][11:43:43] | asset
[Error][11:43:43] | asset
[Info][11:43:43] | application/.JS
[Info][11:43:43] | application/.JS
[Error][11:43:43] | asset
[Error][11:43:43] | asset
[Info][11:43:43] | application/.JS
[Info][11:43:43] | application/.JS
[Error][11:43:43] | asset
[Error][11:43:43] | asset
[Info][11:43:43] | application/.JS
[Info][11:43:43] | application/.JS
[Error][11:43:43] | asset
[Error][11:43:43] | asset
[Info][11:43:43] | application/.JS
[Info][11:43:43] | image/jpeg
[Error][11:43:43] | asset
[Error][11:43:43] | asset
[Info][11:43:43] | application/.JS
[Info][11:43:43] | application/.JS
[Error][11:43:43] | asset
[Info][11:43:43] | application/.PNG
[Error][11:43:43] | asset
[Info][11:43:43] | application/.WOFF2
[Error][11:43:43] | handler
[Error][11:43:44] | asset
[Info][11:43:44] | application/.ICO
[Error][11:43:55] | page
[Info][11:43:55] | C:\Users\AVIS\Desktop\gametools\A4Engine\bin\Debug\netcoreapp2.2\/assets/controllers/page/ammoedtior.html
[Error][11:43:55] | asset
[Info][11:43:55] | text/css
[Error][11:43:55] | asset
[Info][11:43:55] | application/.JS
[Error][11:43:55] | asset
[Info][11:43:55] | text/css
[Error][11:43:55] | asset
[Info][11:43:55] | application/.JS
[Error][11:43:55] | asset
[Info][11:43:55] | application/.JS
[Error][11:43:55] | asset
[Error][11:43:55] | asset
[Info][11:43:55] | text/css
[Info][11:43:55] | application/.JS
[Error][11:43:55] | asset
[Error][11:43:55] | asset
[Info][11:43:55] | application/.JS
[Info][11:43:55] | application/.JS
[Error][11:43:55] | asset
[Error][11:43:55] | asset
[Info][11:43:55] | application/.JS
[Info][11:43:55] | application/.JS
[Error][11:43:55] | asset
[Error][11:43:55] | asset
[Info][11:43:55] | application/.JS
[Info][11:43:55] | application/.JS
[Error][11:43:55] | asset
[Error][11:43:55] | asset
[Info][11:43:55] | application/.JS
[Info][11:43:55] | image/jpeg
[Error][11:43:55] | asset
[Info][11:43:55] | application/.PNG
[Error][11:43:55] | asset
[Info][11:43:55] | application/.WOFF2
[Error][11:43:55] | handler
[Error][11:43:58] | page
[Info][11:43:58] | C:\Users\AVIS\Desktop\gametools\A4Engine\bin\Debug\netcoreapp2.2\/assets/controllers/page/itemeditor.html
[Error][11:43:58] | asset
[Error][11:43:58] | asset
[Error][11:43:58] | asset
[Error][11:43:58] | asset
[Info][11:43:58] | text/css
[Info][11:43:58] | application/.JS
[Error][11:43:58] | asset
[Info][11:43:58] | text/css
[Error][11:43:58] | asset
[Info][11:43:58] | application/.JS
[Error][11:43:58] | asset
[Info][11:43:58] | application/.JS
[Info][11:43:58] | text/css
[Info][11:43:58] | application/.JS
[Error][11:43:58] | asset
[Error][11:43:58] | asset
[Error][11:43:58] | asset
[Error][11:43:58] | asset
[Info][11:43:58] | application/.JS
[Error][11:43:58] | asset
[Info][11:43:58] | application/.JS
[Info][11:43:58] | application/.JS
[Info][11:43:58] | application/.JS
[Error][11:43:58] | asset
[Info][11:43:58] | application/.JS
[Info][11:43:58] | application/.JS
[Error][11:43:58] | asset
[Info][11:43:58] | text/css
[Error][11:43:58] | asset
[Error][11:43:58] | asset
[Info][11:43:58] | application/.JS
[Info][11:43:58] | image/jpeg
[Error][11:43:58] | asset
[Info][11:43:58] | application/.JS
[Error][11:43:58] | asset
[Info][11:43:58] | application/.JS
[Error][11:43:58] | asset
[Info][11:43:58] | application/.PNG
[Error][11:43:58] | asset
[Info][11:43:58] | application/.WOFF2
[Error][11:43:58] | handler
[Error][11:45:50] | page
[Info][11:45:50] | C:\Users\AVIS\Desktop\gametools\A4Engine\bin\Debug\netcoreapp2.2\/assets/controllers/page/itemeditor.html
[Error][11:45:50] | asset
[Error][11:45:50] | asset
[Info][11:45:50] | text/css
[Info][11:45:50] | application/.JS
[Error][11:45:50] | asset
[Info][11:45:50] | text/css
[Error][11:45:50] | asset
[Error][11:45:50] | asset
[Info][11:45:50] | text/css
[Info][11:45:50] | application/.JS
[Error][11:45:50] | asset
[Error][11:45:50] | asset
[Info][11:45:50] | application/.JS
[Info][11:45:50] | text/css
[Error][11:45:50] | asset
[Error][11:45:50] | asset
[Info][11:45:50] | application/.JS
[Info][11:45:50] | application/.JS
[Error][11:45:50] | asset
[Error][11:45:50] | asset
[Info][11:45:50] | application/.JS
[Info][11:45:50] | application/.JS
[Error][11:45:50] | asset
[Error][11:45:50] | asset
[Error][11:45:50] | asset
[Info][11:45:50] | application/.JS
[Info][11:45:50] | application/.JS
[Info][11:45:50] | application/.JS
[Error][11:45:50] | asset
[Info][11:45:50] | application/.JS
[Error][11:45:50] | asset
[Error][11:45:50] | asset
[Error][11:45:50] | asset
[Info][11:45:50] | image/jpeg
[Info][11:45:50] | application/.JS
[Info][11:45:50] | application/.JS
[Error][11:45:50] | asset
[Info][11:45:50] | application/.PNG
[Error][11:45:50] | asset
[Info][11:45:50] | application/.WOFF2
[Error][11:45:50] | handler
[Error][11:45:50] | asset
[Info][11:45:50] | application/.ICO
[Error][11:46:59] | page
[Info][11:46:59] | C:\Users\AVIS\Desktop\gametools\A4Engine\bin\Debug\netcoreapp2.2\/assets/controllers/page/itemeditor.html
[Error][11:46:59] | asset
[Error][11:46:59] | asset
[Info][11:46:59] | text/css
[Info][11:46:59] | application/.JS
[Error][11:46:59] | asset
[Info][11:46:59] | text/css
[Error][11:46:59] | asset
[Info][11:46:59] | text/css
[Error][11:46:59] | asset
[Info][11:46:59] | application/.JS
[Error][11:46:59] | asset
[Error][11:46:59] | asset
[Info][11:46:59] | application/.JS
[Info][11:46:59] | text/css
[Error][11:46:59] | asset
[Error][11:46:59] | asset
[Info][11:46:59] | application/.JS
[Info][11:46:59] | application/.JS
[Error][11:46:59] | asset
[Error][11:46:59] | asset
[Info][11:46:59] | application/.JS
[Info][11:46:59] | application/.JS
[Error][11:46:59] | asset
[Info][11:46:59] | application/.JS
[Error][11:46:59] | asset
[Error][11:46:59] | asset
[Error][11:46:59] | asset
[Info][11:46:59] | application/.JS
[Info][11:46:59] | application/.JS
[Info][11:46:59] | application/.JS
[Error][11:46:59] | asset
[Info][11:46:59] | image/jpeg
[Error][11:46:59] | asset
[Info][11:46:59] | application/.JS
[Error][11:46:59] | asset
[Info][11:46:59] | application/.JS
[Error][11:46:59] | asset
[Info][11:46:59] | application/.PNG
[Error][11:46:59] | asset
[Info][11:46:59] | application/.WOFF2
[Error][11:46:59] | handler
[Error][11:47:00] | asset
[Info][11:47:00] | application/.ICO
[Error][11:50:33] | handler
[Error][11:50:33] | handler
[Error][11:57:38] | page
[Info][11:57:38] | C:\Users\AVIS\Desktop\gametools\A4Engine\bin\Debug\netcoreapp2.2\/assets/controllers/page/itemeditor.html
[Error][11:57:39] | asset
[Error][11:57:39] | asset
[Info][11:57:39] | application/.JS
[Info][11:57:39] | text/css
[Error][11:57:39] | asset
[Info][11:57:39] | text/css
[Error][11:57:39] | asset
[Error][11:57:39] | asset
[Info][11:57:39] | application/.JS
[Info][11:57:39] | text/css
[Error][11:57:39] | asset
[Error][11:57:39] | asset
[Info][11:57:39] | text/css
[Info][11:57:39] | application/.JS
[Error][11:57:39] | asset
[Info][11:57:39] | application/.JS
[Error][11:57:39] | asset
[Error][11:57:39] | asset
[Info][11:57:39] | application/.JS
[Info][11:57:39] | application/.JS
[Error][11:57:39] | asset
[Info][11:57:39] | application/.JS
[Error][11:57:39] | asset
[Error][11:57:39] | asset
[Info][11:57:39] | application/.JS
[Info][11:57:39] | application/.JS
[Error][11:57:39] | asset
[Info][11:57:39] | application/.JS
[Error][11:57:39] | asset
[Error][11:57:39] | asset
[Info][11:57:39] | application/.JS
[Info][11:57:39] | image/jpeg
[Error][11:57:39] | asset
[Error][11:57:39] | asset
[Info][11:57:39] | application/.JS
[Info][11:57:39] | application/.JS
[Error][11:57:39] | asset
[Info][11:57:39] | application/.PNG
[Error][11:57:39] | asset
[Info][11:57:39] | application/.WOFF2
[Error][11:57:39] | handler
[Error][11:57:39] | asset
[Info][11:57:39] | application/.ICO
[Error][12:00:37] | page
[Info][12:00:37] | C:\Users\AVIS\Desktop\gametools\A4Engine\bin\Debug\netcoreapp2.2\/assets/controllers/page/weaponeditor.html
[Error][12:00:37] | asset
[Error][12:00:37] | asset
[Info][12:00:37] | application/.JS
[Info][12:00:37] | text/css
[Error][12:00:37] | asset
[Error][12:00:37] | asset
[Info][12:00:37] | text/css
[Info][12:00:37] | text/css
[Error][12:00:37] | asset
[Error][12:00:37] | asset
[Info][12:00:37] | application/.JS
[Info][12:00:37] | text/css
[Error][12:00:37] | asset
[Error][12:00:37] | asset
[Info][12:00:37] | application/.JS
[Info][12:00:37] | application/.JS
[Error][12:00:37] | asset
[Error][12:00:37] | asset
[Info][12:00:37] | application/.JS
[Info][12:00:37] | application/.JS
[Error][12:00:37] | asset
[Error][12:00:37] | asset
[Info][12:00:37] | application/.JS
[Info][12:00:37] | application/.JS
[Error][12:00:37] | asset
[Error][12:00:37] | asset
[Info][12:00:37] | application/.JS
[Info][12:00:37] | application/.JS
[Error][12:00:37] | asset
[Error][12:00:37] | asset
[Info][12:00:37] | application/.JS
[Info][12:00:37] | image/jpeg
[Error][12:00:37] | asset
[Info][12:00:37] | application/.JS
[Error][12:00:37] | asset
[Info][12:00:37] | application/.PNG
[Error][12:00:37] | asset
[Info][12:00:37] | application/.WOFF2
[Error][12:00:37] | handler
[Error][12:02:02] | page
[Info][12:02:02] | C:\Users\AVIS\Desktop\gametools\A4Engine\bin\Debug\netcoreapp2.2\/assets/controllers/page/weaponeditor.html
[Error][12:02:02] | asset
[Error][12:02:02] | asset
[Info][12:02:02] | text/css
[Info][12:02:02] | application/.JS
[Error][12:02:02] | asset
[Info][12:02:02] | text/css
[Error][12:02:02] | asset
[Info][12:02:02] | text/css
[Error][12:02:02] | asset
[Info][12:02:02] | application/.JS
[Error][12:02:02] | asset
[Error][12:02:02] | asset
[Info][12:02:02] | text/css
[Info][12:02:02] | application/.JS
[Error][12:02:02] | asset
[Info][12:02:02] | application/.JS
[Error][12:02:02] | asset
[Error][12:02:02] | asset
[Info][12:02:02] | application/.JS
[Info][12:02:02] | application/.JS
[Error][12:02:02] | asset
[Info][12:02:02] | application/.JS
[Error][12:02:02] | asset
[Error][12:02:02] | asset
[Info][12:02:02] | application/.JS
[Info][12:02:02] | application/.JS
[Error][12:02:03] | asset
[Error][12:02:03] | asset
[Info][12:02:03] | application/.JS
[Info][12:02:03] | application/.JS
[Error][12:02:03] | asset
[Info][12:02:03] | image/jpeg
[Error][12:02:03] | asset
[Info][12:02:03] | application/.JS
[Error][12:02:03] | asset
[Info][12:02:03] | application/.PNG
[Error][12:02:03] | asset
[Info][12:02:03] | application/.WOFF2
[Error][12:02:03] | handler
[Error][12:02:03] | asset
[Info][12:02:03] | application/.ICO
[Error][12:02:04] | handler
[Error][12:02:49] | page
[Info][12:02:49] | C:\Users\AVIS\Desktop\gametools\A4Engine\bin\Debug\netcoreapp2.2\/assets/controllers/page/weaponeditor.html
[Error][12:02:49] | asset
[Error][12:02:49] | asset
[Info][12:02:49] | application/.JS
[Info][12:02:49] | text/css
[Error][12:02:49] | asset
[Info][12:02:49] | text/css
[Error][12:02:49] | asset
[Info][12:02:49] | text/css
[Error][12:02:49] | asset
[Info][12:02:49] | application/.JS
[Error][12:02:49] | asset
[Info][12:02:49] | text/css
[Error][12:02:49] | asset
[Info][12:02:49] | application/.JS
[Error][12:02:49] | asset
[Info][12:02:49] | application/.JS
[Error][12:02:49] | asset
[Error][12:02:49] | asset
[Info][12:02:49] | application/.JS
[Info][12:02:49] | application/.JS
[Error][12:02:49] | asset
[Error][12:02:49] | asset
[Info][12:02:49] | application/.JS
[Info][12:02:49] | application/.JS
[Error][12:02:49] | asset
[Error][12:02:49] | asset
[Info][12:02:49] | application/.JS
[Info][12:02:49] | application/.JS
[Error][12:02:49] | asset
[Error][12:02:49] | asset
[Info][12:02:49] | image/jpeg
[Info][12:02:49] | application/.JS
[Error][12:02:49] | asset
[Info][12:02:49] | application/.JS
[Error][12:02:49] | asset
[Info][12:02:49] | application/.PNG
[Error][12:02:49] | asset
[Info][12:02:49] | application/.WOFF2
[Error][12:02:49] | handler
[Error][12:02:50] | asset
[Info][12:02:50] | application/.ICO
[Error][12:03:14] | handler
[Error][12:04:17] | handler
[Error][12:07:19] | page
[Info][12:07:19] | C:\Users\AVIS\Desktop\gametools\A4Engine\bin\Debug\netcoreapp2.2\/assets/controllers/page/weaponeditor.html
[Error][12:07:19] | asset
[Error][12:07:19] | asset
[Info][12:07:19] | text/css
[Info][12:07:19] | application/.JS
[Error][12:07:19] | asset
[Error][12:07:19] | asset
[Info][12:07:19] | text/css
[Info][12:07:19] | text/css
[Error][12:07:19] | asset
[Error][12:07:19] | asset
[Info][12:07:19] | application/.JS
[Info][12:07:19] | text/css
[Error][12:07:20] | asset
[Error][12:07:20] | asset
[Info][12:07:20] | application/.JS
[Info][12:07:20] | application/.JS
[Error][12:07:20] | asset
[Error][12:07:20] | asset
[Info][12:07:20] | application/.JS
[Info][12:07:20] | application/.JS
[Error][12:07:20] | asset
[Info][12:07:20] | application/.JS
[Error][12:07:20] | asset
[Error][12:07:20] | asset
[Info][12:07:20] | application/.JS
[Info][12:07:20] | application/.JS
[Error][12:07:20] | asset
[Info][12:07:20] | application/.JS
[Error][12:07:20] | asset
[Info][12:07:20] | application/.JS
[Error][12:07:20] | asset
[Info][12:07:20] | image/jpeg
[Error][12:07:20] | asset
[Info][12:07:20] | application/.JS
[Error][12:07:20] | asset
[Info][12:07:20] | application/.PNG
[Error][12:07:20] | asset
[Info][12:07:20] | application/.WOFF2
[Error][12:07:20] | handler
[Error][12:07:20] | asset
[Info][12:07:20] | application/.ICO
[Error][12:07:21] | handler
[Error][12:08:28] | page
[Info][12:08:28] | C:\Users\AVIS\Desktop\gametools\A4Engine\bin\Debug\netcoreapp2.2\/assets/controllers/page/weaponeditor.html
[Error][12:08:28] | asset
[Error][12:08:28] | asset
[Info][12:08:28] | application/.JS
[Info][12:08:28] | text/css
[Error][12:08:28] | asset
[Info][12:08:28] | text/css
[Error][12:08:28] | asset
[Error][12:08:28] | asset
[Info][12:08:28] | text/css
[Info][12:08:28] | application/.JS
[Error][12:08:28] | asset
[Error][12:08:28] | asset
[Info][12:08:28] | application/.JS
[Info][12:08:28] | text/css
[Error][12:08:28] | asset
[Error][12:08:28] | asset
[Info][12:08:28] | application/.JS
[Info][12:08:28] | application/.JS
[Error][12:08:28] | asset
[Error][12:08:28] | asset
[Info][12:08:28] | application/.JS
[Info][12:08:28] | application/.JS
[Error][12:08:28] | asset
[Error][12:08:28] | asset
[Info][12:08:28] | application/.JS
[Info][12:08:28] | application/.JS
[Error][12:08:28] | asset
[Error][12:08:28] | asset
[Info][12:08:28] | application/.JS
[Info][12:08:28] | application/.JS
[Error][12:08:28] | asset
[Info][12:08:28] | image/jpeg
[Error][12:08:28] | asset
[Info][12:08:28] | application/.JS
[Error][12:08:28] | asset
[Info][12:08:28] | application/.PNG
[Error][12:08:28] | asset
[Info][12:08:28] | application/.WOFF2
[Error][12:08:28] | handler
[Error][12:08:28] | asset
[Info][12:08:28] | application/.ICO
[Error][12:08:29] | handler
[Error][12:10:50] | page
[Info][12:10:50] | C:\Users\AVIS\Desktop\gametools\A4Engine\bin\Debug\netcoreapp2.2\/assets/controllers/page/weaponeditor.html
[Error][12:10:50] | asset
[Error][12:10:50] | asset
[Info][12:10:50] | text/css
[Info][12:10:50] | application/.JS
[Error][12:10:50] | asset
[Info][12:10:50] | text/css
[Error][12:10:50] | asset
[Error][12:10:50] | asset
[Info][12:10:50] | text/css
[Info][12:10:50] | application/.JS
[Error][12:10:50] | asset
[Error][12:10:50] | asset
[Info][12:10:50] | application/.JS
[Info][12:10:50] | text/css
[Error][12:10:50] | asset
[Error][12:10:50] | asset
[Info][12:10:50] | application/.JS
[Info][12:10:50] | application/.JS
[Error][12:10:50] | asset
[Error][12:10:50] | asset
[Info][12:10:50] | application/.JS
[Info][12:10:50] | application/.JS
[Error][12:10:50] | asset
[Error][12:10:50] | asset
[Info][12:10:50] | application/.JS
[Info][12:10:50] | application/.JS
[Error][12:10:50] | asset
[Error][12:10:50] | asset
[Info][12:10:50] | application/.JS
[Info][12:10:50] | application/.JS
[Error][12:10:50] | asset
[Info][12:10:50] | image/jpeg
[Error][12:10:50] | asset
[Info][12:10:50] | application/.JS
[Error][12:10:50] | asset
[Info][12:10:50] | application/.PNG
[Error][12:10:50] | asset
[Info][12:10:50] | application/.WOFF2
[Error][12:10:50] | handler
[Error][12:10:51] | asset
[Info][12:10:51] | application/.ICO
[Error][12:10:52] | handler
[Error][12:11:19] | page
[Info][12:11:19] | C:\Users\AVIS\Desktop\gametools\A4Engine\bin\Debug\netcoreapp2.2\/assets/controllers/page/weaponeditor.html
[Error][12:11:19] | asset
[Error][12:11:19] | asset
[Info][12:11:19] | application/.JS
[Info][12:11:19] | text/css
[Error][12:11:19] | asset
[Info][12:11:19] | text/css
[Error][12:11:19] | asset
[Error][12:11:19] | asset
[Info][12:11:19] | application/.JS
[Info][12:11:19] | text/css
[Error][12:11:19] | asset
[Error][12:11:19] | asset
[Info][12:11:19] | text/css
[Info][12:11:19] | application/.JS
[Error][12:11:19] | asset
[Info][12:11:19] | application/.JS
[Error][12:11:19] | asset
[Error][12:11:19] | asset
[Info][12:11:19] | application/.JS
[Info][12:11:19] | application/.JS
[Error][12:11:19] | asset
[Info][12:11:19] | application/.JS
[Error][12:11:19] | asset
[Error][12:11:19] | asset
[Info][12:11:19] | application/.JS
[Info][12:11:19] | application/.JS
[Error][12:11:19] | asset
[Error][12:11:19] | asset
[Error][12:11:19] | asset
[Info][12:11:19] | application/.JS
[Info][12:11:19] | application/.JS
[Info][12:11:19] | image/jpeg
[Error][12:11:19] | asset
[Info][12:11:19] | application/.JS
[Error][12:11:19] | asset
[Info][12:11:19] | application/.PNG
[Error][12:11:19] | asset
[Info][12:11:19] | application/.WOFF2
[Error][12:11:19] | handler
[Error][12:11:20] | asset
[Info][12:11:20] | application/.ICO
[Error][12:11:20] | handler
[Error][13:00:30] | page
[Info][13:00:30] | C:\Users\AVIS\Desktop\gametools\A4Engine\bin\Debug\netcoreapp2.2\/assets/controllers/page/weaponeditor.html
[Error][13:00:30] | asset
[Error][13:00:30] | asset
[Info][13:00:30] | text/css
[Info][13:00:30] | application/.JS
[Error][13:00:30] | asset
[Info][13:00:30] | text/css
[Error][13:00:30] | asset
[Error][13:00:30] | asset
[Info][13:00:30] | application/.JS
[Info][13:00:30] | text/css
[Error][13:00:30] | asset
[Error][13:00:30] | asset
[Info][13:00:30] | application/.JS
[Info][13:00:30] | text/css
[Error][13:00:30] | asset
[Error][13:00:30] | asset
[Info][13:00:30] | application/.JS
[Info][13:00:30] | application/.JS
[Error][13:00:30] | asset
[Error][13:00:30] | asset
[Info][13:00:30] | application/.JS
[Info][13:00:30] | application/.JS
[Error][13:00:30] | asset
[Error][13:00:30] | asset
[Info][13:00:30] | application/.JS
[Info][13:00:30] | application/.JS
[Error][13:00:30] | asset
[Info][13:00:30] | application/.JS
[Error][13:00:30] | asset
[Info][13:00:30] | application/.JS
[Error][13:00:30] | asset
[Info][13:00:30] | image/jpeg
[Error][13:00:30] | asset
[Info][13:00:30] | application/.JS
[Error][13:00:30] | asset
[Info][13:00:30] | application/.PNG
[Error][13:00:30] | asset
[Info][13:00:30] | application/.WOFF2
[Error][13:00:30] | handler
[Error][13:00:30] | handler
[Error][13:00:31] | asset
[Info][13:00:31] | application/.ICO
[Error][13:01:17] | page
[Info][13:01:18] | C:\Users\AVIS\Desktop\gametools\A4Engine\bin\Debug\netcoreapp2.2\/assets/controllers/page/weaponeditor.html
[Error][13:01:18] | asset
[Error][13:01:18] | asset
[Info][13:01:18] | application/.JS
[Info][13:01:18] | text/css
[Error][13:01:18] | asset
[Info][13:01:18] | text/css
[Error][13:01:18] | asset
[Error][13:01:18] | asset
[Info][13:01:18] | application/.JS
[Info][13:01:18] | text/css
[Error][13:01:18] | asset
[Error][13:01:18] | asset
[Info][13:01:18] | application/.JS
[Info][13:01:18] | text/css
[Error][13:01:18] | asset
[Error][13:01:18] | asset
[Info][13:01:18] | application/.JS
[Info][13:01:18] | application/.JS
[Error][13:01:18] | asset
[Error][13:01:18] | asset
[Info][13:01:18] | application/.JS
[Info][13:01:18] | application/.JS
[Error][13:01:18] | asset
[Error][13:01:18] | asset
[Info][13:01:18] | application/.JS
[Info][13:01:18] | application/.JS
[Error][13:01:18] | asset
[Error][13:01:18] | asset
[Info][13:01:18] | application/.JS
[Info][13:01:18] | application/.JS
[Error][13:01:18] | asset
[Info][13:01:18] | image/jpeg
[Error][13:01:18] | asset
[Info][13:01:18] | application/.JS
[Error][13:01:18] | asset
[Info][13:01:18] | application/.PNG
[Error][13:01:18] | asset
[Info][13:01:18] | application/.WOFF2
[Error][13:01:18] | handler
[Error][13:01:18] | handler
[Error][13:01:18] | asset
[Info][13:01:18] | application/.ICO
[Error][13:01:46] | page
[Info][13:01:46] | C:\Users\AVIS\Desktop\gametools\A4Engine\bin\Debug\netcoreapp2.2\/assets/controllers/page/weaponeditor.html
[Error][13:01:46] | asset
[Error][13:01:46] | asset
[Info][13:01:46] | application/.JS
[Info][13:01:46] | text/css
[Error][13:01:46] | asset
[Info][13:01:46] | text/css
[Error][13:01:46] | asset
[Info][13:01:46] | text/css
[Error][13:01:46] | asset
[Error][13:01:46] | asset
[Info][13:01:46] | application/.JS
[Info][13:01:46] | text/css
[Error][13:01:46] | asset
[Error][13:01:46] | asset
[Info][13:01:46] | application/.JS
[Info][13:01:46] | application/.JS
[Error][13:01:46] | asset
[Error][13:01:46] | asset
[Info][13:01:46] | application/.JS
[Info][13:01:46] | application/.JS
[Error][13:01:46] | asset
[Error][13:01:46] | asset
[Info][13:01:46] | application/.JS
[Info][13:01:46] | application/.JS
[Error][13:01:46] | asset
[Error][13:01:46] | asset
[Info][13:01:46] | application/.JS
[Info][13:01:46] | application/.JS
[Error][13:01:46] | asset
[Error][13:01:46] | asset
[Info][13:01:46] | application/.JS
[Info][13:01:46] | image/jpeg
[Error][13:01:46] | asset
[Info][13:01:46] | application/.JS
[Error][13:01:46] | asset
[Info][13:01:46] | application/.PNG
[Error][13:01:46] | asset
[Info][13:01:46] | application/.WOFF2
[Error][13:01:46] | handler
[Error][13:01:46] | asset
[Info][13:01:46] | application/.ICO
[Error][13:01:47] | handler
[Error][13:02:10] | page
[Info][13:02:10] | C:\Users\AVIS\Desktop\gametools\A4Engine\bin\Debug\netcoreapp2.2\/assets/controllers/page/weaponeditor.html
[Error][13:02:10] | asset
[Error][13:02:10] | asset
[Info][13:02:10] | application/.JS
[Info][13:02:10] | text/css
[Error][13:02:10] | asset
[Info][13:02:10] | text/css
[Error][13:02:10] | asset
[Info][13:02:10] | text/css
[Error][13:02:10] | asset
[Error][13:02:10] | asset
[Info][13:02:10] | application/.JS
[Info][13:02:10] | text/css
[Error][13:02:10] | asset
[Error][13:02:10] | asset
[Info][13:02:10] | application/.JS
[Info][13:02:10] | application/.JS
[Error][13:02:10] | asset
[Error][13:02:10] | asset
[Info][13:02:10] | application/.JS
[Info][13:02:10] | application/.JS
[Error][13:02:10] | asset
[Info][13:02:10] | application/.JS
[Error][13:02:10] | asset
[Error][13:02:10] | asset
[Info][13:02:10] | application/.JS
[Info][13:02:10] | application/.JS
[Error][13:02:10] | asset
[Error][13:02:10] | asset
[Info][13:02:10] | application/.JS
[Info][13:02:10] | application/.JS
[Error][13:02:10] | asset
[Info][13:02:10] | image/jpeg
[Error][13:02:10] | asset
[Info][13:02:10] | application/.JS
[Error][13:02:10] | asset
[Info][13:02:10] | application/.PNG
[Error][13:02:10] | asset
[Info][13:02:10] | application/.WOFF2
[Error][13:02:10] | handler
[Error][13:02:10] | handler
[Error][13:02:11] | asset
[Info][13:02:11] | application/.ICO
[Error][13:05:41] | page
[Info][13:05:41] | C:\Users\AVIS\Desktop\gametools\A4Engine\bin\Debug\netcoreapp2.2\/assets/controllers/page/weaponeditor.html
[Error][13:05:41] | asset
[Error][13:05:41] | asset
[Info][13:05:41] | text/css
[Info][13:05:41] | application/.JS
[Error][13:05:41] | asset
[Info][13:05:41] | text/css
[Error][13:05:41] | asset
[Error][13:05:41] | asset
[Info][13:05:41] | text/css
[Info][13:05:41] | text/css
[Error][13:05:41] | asset
[Error][13:05:41] | asset
[Info][13:05:41] | application/.JS
[Info][13:05:41] | application/.JS
[Error][13:05:41] | asset
[Error][13:05:41] | asset
[Info][13:05:41] | application/.JS
[Info][13:05:41] | application/.JS
[Error][13:05:41] | asset
[Error][13:05:41] | asset
[Info][13:05:41] | application/.JS
[Info][13:05:41] | application/.JS
[Error][13:05:41] | asset
[Error][13:05:41] | asset
[Info][13:05:41] | application/.JS
[Info][13:05:41] | application/.JS
[Error][13:05:41] | asset
[Error][13:05:41] | asset
[Info][13:05:41] | application/.JS
[Info][13:05:41] | application/.JS
[Error][13:05:41] | asset
[Info][13:05:41] | image/jpeg
[Error][13:05:41] | asset
[Info][13:05:41] | application/.JS
[Error][13:05:41] | asset
[Info][13:05:41] | application/.PNG
[Error][13:05:41] | asset
[Info][13:05:41] | application/.WOFF2
[Error][13:05:41] | handler
[Error][13:05:41] | handler
[Error][13:05:42] | asset
[Info][13:05:42] | application/.ICO
[Error][13:06:12] | page
[Info][13:06:12] | C:\Users\AVIS\Desktop\gametools\A4Engine\bin\Debug\netcoreapp2.2\/assets/controllers/page/weaponeditor.html
[Error][13:06:12] | asset
[Error][13:06:12] | asset
[Info][13:06:12] | application/.JS
[Info][13:06:12] | text/css
[Error][13:06:12] | asset
[Info][13:06:12] | text/css
[Error][13:06:12] | asset
[Info][13:06:12] | text/css
[Error][13:06:12] | asset
[Error][13:06:12] | asset
[Info][13:06:12] | application/.JS
[Info][13:06:12] | text/css
[Error][13:06:12] | asset
[Error][13:06:12] | asset
[Info][13:06:12] | application/.JS
[Info][13:06:12] | application/.JS
[Error][13:06:12] | asset
[Error][13:06:12] | asset
[Info][13:06:12] | application/.JS
[Info][13:06:12] | application/.JS
[Error][13:06:12] | asset
[Info][13:06:12] | application/.JS
[Error][13:06:12] | asset
[Error][13:06:12] | asset
[Info][13:06:12] | application/.JS
[Info][13:06:12] | application/.JS
[Error][13:06:12] | asset
[Error][13:06:12] | asset
[Info][13:06:12] | application/.JS
[Info][13:06:12] | application/.JS
[Error][13:06:12] | asset
[Info][13:06:12] | image/jpeg
[Error][13:06:12] | asset
[Info][13:06:12] | application/.JS
[Error][13:06:12] | asset
[Info][13:06:12] | application/.PNG
[Error][13:06:12] | asset
[Info][13:06:12] | application/.WOFF2
[Error][13:06:12] | handler
[Error][13:06:12] | handler
[Error][13:06:12] | asset
[Info][13:06:12] | application/.ICO
[Error][13:06:23] | page
[Info][13:06:23] | C:\Users\AVIS\Desktop\gametools\A4Engine\bin\Debug\netcoreapp2.2\/assets/controllers/page/weaponeditor.html
[Error][13:06:23] | asset
[Error][13:06:23] | asset
[Info][13:06:23] | text/css
[Info][13:06:23] | application/.JS
[Error][13:06:23] | asset
[Info][13:06:23] | text/css
[Error][13:06:23] | asset
[Error][13:06:23] | asset
[Info][13:06:23] | application/.JS
[Info][13:06:23] | text/css
[Error][13:06:23] | asset
[Error][13:06:23] | asset
[Info][13:06:23] | text/css
[Info][13:06:23] | application/.JS
[Error][13:06:23] | asset
[Error][13:06:23] | asset
[Info][13:06:23] | application/.JS
[Info][13:06:23] | application/.JS
[Error][13:06:23] | asset
[Error][13:06:23] | asset
[Info][13:06:23] | application/.JS
[Info][13:06:23] | application/.JS
[Error][13:06:23] | asset
[Error][13:06:23] | asset
[Info][13:06:23] | application/.JS
[Info][13:06:23] | application/.JS
[Error][13:06:23] | asset
[Info][13:06:23] | application/.JS
[Error][13:06:23] | asset
[Info][13:06:23] | application/.JS
[Error][13:06:23] | asset
[Info][13:06:23] | image/jpeg
[Error][13:06:23] | asset
[Info][13:06:23] | application/.JS
[Error][13:06:23] | asset
[Info][13:06:23] | application/.PNG
[Error][13:06:23] | asset
[Info][13:06:23] | application/.WOFF2
[Error][13:06:23] | handler
[Error][13:06:23] | handler
[Error][13:06:24] | asset
[Info][13:06:24] | application/.ICO
[Error][13:06:42] | page
[Info][13:06:42] | C:\Users\AVIS\Desktop\gametools\A4Engine\bin\Debug\netcoreapp2.2\/assets/controllers/page/weaponeditor.html
[Error][13:06:42] | asset
[Error][13:06:42] | asset
[Info][13:06:42] | text/css
[Info][13:06:42] | application/.JS
[Error][13:06:42] | asset
[Info][13:06:42] | text/css
[Error][13:06:42] | asset
[Error][13:06:42] | asset
[Info][13:06:42] | text/css
[Info][13:06:42] | application/.JS
[Error][13:06:42] | asset
[Error][13:06:42] | asset
[Info][13:06:42] | text/css
[Info][13:06:42] | application/.JS
[Error][13:06:42] | asset
[Error][13:06:42] | asset
[Info][13:06:42] | application/.JS
[Info][13:06:42] | application/.JS
[Error][13:06:42] | asset
[Error][13:06:42] | asset
[Info][13:06:42] | application/.JS
[Info][13:06:42] | application/.JS
[Error][13:06:42] | asset
[Error][13:06:42] | asset
[Info][13:06:42] | application/.JS
[Info][13:06:42] | application/.JS
[Error][13:06:42] | asset
[Error][13:06:42] | asset
[Info][13:06:42] | application/.JS
[Info][13:06:42] | application/.JS
[Error][13:06:42] | asset
[Info][13:06:42] | image/jpeg
[Error][13:06:42] | asset
[Info][13:06:42] | application/.JS
[Error][13:06:43] | asset
[Info][13:06:43] | application/.PNG
[Error][13:06:43] | asset
[Info][13:06:43] | application/.WOFF2
[Error][13:06:43] | handler
[Error][13:06:43] | handler
[Error][13:06:43] | asset
[Info][13:06:43] | application/.ICO
[Error][13:08:22] | page
[Info][13:08:22] | C:\Users\AVIS\Desktop\gametools\A4Engine\bin\Debug\netcoreapp2.2\/assets/controllers/page/weaponeditor.html
[Error][13:08:22] | asset
[Error][13:08:22] | asset
[Info][13:08:22] | application/.JS
[Info][13:08:22] | text/css
[Error][13:08:22] | asset
[Error][13:08:22] | asset
[Info][13:08:22] | text/css
[Info][13:08:22] | text/css
[Error][13:08:22] | asset
[Error][13:08:22] | asset
[Info][13:08:22] | application/.JS
[Info][13:08:22] | text/css
[Error][13:08:22] | asset
[Error][13:08:22] | asset
[Info][13:08:22] | application/.JS
[Info][13:08:22] | application/.JS
[Error][13:08:22] | asset
[Error][13:08:22] | asset
[Info][13:08:22] | application/.JS
[Info][13:08:22] | application/.JS
[Error][13:08:22] | asset
[Error][13:08:22] | asset
[Info][13:08:22] | application/.JS
[Info][13:08:22] | application/.JS
[Error][13:08:22] | asset
[Error][13:08:22] | asset
[Info][13:08:22] | application/.JS
[Info][13:08:22] | application/.JS
[Error][13:08:22] | asset
[Error][13:08:22] | asset
[Info][13:08:22] | image/jpeg
[Info][13:08:22] | application/.JS
[Error][13:08:22] | asset
[Info][13:08:22] | application/.JS
[Error][13:08:22] | asset
[Info][13:08:22] | application/.PNG
[Error][13:08:22] | asset
[Info][13:08:22] | application/.WOFF2
[Error][13:08:22] | handler
[Error][13:08:22] | handler
[Error][13:08:22] | asset
[Info][13:08:22] | application/.ICO
[Error][13:09:48] | page
[Info][13:09:48] | C:\Users\AVIS\Desktop\gametools\A4Engine\bin\Debug\netcoreapp2.2\/assets/controllers/page/weaponeditor.html
[Error][13:09:48] | asset
[Error][13:09:48] | asset
[Info][13:09:48] | application/.JS
[Info][13:09:48] | text/css
[Error][13:09:48] | asset
[Error][13:09:48] | asset
[Info][13:09:48] | text/css
[Info][13:09:48] | text/css
[Error][13:09:48] | asset
[Error][13:09:48] | asset
[Info][13:09:48] | application/.JS
[Info][13:09:48] | text/css
[Error][13:09:48] | asset
[Error][13:09:48] | asset
[Info][13:09:48] | application/.JS
[Info][13:09:48] | application/.JS
[Error][13:09:48] | asset
[Error][13:09:48] | asset
[Info][13:09:48] | application/.JS
[Info][13:09:48] | application/.JS
[Error][13:09:48] | asset
[Error][13:09:48] | asset
[Info][13:09:48] | application/.JS
[Info][13:09:48] | application/.JS
[Error][13:09:48] | asset
[Error][13:09:48] | asset
[Info][13:09:48] | application/.JS
[Info][13:09:48] | application/.JS
[Error][13:09:48] | asset
[Error][13:09:48] | asset
[Info][13:09:48] | image/jpeg
[Info][13:09:48] | application/.JS
[Error][13:09:48] | asset
[Info][13:09:48] | application/.JS
[Error][13:09:48] | asset
[Info][13:09:48] | application/.PNG
[Error][13:09:48] | asset
[Info][13:09:48] | application/.WOFF2
[Error][13:09:48] | handler
[Error][13:09:48] | handler
[Error][13:09:48] | asset
[Info][13:09:48] | application/.ICO
[Error][13:10:53] | page
[Info][13:10:53] | C:\Users\AVIS\Desktop\gametools\A4Engine\bin\Debug\netcoreapp2.2\/assets/controllers/page/weaponeditor.html
[Error][13:10:54] | asset
[Error][13:10:54] | asset
[Info][13:10:54] | text/css
[Info][13:10:54] | application/.JS
[Error][13:10:54] | asset
[Info][13:10:54] | text/css
[Error][13:10:54] | asset
[Error][13:10:54] | asset
[Info][13:10:54] | text/css
[Info][13:10:54] | text/css
[Error][13:10:54] | asset
[Error][13:10:54] | asset
[Info][13:10:54] | application/.JS
[Info][13:10:54] | application/.JS
[Error][13:10:54] | asset
[Error][13:10:54] | asset
[Info][13:10:54] | application/.JS
[Info][13:10:54] | application/.JS
[Error][13:10:54] | asset
[Error][13:10:54] | asset
[Info][13:10:54] | application/.JS
[Info][13:10:54] | application/.JS
[Error][13:10:54] | asset
[Error][13:10:54] | asset
[Info][13:10:54] | application/.JS
[Info][13:10:54] | application/.JS
[Error][13:10:54] | asset
[Error][13:10:54] | asset
[Info][13:10:54] | application/.JS
[Info][13:10:54] | application/.JS
[Error][13:10:54] | asset
[Info][13:10:54] | image/jpeg
[Error][13:10:54] | asset
[Info][13:10:54] | application/.JS
[Error][13:10:54] | asset
[Info][13:10:54] | application/.PNG
[Error][13:10:54] | asset
[Info][13:10:54] | application/.WOFF2
[Error][13:10:54] | handler
[Error][13:10:54] | handler
[Error][13:10:54] | asset
[Info][13:10:54] | application/.ICO
[Error][13:10:58] | handler
[Error][13:11:02] | handler
[Error][13:11:12] | page
[Info][13:11:12] | C:\Users\AVIS\Desktop\gametools\A4Engine\bin\Debug\netcoreapp2.2\/assets/controllers/page/weaponeditor.html
[Error][13:11:12] | asset
[Info][13:11:12] | text/css
[Error][13:11:12] | asset
[Info][13:11:12] | text/css
[Error][13:11:12] | asset
[Info][13:11:12] | text/css
[Error][13:11:12] | asset
[Info][13:11:12] | application/.JS
[Error][13:11:12] | asset
[Info][13:11:12] | application/.JS
[Error][13:11:13] | asset
[Info][13:11:13] | text/css
[Error][13:11:13] | asset
[Info][13:11:13] | application/.JS
[Error][13:11:13] | asset
[Info][13:11:13] | application/.JS
[Error][13:11:13] | asset
[Info][13:11:13] | application/.JS
[Error][13:11:13] | asset
[Info][13:11:13] | application/.JS
[Error][13:11:13] | asset
[Info][13:11:13] | application/.JS
[Error][13:11:13] | asset
[Info][13:11:13] | application/.JS
[Error][13:11:13] | asset
[Info][13:11:13] | application/.JS
[Error][13:11:13] | asset
[Info][13:11:13] | application/.JS
[Error][13:11:13] | asset
[Info][13:11:13] | application/.JS
[Error][13:11:13] | asset
[Info][13:11:13] | image/jpeg
[Error][13:11:13] | asset
[Info][13:11:13] | application/.JS
[Error][13:11:13] | asset
[Info][13:11:13] | application/.PNG
[Error][13:11:13] | asset
[Info][13:11:13] | application/.WOFF2
[Error][13:11:13] | handler
[Error][13:11:13] | handler
[Error][13:11:13] | asset
[Info][13:11:13] | application/.ICO
[Error][13:11:15] | handler
[Error][13:11:18] | handler
[Error][13:11:23] | handler
[Info][13:11:23] | Newtonsoft.Json.JsonSerializationException: Error converting value 11 to type 'System.Int32[]'. Path '', line 1, position 2. ---> System.ArgumentException: Could not cast or convert from System.Int64 to System.Int32[].
   at Newtonsoft.Json.Utilities.ConvertUtils.EnsureTypeAssignable(Object value, Type initialType, Type targetType) in /_/Src/Newtonsoft.Json/Utilities/ConvertUtils.cs:line 616
   at Newtonsoft.Json.Utilities.ConvertUtils.ConvertOrCast(Object initialValue, CultureInfo culture, Type targetType) in /_/Src/Newtonsoft.Json/Utilities/ConvertUtils.cs:line 587
   at Newtonsoft.Json.Serialization.JsonSerializerInternalReader.EnsureType(JsonReader reader, Object value, CultureInfo culture, JsonContract contract, Type targetType) in /_/Src/Newtonsoft.Json/Serialization/JsonSerializerInternalReader.cs:line 982
   --- End of inner exception stack trace ---
   at Newtonsoft.Json.Serialization.JsonSerializerInternalReader.EnsureType(JsonReader reader, Object value, CultureInfo culture, JsonContract contract, Type targetType) in /_/Src/Newtonsoft.Json/Serialization/JsonSerializerInternalReader.cs:line 989
   at Newtonsoft.Json.Serialization.JsonSerializerInternalReader.Deserialize(JsonReader reader, Type objectType, Boolean checkAdditionalContent) in /_/Src/Newtonsoft.Json/Serialization/JsonSerializerInternalReader.cs:line 167
   at Newtonsoft.Json.JsonSerializer.DeserializeInternal(JsonReader reader, Type objectType) in /_/Src/Newtonsoft.Json/JsonSerializer.cs:line 907
   at Newtonsoft.Json.JsonConvert.DeserializeObject(String value, Type type, JsonSerializerSettings settings) in /_/Src/Newtonsoft.Json/JsonConvert.cs:line 828
   at WebPanel.Base.TypeFormat(String value, Type type) in C:\Users\AVIS\Desktop\gametools\A4Engine\Base.cs:line 83
   at WebPanel.Base.GetObjectByParams[T](NameValueCollection data) in C:\Users\AVIS\Desktop\gametools\A4Engine\Base.cs:line 59
