[Try][10:53:36] | Init web panel
[Info][10:53:37] | rightId 2, right AllUserCmd
[Info][10:53:37] | rightId 3, right goTo
[Info][10:53:37] | rightId 4, right setWorldState
[Info][10:53:37] | rightId 5, right setNpcStat
[Info][10:53:37] | rightId 6, right setProperty
[Info][10:53:37] | rightId 7, right editItem
[Info][10:53:37] | rightId 8, right getItem
[Info][10:53:37] | rightId 9, right editScene
[Error][10:55:03] | page
[Error][10:55:04] | System.NullReferenceException: Object reference not set to an instance of an object.
   at WebPanel.Controllers.Page.Page.Init(RequestContext Context, SessionManager sessionManager) in C:\Users\AVIS\Desktop\gametools\A4Engine\Controllers\Page\Page.cs:line 31
   at WebPanel.Index.Http_OnGet(Object sender, HttpRequestEventArgs e) in C:\Users\AVIS\Desktop\gametools\A4Engine\Index.cs:line 91
[Error][10:55:13] | page
[Error][10:55:13] | System.NullReferenceException: Object reference not set to an instance of an object.
   at WebPanel.Controllers.Page.Page.Init(RequestContext Context, SessionManager sessionManager) in C:\Users\AVIS\Desktop\gametools\A4Engine\Controllers\Page\Page.cs:line 31
   at WebPanel.Index.Http_OnGet(Object sender, HttpRequestEventArgs e) in C:\Users\AVIS\Desktop\gametools\A4Engine\Index.cs:line 91
[Try][10:56:00] | Init web panel
[Info][10:56:00] | rightId 2, right AllUserCmd
[Info][10:56:00] | rightId 3, right goTo
[Info][10:56:00] | rightId 4, right setWorldState
[Info][10:56:00] | rightId 5, right setNpcStat
[Info][10:56:00] | rightId 6, right setProperty
[Info][10:56:00] | rightId 7, right editItem
[Info][10:56:00] | rightId 8, right getItem
[Info][10:56:00] | rightId 9, right editScene
[Error][10:56:10] | page
[Info][10:56:10] | C:\Users\AVIS\Desktop\gametools\A4Engine\bin\Debug\netcoreapp2.2\/assets/controllers/page/looteditor.html
[Error][10:56:10] | asset
[Error][10:56:10] | asset
[Error][10:56:11] | asset
[Info][10:56:11] | application/.JS
[Info][10:56:11] | text/css
[Info][10:56:11] | text/css
[Error][10:56:11] | asset
[Error][10:56:11] | asset
[Info][10:56:11] | application/.JS
[Info][10:56:11] | application/.JS
[Error][10:56:11] | asset
[Error][10:56:11] | asset
[Error][10:56:11] | asset
[Info][10:56:11] | application/.JS
[Info][10:56:11] | text/css
[Info][10:56:11] | application/.JS
[Error][10:56:11] | asset
[Error][10:56:11] | asset
[Error][10:56:11] | asset
[Info][10:56:11] | application/.JS
[Info][10:56:11] | application/.JS
[Info][10:56:11] | application/.JS
[Error][10:56:11] | asset
[Error][10:56:11] | asset
[Error][10:56:11] | asset
[Info][10:56:11] | application/.JS
[Info][10:56:11] | application/.JS
[Info][10:56:11] | image/jpeg
[Error][10:56:11] | asset
[Info][10:56:11] | application/.PNG
[Error][10:56:11] | asset
[Info][10:56:11] | application/.WOFF2
[Error][11:23:25] | page
[Info][11:23:25] | C:\Users\AVIS\Desktop\gametools\A4Engine\bin\Debug\netcoreapp2.2\/assets/controllers/page/looteditor.html
[Error][11:23:25] | asset
[Error][11:23:25] | asset
[Info][11:23:25] | text/css
[Info][11:23:25] | application/.JS
[Error][11:23:25] | asset
[Info][11:23:25] | text/css
[Error][11:23:25] | asset
[Info][11:23:25] | text/css
[Error][11:23:25] | asset
[Info][11:23:25] | application/.JS
[Error][11:23:25] | asset
[Info][11:23:25] | application/.JS
[Error][11:23:25] | asset
[Error][11:23:25] | asset
[Info][11:23:25] | application/.JS
[Info][11:23:25] | application/.JS
[Error][11:23:25] | asset
[Error][11:23:25] | asset
[Info][11:23:25] | application/.JS
[Info][11:23:25] | application/.JS
[Error][11:23:25] | asset
[Info][11:23:25] | application/.JS
[Error][11:23:25] | asset
[Error][11:23:25] | asset
[Info][11:23:25] | application/.JS
[Info][11:23:25] | application/.JS
[Error][11:23:25] | asset
[Info][11:23:25] | image/jpeg
[Error][11:23:25] | asset
[Info][11:23:25] | application/.PNG
[Error][11:23:25] | asset
[Info][11:23:25] | application/.WOFF2
[Error][11:23:25] | asset
[Info][11:23:25] | application/.ICO
[Error][11:23:28] | asset
[Error][11:23:28] | asset
[Error][11:23:28] | asset
[Info][11:23:28] | text/css
[Info][11:23:28] | text/css
[Info][11:23:28] | text/css
[Try][11:25:39] | Init web panel
[Info][11:25:40] | rightId 2, right AllUserCmd
[Info][11:25:40] | rightId 3, right goTo
[Info][11:25:40] | rightId 4, right setWorldState
[Info][11:25:40] | rightId 5, right setNpcStat
[Info][11:25:40] | rightId 6, right setProperty
[Info][11:25:40] | rightId 7, right editItem
[Info][11:25:40] | rightId 8, right getItem
[Info][11:25:40] | rightId 9, right editScene
[Error][11:25:41] | page
[Info][11:25:41] | C:\Users\AVIS\Desktop\gametools\A4Engine\bin\Debug\netcoreapp2.2\/assets/controllers/page/looteditor.html
[Info][11:25:41] | UserId 1, right 1
[Info][11:25:41] | UserId 1, right 2
[Error][11:25:41] | Метод GetFile : Не удалось найти фаил C:\Users\AVIS\Desktop\gametools\A4Engine\bin\Debug\netcoreapp2.2\assets/modules/loot/html/index.html
[Error][11:25:41] | asset
[Error][11:25:41] | asset
[Error][11:25:41] | asset
[Info][11:25:41] | application/.JS
[Info][11:25:41] | text/css
[Info][11:25:41] | text/css
[Error][11:25:41] | asset
[Error][11:25:41] | asset
[Info][11:25:41] | application/.JS
[Info][11:25:41] | application/.JS
[Error][11:25:41] | asset
[Error][11:25:41] | asset
[Error][11:25:41] | asset
[Info][11:25:41] | text/css
[Info][11:25:41] | application/.JS
[Info][11:25:41] | application/.JS
[Error][11:25:41] | asset
[Info][11:25:41] | application/.JS
[Error][11:25:41] | asset
[Error][11:25:41] | asset
[Error][11:25:41] | asset
[Info][11:25:41] | application/.JS
[Info][11:25:41] | application/.JS
[Info][11:25:41] | application/.JS
[Error][11:25:41] | asset
[Error][11:25:41] | asset
[Info][11:25:41] | image/jpeg
[Info][11:25:41] | application/.JS
[Error][11:25:41] | asset
[Info][11:25:41] | application/.PNG
[Error][11:25:41] | asset
[Info][11:25:41] | application/.WOFF2
[Error][11:25:41] | asset
[Info][11:25:41] | application/.ICO
[Try][11:26:03] | Init web panel
[Info][11:26:04] | rightId 2, right AllUserCmd
[Info][11:26:04] | rightId 3, right goTo
[Info][11:26:04] | rightId 4, right setWorldState
[Info][11:26:04] | rightId 5, right setNpcStat
[Info][11:26:04] | rightId 6, right setProperty
[Info][11:26:04] | rightId 7, right editItem
[Info][11:26:04] | rightId 8, right getItem
[Info][11:26:04] | rightId 9, right editScene
[Error][11:26:04] | page
[Info][11:26:04] | C:\Users\AVIS\Desktop\gametools\A4Engine\bin\Debug\netcoreapp2.2\/assets/controllers/page/looteditor.html
[Info][11:26:04] | UserId 1, right 1
[Info][11:26:04] | UserId 1, right 2
[Error][11:26:04] | asset
[Error][11:26:04] | asset
[Error][11:26:04] | asset
[Info][11:26:04] | text/css
[Info][11:26:04] | application/.JS
[Info][11:26:04] | application/.JS
[Error][11:26:04] | asset
[Info][11:26:04] | text/css
[Error][11:26:04] | asset
[Error][11:26:04] | asset
[Error][11:26:04] | asset
[Info][11:26:04] | application/.JS
[Info][11:26:04] | text/css
[Info][11:26:04] | application/.JS
[Error][11:26:04] | asset
[Error][11:26:04] | asset
[Error][11:26:04] | asset
[Info][11:26:04] | application/.JS
[Info][11:26:04] | application/.JS
[Info][11:26:04] | application/.JS
[Error][11:26:04] | asset
[Error][11:26:04] | asset
[Error][11:26:04] | asset
[Info][11:26:04] | application/.JS
[Info][11:26:04] | application/.JS
[Info][11:26:04] | application/.JS
[Error][11:26:04] | asset
[Error][11:26:04] | asset
[Info][11:26:04] | application/.JS
[Info][11:26:04] | image/jpeg
[Error][11:26:04] | asset
[Info][11:26:04] | application/.PNG
[Error][11:26:04] | asset
[Info][11:26:04] | application/.WOFF2
[Error][11:26:04] | asset
[Info][11:26:04] | application/.ICO
[Error][11:26:58] | page
[Info][11:26:58] | C:\Users\AVIS\Desktop\gametools\A4Engine\bin\Debug\netcoreapp2.2\/assets/controllers/page/looteditor.html
[Error][11:26:58] | asset
[Error][11:26:58] | asset
[Info][11:26:58] | application/.JS
[Info][11:26:58] | text/css
[Error][11:26:58] | asset
[Info][11:26:58] | text/css
[Error][11:26:58] | asset
[Info][11:26:58] | application/.JS
[Error][11:26:58] | asset
[Error][11:26:58] | asset
[Info][11:26:58] | text/css
[Info][11:26:58] | application/.JS
[Error][11:26:58] | asset
[Info][11:26:58] | application/.JS
[Error][11:26:58] | asset
[Error][11:26:58] | asset
[Info][11:26:58] | application/.JS
[Info][11:26:58] | application/.JS
[Error][11:26:58] | asset
[Info][11:26:58] | application/.JS
[Error][11:26:58] | asset
[Error][11:26:58] | asset
[Info][11:26:58] | application/.JS
[Info][11:26:58] | application/.JS
[Error][11:26:58] | asset
[Error][11:26:58] | asset
[Info][11:26:58] | application/.JS
[Info][11:26:58] | application/.JS
[Error][11:26:58] | asset
[Info][11:26:58] | image/jpeg
[Error][11:26:58] | asset
[Info][11:26:58] | application/.PNG
[Error][11:26:58] | asset
[Info][11:26:58] | application/.WOFF2
[Error][11:26:58] | asset
[Info][11:26:58] | application/.ICO
[Error][11:27:03] | page
[Info][11:27:03] | C:\Users\AVIS\Desktop\gametools\A4Engine\bin\Debug\netcoreapp2.2\/assets/controllers/page/looteditor.html
[Error][11:27:03] | asset
[Error][11:27:03] | asset
[Error][11:27:03] | asset
[Info][11:27:03] | text/css
[Error][11:27:03] | asset
[Error][11:27:03] | asset
[Info][11:27:03] | application/.JS
[Info][11:27:03] | application/.JS
[Error][11:27:03] | asset
[Info][11:27:03] | text/css
[Error][11:27:03] | asset
[Info][11:27:03] | application/.JS
[Info][11:27:03] | application/.JS
[Info][11:27:03] | application/.JS
[Error][11:27:03] | asset
[Error][11:27:03] | asset
[Info][11:27:03] | text/css
[Error][11:27:03] | asset
[Error][11:27:03] | asset
[Error][11:27:03] | asset
[Error][11:27:03] | asset
[Info][11:27:03] | application/.JS
[Info][11:27:03] | application/.JS
[Info][11:27:03] | application/.JS
[Info][11:27:03] | application/.JS
[Info][11:27:03] | application/.JS
[Error][11:27:03] | asset
[Error][11:27:03] | asset
[Info][11:27:03] | application/.JS
[Info][11:27:03] | image/jpeg
[Error][11:27:03] | asset
[Info][11:27:03] | application/.PNG
[Error][11:27:03] | asset
[Info][11:27:03] | application/.WOFF2
[Error][11:27:03] | asset
[Info][11:27:03] | application/.ICO
[Error][11:27:17] | page
[Info][11:27:17] | C:\Users\AVIS\Desktop\gametools\A4Engine\bin\Debug\netcoreapp2.2\/assets/controllers/page/looteditor.html
[Error][11:27:17] | asset
[Error][11:27:17] | asset
[Error][11:27:17] | asset
[Error][11:27:17] | asset
[Error][11:27:17] | asset
[Error][11:27:17] | asset
[Info][11:27:17] | application/.JS
[Info][11:27:17] | application/.JS
[Info][11:27:17] | text/css
[Info][11:27:17] | application/.JS
[Info][11:27:17] | text/css
[Info][11:27:17] | application/.JS
[Error][11:27:17] | asset
[Error][11:27:17] | asset
[Error][11:27:17] | asset
[Error][11:27:17] | asset
[Error][11:27:17] | asset
[Info][11:27:17] | application/.JS
[Info][11:27:17] | application/.JS
[Info][11:27:17] | application/.JS
[Info][11:27:17] | application/.JS
[Info][11:27:17] | application/.JS
[Error][11:27:17] | asset
[Error][11:27:17] | asset
[Info][11:27:17] | text/css
[Info][11:27:17] | application/.JS
[Error][11:27:17] | asset
[Error][11:27:17] | asset
[Info][11:27:17] | application/.JS
[Info][11:27:17] | image/jpeg
[Error][11:27:17] | asset
[Info][11:27:17] | application/.PNG
[Error][11:27:17] | asset
[Info][11:27:17] | application/.WOFF2
[Error][11:27:18] | handler
[Error][11:27:18] | asset
[Info][11:27:18] | application/.ICO
[Error][11:27:18] | handler
[Try][11:33:33] | Init web panel
[Info][11:33:33] | rightId 2, right AllUserCmd
[Info][11:33:33] | rightId 3, right goTo
[Info][11:33:33] | rightId 4, right setWorldState
[Info][11:33:33] | rightId 5, right setNpcStat
[Info][11:33:33] | rightId 6, right setProperty
[Info][11:33:33] | rightId 7, right editItem
[Info][11:33:33] | rightId 8, right getItem
[Info][11:33:33] | rightId 9, right editScene
[Error][11:33:38] | page
[Info][11:33:38] | C:\Users\AVIS\Desktop\gametools\A4Engine\bin\Debug\netcoreapp2.2\/assets/controllers/page/looteditor.html
[Info][11:33:38] | UserId 1, right 1
[Info][11:33:38] | UserId 1, right 2
[Error][11:33:38] | asset
[Error][11:33:38] | asset
[Info][11:33:38] | text/css
[Info][11:33:38] | application/.JS
[Error][11:33:38] | asset
[Error][11:33:38] | asset
[Info][11:33:38] | text/css
[Info][11:33:38] | application/.JS
[Error][11:33:38] | asset
[Error][11:33:38] | asset
[Info][11:33:38] | text/css
[Info][11:33:38] | application/.JS
[Error][11:33:38] | asset
[Info][11:33:38] | application/.JS
[Error][11:33:38] | asset
[Error][11:33:38] | asset
[Info][11:33:38] | application/.JS
[Info][11:33:38] | application/.JS
[Error][11:33:38] | asset
[Info][11:33:38] | application/.JS
[Error][11:33:39] | asset
[Error][11:33:39] | asset
[Error][11:33:39] | asset
[Info][11:33:39] | application/.JS
[Info][11:33:39] | application/.JS
[Info][11:33:39] | application/.JS
[Error][11:33:39] | asset
[Error][11:33:39] | asset
[Info][11:33:39] | application/.JS
[Info][11:33:39] | image/jpeg
[Error][11:33:39] | asset
[Info][11:33:39] | application/.PNG
[Error][11:33:39] | asset
[Info][11:33:39] | application/.WOFF2
[Error][11:33:39] | handler
[Error][11:33:39] | asset
[Info][11:33:39] | application/.ICO
[Error][11:33:39] | handler
[Error][11:34:02] | handler
[Error][11:34:26] | handler
[Try][11:43:41] | Init web panel
[Info][11:43:41] | rightId 2, right AllUserCmd
[Info][11:43:41] | rightId 3, right goTo
[Info][11:43:41] | rightId 4, right setWorldState
[Info][11:43:41] | rightId 5, right setNpcStat
[Info][11:43:41] | rightId 6, right setProperty
[Info][11:43:41] | rightId 7, right editItem
[Info][11:43:41] | rightId 8, right getItem
[Info][11:43:41] | rightId 9, right editScene
[Error][11:43:42] | page
[Info][11:43:42] | C:\Users\AVIS\Desktop\gametools\A4Engine\bin\Debug\netcoreapp2.2\/assets/controllers/page/looteditor.html
[Info][11:43:42] | UserId 1, right 1
[Info][11:43:42] | UserId 1, right 2
[Error][11:43:42] | asset
[Error][11:43:42] | asset
[Info][11:43:42] | text/css
[Info][11:43:42] | application/.JS
[Error][11:43:42] | asset
[Error][11:43:42] | asset
[Info][11:43:42] | application/.JS
[Info][11:43:42] | text/css
[Error][11:43:42] | asset
[Error][11:43:42] | asset
[Info][11:43:42] | application/.JS
[Info][11:43:42] | text/css
[Error][11:43:42] | asset
[Error][11:43:42] | asset
[Info][11:43:42] | application/.JS
[Info][11:43:42] | application/.JS
[Error][11:43:42] | asset
[Error][11:43:42] | asset
[Info][11:43:42] | application/.JS
[Info][11:43:42] | application/.JS
[Error][11:43:42] | asset
[Info][11:43:42] | application/.JS
[Error][11:43:42] | asset
[Error][11:43:42] | asset
[Error][11:43:42] | asset
[Info][11:43:42] | application/.JS
[Info][11:43:42] | application/.JS
[Info][11:43:42] | application/.JS
[Error][11:43:42] | asset
[Info][11:43:42] | image/jpeg
[Error][11:43:42] | asset
[Info][11:43:42] | application/.PNG
[Error][11:43:42] | asset
[Info][11:43:42] | application/.WOFF2
[Error][11:43:42] | handler
[Error][11:43:42] | asset
[Info][11:43:42] | application/.ICO
[Error][11:44:05] | page
[Info][11:44:05] | C:\Users\AVIS\Desktop\gametools\A4Engine\bin\Debug\netcoreapp2.2\/assets/controllers/page/looteditor.html
[Error][11:44:05] | asset
[Info][11:44:05] | text/css
[Error][11:44:05] | asset
[Info][11:44:05] | application/.JS
[Error][11:44:05] | asset
[Info][11:44:05] | text/css
[Error][11:44:05] | asset
[Error][11:44:05] | asset
[Info][11:44:05] | text/css
[Info][11:44:05] | application/.JS
[Error][11:44:05] | asset
[Error][11:44:05] | asset
[Info][11:44:05] | application/.JS
[Info][11:44:05] | application/.JS
[Error][11:44:05] | asset
[Error][11:44:05] | asset
[Info][11:44:05] | application/.JS
[Info][11:44:05] | application/.JS
[Error][11:44:05] | asset
[Error][11:44:05] | asset
[Info][11:44:05] | application/.JS
[Info][11:44:05] | application/.JS
[Error][11:44:05] | asset
[Error][11:44:05] | asset
[Info][11:44:05] | application/.JS
[Info][11:44:05] | application/.JS
[Error][11:44:05] | asset
[Info][11:44:05] | application/.JS
[Error][11:44:05] | asset
[Info][11:44:05] | image/jpeg
[Error][11:44:05] | asset
[Info][11:44:05] | application/.PNG
[Error][11:44:05] | asset
[Info][11:44:05] | application/.WOFF2
[Error][11:44:05] | handler
[Error][11:44:05] | handler
[Error][11:44:05] | asset
[Info][11:44:05] | application/.ICO
[Error][11:45:59] | page
[Info][11:45:59] | C:\Users\AVIS\Desktop\gametools\A4Engine\bin\Debug\netcoreapp2.2\/assets/controllers/page/looteditor.html
[Error][11:45:59] | asset
[Error][11:45:59] | asset
[Info][11:45:59] | text/css
[Info][11:45:59] | application/.JS
[Error][11:45:59] | asset
[Error][11:45:59] | asset
[Info][11:45:59] | text/css
[Info][11:45:59] | application/.JS
[Error][11:45:59] | asset
[Error][11:45:59] | asset
[Info][11:45:59] | text/css
[Info][11:45:59] | application/.JS
[Error][11:45:59] | asset
[Info][11:45:59] | application/.JS
[Error][11:45:59] | asset
[Error][11:45:59] | asset
[Info][11:45:59] | application/.JS
[Info][11:45:59] | application/.JS
[Error][11:45:59] | asset
[Info][11:45:59] | application/.JS
[Error][11:45:59] | asset
[Error][11:45:59] | asset
[Info][11:45:59] | application/.JS
[Info][11:45:59] | application/.JS
[Error][11:45:59] | asset
[Error][11:45:59] | asset
[Info][11:45:59] | application/.JS
[Info][11:45:59] | application/.JS
[Error][11:45:59] | asset
[Info][11:45:59] | image/jpeg
[Error][11:45:59] | asset
[Info][11:45:59] | application/.PNG
[Error][11:45:59] | asset
[Info][11:45:59] | application/.WOFF2
[Error][11:45:59] | handler
[Error][11:45:59] | handler
[Error][11:45:59] | asset
[Info][11:45:59] | application/.ICO
[Error][11:46:00] | page
[Info][11:46:00] | C:\Users\AVIS\Desktop\gametools\A4Engine\bin\Debug\netcoreapp2.2\/assets/controllers/page/looteditor.html
[Error][11:46:00] | asset
[Error][11:46:00] | asset
[Info][11:46:00] | text/css
[Error][11:46:00] | asset
[Error][11:46:00] | asset
[Error][11:46:00] | asset
[Info][11:46:00] | application/.JS
[Error][11:46:00] | asset
[Info][11:46:00] | text/css
[Info][11:46:00] | application/.JS
[Error][11:46:00] | asset
[Info][11:46:00] | application/.JS
[Info][11:46:00] | application/.JS
[Error][11:46:00] | asset
[Info][11:46:00] | application/.JS
[Info][11:46:00] | application/.JS
[Error][11:46:00] | asset
[Error][11:46:00] | asset
[Error][11:46:00] | asset
[Error][11:46:00] | asset
[Error][11:46:00] | asset
[Info][11:46:00] | text/css
[Info][11:46:00] | application/.JS
[Info][11:46:00] | application/.JS
[Info][11:46:00] | application/.JS
[Info][11:46:00] | application/.JS
[Error][11:46:00] | asset
[Info][11:46:00] | application/.JS
[Error][11:46:00] | asset
[Info][11:46:00] | image/jpeg
[Error][11:46:01] | asset
[Info][11:46:01] | application/.PNG
[Error][11:46:01] | asset
[Info][11:46:01] | application/.WOFF2
[Error][11:46:01] | handler
[Error][11:46:01] | handler
[Error][11:46:01] | asset
[Info][11:46:01] | application/.ICO
[Error][11:46:27] | handler
[Try][11:46:51] | Init web panel
[Info][11:46:52] | rightId 2, right AllUserCmd
[Info][11:46:52] | rightId 3, right goTo
[Info][11:46:52] | rightId 4, right setWorldState
[Info][11:46:52] | rightId 5, right setNpcStat
[Info][11:46:52] | rightId 6, right setProperty
[Info][11:46:52] | rightId 7, right editItem
[Info][11:46:52] | rightId 8, right getItem
[Info][11:46:52] | rightId 9, right editScene
[Error][11:46:52] | handler
[Info][11:46:52] | UserId 1, right 1
[Info][11:46:52] | UserId 1, right 2
[Error][11:46:53] | asset
[Info][11:46:53] | application/.ICO
[Error][11:46:57] | page
[Info][11:46:57] | C:\Users\AVIS\Desktop\gametools\A4Engine\bin\Debug\netcoreapp2.2\/assets/controllers/page/looteditor.html
[Error][11:46:57] | asset
[Error][11:46:57] | asset
[Error][11:46:57] | asset
[Info][11:46:57] | application/.JS
[Info][11:46:57] | text/css
[Info][11:46:57] | application/.JS
[Error][11:46:57] | asset
[Info][11:46:57] | text/css
[Error][11:46:57] | asset
[Error][11:46:57] | asset
[Info][11:46:57] | application/.JS
[Info][11:46:57] | application/.JS
[Error][11:46:57] | asset
[Info][11:46:57] | application/.JS
[Error][11:46:57] | asset
[Error][11:46:57] | asset
[Error][11:46:57] | asset
[Info][11:46:57] | application/.JS
[Info][11:46:57] | text/css
[Info][11:46:57] | application/.JS
[Error][11:46:57] | asset
[Error][11:46:57] | asset
[Error][11:46:57] | asset
[Info][11:46:57] | application/.JS
[Info][11:46:57] | application/.JS
[Info][11:46:57] | application/.JS
[Error][11:46:57] | asset
[Error][11:46:57] | asset
[Info][11:46:57] | application/.JS
[Info][11:46:57] | image/jpeg
[Error][11:46:57] | asset
[Info][11:46:57] | application/.PNG
[Error][11:46:57] | asset
[Info][11:46:57] | application/.WOFF2
[Error][11:46:58] | handler
[Error][11:46:58] | handler
[Error][11:46:58] | asset
[Info][11:46:58] | application/.ICO
[Error][11:53:14] | page
[Info][11:53:14] | C:\Users\AVIS\Desktop\gametools\A4Engine\bin\Debug\netcoreapp2.2\/assets/controllers/page/looteditor.html
[Error][11:53:14] | asset
[Info][11:53:14] | text/css
[Error][11:53:14] | asset
[Info][11:53:14] | application/.JS
[Error][11:53:14] | asset
[Info][11:53:14] | text/css
[Error][11:53:14] | asset
[Error][11:53:14] | asset
[Info][11:53:14] | application/.JS
[Info][11:53:14] | application/.JS
[Error][11:53:14] | asset
[Error][11:53:14] | asset
[Info][11:53:14] | text/css
[Info][11:53:14] | application/.JS
[Error][11:53:14] | asset
[Info][11:53:14] | application/.JS
[Error][11:53:14] | asset
[Error][11:53:14] | asset
[Info][11:53:14] | application/.JS
[Info][11:53:14] | application/.JS
[Error][11:53:14] | asset
[Error][11:53:14] | asset
[Info][11:53:14] | application/.JS
[Info][11:53:14] | application/.JS
[Error][11:53:14] | asset
[Error][11:53:14] | asset
[Info][11:53:14] | application/.JS
[Info][11:53:14] | application/.JS
[Error][11:53:14] | asset
[Info][11:53:14] | image/jpeg
[Error][11:53:14] | asset
[Info][11:53:14] | application/.PNG
[Error][11:53:14] | asset
[Info][11:53:14] | application/.WOFF2
[Error][11:53:15] | asset
[Info][11:53:15] | application/.ICO
[Error][12:16:33] | handler
[Error][12:16:33] | asset
[Info][12:16:33] | application/.ICO
[Error][12:16:35] | handler
[Error][12:16:35] | asset
[Info][12:16:35] | application/.ICO
[Error][12:18:44] | page
[Info][12:18:44] | C:\Users\AVIS\Desktop\gametools\A4Engine\bin\Debug\netcoreapp2.2\/assets/controllers/page/looteditor.html
[Error][12:18:44] | asset
[Error][12:18:44] | asset
[Info][12:18:44] | text/css
[Info][12:18:44] | application/.JS
[Error][12:18:44] | asset
[Info][12:18:44] | text/css
[Error][12:18:44] | asset
[Info][12:18:44] | application/.JS
[Error][12:18:44] | asset
[Info][12:18:44] | application/.JS
[Error][12:18:44] | asset
[Error][12:18:44] | asset
[Info][12:18:44] | text/css
[Info][12:18:44] | application/.JS
[Error][12:18:44] | asset
[Error][12:18:44] | asset
[Info][12:18:44] | application/.JS
[Info][12:18:44] | application/.JS
[Error][12:18:44] | asset
[Error][12:18:44] | asset
[Info][12:18:44] | application/.JS
[Info][12:18:44] | application/.JS
[Error][12:18:44] | asset
[Error][12:18:44] | asset
[Error][12:18:44] | asset
[Info][12:18:44] | application/.JS
[Info][12:18:44] | application/.JS
[Info][12:18:44] | application/.JS
[Error][12:18:44] | asset
[Info][12:18:44] | image/jpeg
[Error][12:18:44] | asset
[Info][12:18:44] | application/.PNG
[Error][12:18:44] | asset
[Info][12:18:44] | application/.WOFF2
[Error][12:18:44] | handler
[Error][12:18:44] | asset
[Info][12:18:44] | application/.ICO
[Error][12:19:09] | page
[Info][12:19:09] | C:\Users\AVIS\Desktop\gametools\A4Engine\bin\Debug\netcoreapp2.2\/assets/controllers/page/looteditor.html
[Error][12:19:09] | asset
[Error][12:19:09] | asset
[Info][12:19:09] | application/.JS
[Info][12:19:09] | text/css
[Error][12:19:09] | asset
[Info][12:19:09] | text/css
[Error][12:19:09] | asset
[Error][12:19:09] | asset
[Info][12:19:09] | application/.JS
[Info][12:19:09] | application/.JS
[Error][12:19:09] | asset
[Error][12:19:09] | asset
[Info][12:19:09] | text/css
[Info][12:19:09] | application/.JS
[Error][12:19:09] | asset
[Info][12:19:09] | application/.JS
[Error][12:19:09] | asset
[Error][12:19:09] | asset
[Info][12:19:09] | application/.JS
[Info][12:19:09] | application/.JS
[Error][12:19:09] | asset
[Error][12:19:09] | asset
[Info][12:19:09] | application/.JS
[Info][12:19:09] | application/.JS
[Error][12:19:09] | asset
[Error][12:19:09] | asset
[Info][12:19:09] | application/.JS
[Info][12:19:09] | application/.JS
[Error][12:19:09] | asset
[Info][12:19:09] | image/jpeg
[Error][12:19:09] | asset
[Info][12:19:09] | application/.PNG
[Error][12:19:09] | asset
[Info][12:19:09] | application/.WOFF2
[Error][12:19:09] | handler
[Error][12:19:09] | asset
[Info][12:19:09] | application/.ICO
[Error][12:19:36] | page
[Info][12:19:36] | C:\Users\AVIS\Desktop\gametools\A4Engine\bin\Debug\netcoreapp2.2\/assets/controllers/page/looteditor.html
[Error][12:19:36] | asset
[Error][12:19:36] | asset
[Info][12:19:36] | text/css
[Info][12:19:36] | application/.JS
[Error][12:19:36] | asset
[Error][12:19:36] | asset
[Info][12:19:36] | text/css
[Info][12:19:36] | application/.JS
[Error][12:19:37] | asset
[Error][12:19:37] | asset
[Info][12:19:37] | text/css
[Info][12:19:37] | application/.JS
[Error][12:19:37] | asset
[Info][12:19:37] | application/.JS
[Error][12:19:37] | asset
[Info][12:19:37] | application/.JS
[Error][12:19:37] | asset
[Error][12:19:37] | asset
[Info][12:19:37] | application/.JS
[Info][12:19:37] | application/.JS
[Error][12:19:37] | asset
[Error][12:19:37] | asset
[Info][12:19:37] | application/.JS
[Info][12:19:37] | application/.JS
[Error][12:19:37] | asset
[Error][12:19:37] | asset
[Info][12:19:37] | application/.JS
[Info][12:19:37] | application/.JS
[Error][12:19:37] | asset
[Info][12:19:37] | image/jpeg
[Error][12:19:37] | asset
[Info][12:19:37] | application/.PNG
[Error][12:19:37] | asset
[Info][12:19:37] | application/.WOFF2
[Error][12:19:37] | handler
[Error][12:19:37] | asset
[Info][12:19:37] | application/.ICO
[Error][12:19:44] | handler
[Error][12:19:44] | asset
[Info][12:19:44] | application/.ICO
[Error][12:19:47] | handler
[Error][12:19:47] | asset
[Info][12:19:47] | application/.ICO
[Error][12:19:47] | handler
[Error][12:19:47] | asset
[Info][12:19:47] | application/.ICO
[Error][12:19:48] | handler
[Error][12:19:48] | asset
[Info][12:19:48] | application/.ICO
[Error][12:19:48] | handler
[Error][12:19:48] | asset
[Info][12:19:48] | application/.ICO
[Error][12:19:48] | handler
[Error][12:19:48] | asset
[Info][12:19:48] | application/.ICO
[Error][12:19:48] | handler
[Error][12:19:48] | asset
[Info][12:19:48] | application/.ICO
[Error][12:19:49] | handler
[Error][12:19:49] | asset
[Info][12:19:49] | application/.ICO
[Error][12:19:50] | handler
[Error][12:19:50] | asset
[Info][12:19:50] | application/.ICO
[Error][12:20:09] | handler
[Error][12:20:36] | handler
[Error][12:21:12] | page
[Info][12:21:12] | C:\Users\AVIS\Desktop\gametools\A4Engine\bin\Debug\netcoreapp2.2\/assets/controllers/page/looteditor.html
[Error][12:21:12] | asset
[Error][12:21:12] | asset
[Info][12:21:12] | text/css
[Info][12:21:12] | application/.JS
[Error][12:21:12] | asset
[Info][12:21:12] | text/css
[Error][12:21:12] | asset
[Error][12:21:12] | asset
[Info][12:21:12] | application/.JS
[Info][12:21:12] | application/.JS
[Error][12:21:12] | asset
[Error][12:21:12] | asset
[Info][12:21:12] | text/css
[Info][12:21:12] | application/.JS
[Error][12:21:12] | asset
[Error][12:21:12] | asset
[Info][12:21:12] | application/.JS
[Info][12:21:12] | application/.JS
[Error][12:21:12] | asset
[Error][12:21:12] | asset
[Info][12:21:12] | application/.JS
[Info][12:21:12] | application/.JS
[Error][12:21:12] | asset
[Error][12:21:12] | asset
[Info][12:21:12] | application/.JS
[Info][12:21:12] | application/.JS
[Error][12:21:12] | asset
[Error][12:21:12] | asset
[Info][12:21:12] | application/.JS
[Info][12:21:12] | image/jpeg
[Error][12:21:12] | asset
[Info][12:21:12] | application/.PNG
[Error][12:21:12] | asset
[Info][12:21:12] | application/.WOFF2
[Error][12:21:12] | handler
[Error][12:21:13] | asset
[Info][12:21:13] | application/.ICO
[Error][12:22:31] | page
[Info][12:22:31] | C:\Users\AVIS\Desktop\gametools\A4Engine\bin\Debug\netcoreapp2.2\/assets/controllers/page/looteditor.html
[Error][12:22:31] | asset
[Error][12:22:31] | asset
[Info][12:22:31] | text/css
[Info][12:22:31] | application/.JS
[Error][12:22:31] | asset
[Info][12:22:31] | text/css
[Error][12:22:31] | asset
[Error][12:22:31] | asset
[Info][12:22:31] | text/css
[Info][12:22:31] | application/.JS
[Error][12:22:31] | asset
[Error][12:22:31] | asset
[Info][12:22:31] | application/.JS
[Info][12:22:31] | application/.JS
[Error][12:22:31] | asset
[Error][12:22:31] | asset
[Info][12:22:31] | application/.JS
[Info][12:22:31] | application/.JS
[Error][12:22:31] | asset
[Info][12:22:31] | application/.JS
[Error][12:22:31] | asset
[Info][12:22:31] | application/.JS
[Error][12:22:31] | asset
[Error][12:22:31] | asset
[Info][12:22:31] | application/.JS
[Error][12:22:31] | asset
[Info][12:22:31] | application/.JS
[Info][12:22:31] | application/.JS
[Error][12:22:31] | asset
[Info][12:22:31] | image/jpeg
[Error][12:22:31] | asset
[Info][12:22:31] | application/.PNG
[Error][12:22:31] | asset
[Info][12:22:31] | application/.WOFF2
[Error][12:22:31] | handler
[Error][12:22:31] | handler
[Error][12:22:31] | asset
[Info][12:22:31] | application/.ICO
[Error][12:22:42] | page
[Info][12:22:42] | C:\Users\AVIS\Desktop\gametools\A4Engine\bin\Debug\netcoreapp2.2\/assets/controllers/page/looteditor.html
[Error][12:22:42] | asset
[Error][12:22:42] | asset
[Error][12:22:42] | asset
[Info][12:22:42] | text/css
[Info][12:22:42] | application/.JS
[Info][12:22:42] | application/.JS
[Error][12:22:42] | asset
[Info][12:22:42] | text/css
[Error][12:22:42] | asset
[Error][12:22:42] | asset
[Error][12:22:42] | asset
[Info][12:22:42] | application/.JS
[Info][12:22:42] | application/.JS
[Info][12:22:42] | application/.JS
[Error][12:22:42] | asset
[Error][12:22:42] | asset
[Error][12:22:42] | asset
[Info][12:22:42] | application/.JS
[Info][12:22:42] | text/css
[Info][12:22:42] | application/.JS
[Error][12:22:42] | asset
[Error][12:22:42] | asset
[Error][12:22:42] | asset
[Info][12:22:42] | application/.JS
[Info][12:22:42] | application/.JS
[Info][12:22:42] | application/.JS
[Error][12:22:42] | asset
[Error][12:22:42] | asset
[Info][12:22:42] | image/jpeg
[Info][12:22:42] | application/.JS
[Error][12:22:43] | asset
[Info][12:22:43] | application/.PNG
[Error][12:22:43] | asset
[Info][12:22:43] | application/.WOFF2
[Error][12:22:43] | handler
[Error][12:22:43] | handler
[Error][12:22:43] | asset
[Info][12:22:43] | application/.ICO
[Error][12:23:36] | page
[Info][12:23:36] | C:\Users\AVIS\Desktop\gametools\A4Engine\bin\Debug\netcoreapp2.2\/assets/controllers/page/looteditor.html
[Error][12:23:36] | asset
[Error][12:23:36] | asset
[Info][12:23:36] | text/css
[Info][12:23:36] | application/.JS
[Error][12:23:36] | asset
[Info][12:23:36] | text/css
[Error][12:23:36] | asset
[Error][12:23:36] | asset
[Info][12:23:36] | text/css
[Info][12:23:36] | application/.JS
[Error][12:23:36] | asset
[Error][12:23:36] | asset
[Info][12:23:36] | application/.JS
[Info][12:23:36] | application/.JS
[Error][12:23:37] | asset
[Error][12:23:37] | asset
[Info][12:23:37] | application/.JS
[Info][12:23:37] | application/.JS
[Error][12:23:37] | asset
[Info][12:23:37] | application/.JS
[Error][12:23:37] | asset
[Error][12:23:37] | asset
[Info][12:23:37] | application/.JS
[Info][12:23:37] | application/.JS
[Error][12:23:37] | asset
[Error][12:23:37] | asset
[Info][12:23:37] | application/.JS
[Info][12:23:37] | application/.JS
[Error][12:23:37] | asset
[Info][12:23:37] | image/jpeg
[Error][12:23:37] | asset
[Info][12:23:37] | application/.PNG
[Error][12:23:37] | asset
[Info][12:23:37] | application/.WOFF2
[Error][12:23:37] | handler
[Error][12:23:37] | asset
[Info][12:23:37] | application/.ICO
[Error][12:24:51] | page
[Info][12:24:51] | C:\Users\AVIS\Desktop\gametools\A4Engine\bin\Debug\netcoreapp2.2\/assets/controllers/page/looteditor.html
[Error][12:24:51] | asset
[Error][12:24:51] | asset
[Info][12:24:51] | text/css
[Info][12:24:51] | application/.JS
[Error][12:24:51] | asset
[Info][12:24:51] | text/css
[Error][12:24:51] | asset
[Error][12:24:51] | asset
[Info][12:24:51] | application/.JS
[Info][12:24:51] | text/css
[Error][12:24:51] | asset
[Error][12:24:51] | asset
[Info][12:24:51] | application/.JS
[Info][12:24:51] | application/.JS
[Error][12:24:51] | asset
[Error][12:24:51] | asset
[Info][12:24:51] | application/.JS
[Info][12:24:51] | application/.JS
[Error][12:24:51] | asset
[Error][12:24:51] | asset
[Info][12:24:51] | application/.JS
[Info][12:24:51] | application/.JS
[Error][12:24:51] | asset
[Error][12:24:51] | asset
[Info][12:24:51] | application/.JS
[Info][12:24:51] | application/.JS
[Error][12:24:51] | asset
[Error][12:24:51] | asset
[Info][12:24:51] | application/.JS
[Info][12:24:51] | image/jpeg
[Error][12:24:51] | asset
[Info][12:24:51] | application/.PNG
[Error][12:24:51] | asset
[Info][12:24:51] | application/.WOFF2
[Error][12:24:51] | handler
[Error][12:24:51] | asset
[Info][12:24:51] | application/.ICO
[Error][12:24:56] | handler
[Try][12:33:58] | Init web panel
[Info][12:33:58] | rightId 2, right AllUserCmd
[Info][12:33:58] | rightId 3, right goTo
[Info][12:33:58] | rightId 4, right setWorldState
[Info][12:33:58] | rightId 5, right setNpcStat
[Info][12:33:58] | rightId 6, right setProperty
[Info][12:33:58] | rightId 7, right editItem
[Info][12:33:58] | rightId 8, right getItem
[Info][12:33:58] | rightId 9, right editScene
[Error][12:34:21] | page
[Info][12:34:21] | C:\Users\AVIS\Desktop\gametools\A4Engine\bin\Debug\netcoreapp2.2\/assets/controllers/page/looteditor.html
[Info][12:34:21] | UserId 1, right 1
[Info][12:34:21] | UserId 1, right 2
[Error][12:34:21] | asset
[Error][12:34:21] | asset
[Info][12:34:21] | application/.JS
[Info][12:34:21] | text/css
[Error][12:34:21] | asset
[Error][12:34:21] | asset
[Info][12:34:21] | application/.JS
[Info][12:34:21] | text/css
[Error][12:34:21] | asset
[Info][12:34:21] | application/.JS
[Error][12:34:21] | asset
[Error][12:34:21] | asset
[Error][12:34:21] | asset
[Info][12:34:21] | text/css
[Info][12:34:21] | application/.JS
[Info][12:34:21] | application/.JS
[Error][12:34:21] | asset
[Info][12:34:21] | application/.JS
[Error][12:34:21] | asset
[Error][12:34:21] | asset
[Error][12:34:21] | asset
[Info][12:34:21] | application/.JS
[Info][12:34:21] | application/.JS
[Info][12:34:21] | application/.JS
[Error][12:34:21] | asset
[Error][12:34:21] | asset
[Error][12:34:21] | asset
[Info][12:34:21] | application/.JS
[Info][12:34:21] | image/jpeg
[Info][12:34:21] | application/.JS
[Error][12:34:21] | asset
[Info][12:34:21] | application/.PNG
[Error][12:34:21] | asset
[Info][12:34:21] | application/.WOFF2
[Error][12:34:21] | handler
[Error][12:34:21] | asset
[Info][12:34:21] | application/.ICO
[Try][13:26:59] | Init web panel
[Info][13:26:59] | rightId 2, right AllUserCmd
[Info][13:26:59] | rightId 3, right goTo
[Info][13:26:59] | rightId 4, right setWorldState
[Info][13:26:59] | rightId 5, right setNpcStat
[Info][13:26:59] | rightId 6, right setProperty
[Info][13:26:59] | rightId 7, right editItem
[Info][13:26:59] | rightId 8, right getItem
[Info][13:26:59] | rightId 9, right editScene
[Error][13:27:05] | handler
[Info][13:27:05] | UserId 1, right 1
[Info][13:27:05] | UserId 1, right 2
[Error][13:27:24] | handler
[Error][13:27:50] | handler
[Error][13:27:52] | handler
[Try][13:34:49] | Init web panel
[Info][13:34:49] | rightId 2, right AllUserCmd
[Info][13:34:49] | rightId 3, right goTo
[Info][13:34:49] | rightId 4, right setWorldState
[Info][13:34:49] | rightId 5, right setNpcStat
[Info][13:34:49] | rightId 6, right setProperty
[Info][13:34:49] | rightId 7, right editItem
[Info][13:34:49] | rightId 8, right getItem
[Info][13:34:49] | rightId 9, right editScene
[Error][13:34:50] | page
[Info][13:34:50] | C:\Users\AVIS\Desktop\gametools\A4Engine\bin\Debug\netcoreapp2.2\/assets/controllers/page/looteditor.html
[Info][13:34:50] | UserId 1, right 1
[Info][13:34:50] | UserId 1, right 2
[Error][13:34:50] | asset
[Error][13:34:50] | asset
[Info][13:34:50] | application/.JS
[Info][13:34:50] | text/css
[Error][13:34:50] | asset
[Error][13:34:50] | asset
[Info][13:34:50] | text/css
[Info][13:34:50] | application/.JS
[Error][13:34:50] | asset
[Error][13:34:50] | asset
[Error][13:34:50] | asset
[Info][13:34:50] | application/.JS
[Info][13:34:50] | text/css
[Info][13:34:50] | application/.JS
[Error][13:34:50] | asset
[Error][13:34:50] | asset
[Error][13:34:50] | asset
[Info][13:34:50] | application/.JS
[Info][13:34:50] | application/.JS
[Info][13:34:50] | application/.JS
[Error][13:34:50] | asset
[Error][13:34:50] | asset
[Error][13:34:50] | asset
[Info][13:34:50] | application/.JS
[Info][13:34:50] | application/.JS
[Info][13:34:50] | application/.JS
[Error][13:34:50] | asset
[Error][13:34:50] | asset
[Info][13:34:50] | application/.JS
[Info][13:34:50] | image/jpeg
[Error][13:34:50] | asset
[Info][13:34:50] | application/.PNG
[Error][13:34:50] | asset
[Info][13:34:50] | application/.WOFF2
[Error][13:34:50] | handler
[Error][13:34:50] | asset
[Info][13:34:50] | application/.ICO
[Error][13:34:50] | System.FormatException: Input string was not in a correct format.
   at System.Number.StringToNumber(ReadOnlySpan`1 str, NumberStyles options, NumberBuffer& number, NumberFormatInfo info, Boolean parseDecimal)
   at System.Number.ParseInt64(ReadOnlySpan`1 value, NumberStyles options, NumberFormatInfo numfmt)
   at System.Convert.ToInt64(String value)
   at A4Engine.Modules.LootEditor.ChanceSpawnItemsHandler.Start(RequestContext Context) in C:\Users\AVIS\Desktop\gametools\A4Engine\Modules\LootEditor\ChanceSpawnItemsHandler.cs:line 141
   at WebPanel.Controllers.Handler.Init(RequestContext Context, SessionManager sessionManager) in C:\Users\AVIS\Desktop\gametools\A4Engine\Controllers\Handler.cs:line 36
   at WebPanel.Index.Http_OnGet(Object sender, HttpRequestEventArgs e) in C:\Users\AVIS\Desktop\gametools\A4Engine\Index.cs:line 100
[Error][13:34:53] | page
[Info][13:34:53] | C:\Users\AVIS\Desktop\gametools\A4Engine\bin\Debug\netcoreapp2.2\/assets/controllers/page/looteditor.html
[Error][13:34:53] | asset
[Error][13:34:53] | asset
[Error][13:34:53] | asset
[Error][13:34:53] | asset
[Info][13:34:53] | text/css
[Error][13:34:53] | asset
[Info][13:34:53] | application/.JS
[Info][13:34:53] | application/.JS
[Error][13:34:53] | asset
[Info][13:34:53] | text/css
[Info][13:34:53] | application/.JS
[Error][13:34:53] | asset
[Info][13:34:53] | application/.JS
[Info][13:34:53] | application/.JS
[Error][13:34:53] | asset
[Error][13:34:53] | asset
[Error][13:34:53] | asset
[Error][13:34:53] | asset
[Error][13:34:53] | asset
[Error][13:34:53] | asset
[Info][13:34:53] | text/css
[Info][13:34:53] | application/.JS
[Info][13:34:53] | application/.JS
[Info][13:34:53] | application/.JS
[Info][13:34:53] | application/.JS
[Info][13:34:53] | application/.JS
[Error][13:34:53] | asset
[Error][13:34:53] | asset
[Info][13:34:53] | application/.JS
[Info][13:34:53] | image/jpeg
[Error][13:34:53] | asset
[Info][13:34:53] | application/.PNG
[Error][13:34:53] | asset
[Info][13:34:53] | application/.WOFF2
[Error][13:34:53] | handler
[Error][13:34:53] | System.FormatException: Input string was not in a correct format.
   at System.Number.StringToNumber(ReadOnlySpan`1 str, NumberStyles options, NumberBuffer& number, NumberFormatInfo info, Boolean parseDecimal)
   at System.Number.ParseInt64(ReadOnlySpan`1 value, NumberStyles options, NumberFormatInfo numfmt)
   at System.Convert.ToInt64(String value)
   at A4Engine.Modules.LootEditor.ChanceSpawnItemsHandler.Start(RequestContext Context) in C:\Users\AVIS\Desktop\gametools\A4Engine\Modules\LootEditor\ChanceSpawnItemsHandler.cs:line 141
   at WebPanel.Controllers.Handler.Init(RequestContext Context, SessionManager sessionManager) in C:\Users\AVIS\Desktop\gametools\A4Engine\Controllers\Handler.cs:line 36
   at WebPanel.Index.Http_OnGet(Object sender, HttpRequestEventArgs e) in C:\Users\AVIS\Desktop\gametools\A4Engine\Index.cs:line 100
[Error][13:34:53] | asset
[Info][13:34:53] | application/.ICO
[Error][13:37:13] | page
[Info][13:37:13] | C:\Users\AVIS\Desktop\gametools\A4Engine\bin\Debug\netcoreapp2.2\/assets/controllers/page/looteditor.html
[Error][13:37:13] | asset
[Error][13:37:13] | asset
[Info][13:37:13] | application/.JS
[Info][13:37:13] | text/css
[Error][13:37:13] | asset
[Info][13:37:13] | text/css
[Error][13:37:13] | asset
[Info][13:37:13] | application/.JS
[Error][13:37:13] | asset
[Info][13:37:13] | application/.JS
[Error][13:37:13] | asset
[Info][13:37:13] | text/css
[Error][13:37:13] | asset
[Info][13:37:13] | application/.JS
[Error][13:37:13] | asset
[Info][13:37:13] | application/.JS
[Error][13:37:13] | asset
[Error][13:37:13] | asset
[Info][13:37:13] | application/.JS
[Info][13:37:13] | application/.JS
[Error][13:37:13] | asset
[Error][13:37:13] | asset
[Info][13:37:13] | application/.JS
[Info][13:37:13] | application/.JS
[Error][13:37:13] | asset
[Error][13:37:13] | asset
[Info][13:37:13] | application/.JS
[Info][13:37:13] | application/.JS
[Error][13:37:13] | asset
[Info][13:37:13] | image/jpeg
[Error][13:37:13] | asset
[Info][13:37:13] | application/.PNG
[Error][13:37:13] | asset
[Info][13:37:13] | application/.WOFF2
[Error][13:37:13] | handler
[Error][13:37:13] | System.FormatException: Input string was not in a correct format.
   at System.Number.StringToNumber(ReadOnlySpan`1 str, NumberStyles options, NumberBuffer& number, NumberFormatInfo info, Boolean parseDecimal)
   at System.Number.ParseInt64(ReadOnlySpan`1 value, NumberStyles options, NumberFormatInfo numfmt)
   at System.Convert.ToInt64(String value)
   at A4Engine.Modules.LootEditor.ChanceSpawnItemsHandler.Start(RequestContext Context) in C:\Users\AVIS\Desktop\gametools\A4Engine\Modules\LootEditor\ChanceSpawnItemsHandler.cs:line 141
   at WebPanel.Controllers.Handler.Init(RequestContext Context, SessionManager sessionManager) in C:\Users\AVIS\Desktop\gametools\A4Engine\Controllers\Handler.cs:line 36
   at WebPanel.Index.Http_OnGet(Object sender, HttpRequestEventArgs e) in C:\Users\AVIS\Desktop\gametools\A4Engine\Index.cs:line 100
[Error][13:37:13] | asset
[Info][13:37:13] | application/.ICO
[Error][13:39:36] | page
[Info][13:39:36] | C:\Users\AVIS\Desktop\gametools\A4Engine\bin\Debug\netcoreapp2.2\/assets/controllers/page/looteditor.html
[Error][13:39:36] | asset
[Error][13:39:36] | asset
[Info][13:39:36] | application/.JS
[Info][13:39:36] | text/css
[Error][13:39:36] | asset
[Error][13:39:36] | asset
[Info][13:39:36] | text/css
[Info][13:39:36] | application/.JS
[Error][13:39:36] | asset
[Error][13:39:36] | asset
[Info][13:39:36] | text/css
[Info][13:39:36] | application/.JS
[Error][13:39:36] | asset
[Info][13:39:36] | application/.JS
[Error][13:39:36] | asset
[Error][13:39:36] | asset
[Info][13:39:36] | application/.JS
[Info][13:39:36] | application/.JS
[Error][13:39:36] | asset
[Info][13:39:36] | application/.JS
[Error][13:39:36] | asset
[Error][13:39:36] | asset
[Info][13:39:36] | application/.JS
[Info][13:39:36] | application/.JS
[Error][13:39:36] | asset
[Error][13:39:36] | asset
[Info][13:39:36] | application/.JS
[Info][13:39:36] | application/.JS
[Error][13:39:36] | asset
[Info][13:39:36] | image/jpeg
[Error][13:39:36] | asset
[Info][13:39:36] | application/.PNG
[Error][13:39:36] | asset
[Info][13:39:36] | application/.WOFF2
[Error][13:39:36] | handler
[Error][13:39:36] | asset
[Info][13:39:36] | application/.ICO
[Error][13:40:35] | page
[Info][13:40:35] | C:\Users\AVIS\Desktop\gametools\A4Engine\bin\Debug\netcoreapp2.2\/assets/controllers/page/looteditor.html
[Error][13:40:35] | asset
[Error][13:40:35] | asset
[Info][13:40:35] | text/css
[Info][13:40:35] | application/.JS
[Error][13:40:35] | asset
[Error][13:40:35] | asset
[Info][13:40:35] | text/css
[Info][13:40:35] | application/.JS
[Error][13:40:35] | asset
[Error][13:40:35] | asset
[Info][13:40:35] | text/css
[Info][13:40:35] | application/.JS
[Error][13:40:35] | asset
[Error][13:40:35] | asset
[Info][13:40:35] | application/.JS
[Info][13:40:35] | application/.JS
[Error][13:40:35] | asset
[Error][13:40:35] | asset
[Info][13:40:35] | application/.JS
[Info][13:40:35] | application/.JS
[Error][13:40:35] | asset
[Error][13:40:35] | asset
[Info][13:40:35] | application/.JS
[Info][13:40:35] | application/.JS
[Error][13:40:35] | asset
[Error][13:40:35] | asset
[Info][13:40:35] | application/.JS
[Info][13:40:35] | application/.JS
[Error][13:40:35] | asset
[Info][13:40:35] | image/jpeg
[Error][13:40:35] | asset
[Info][13:40:35] | application/.PNG
[Error][13:40:35] | asset
[Info][13:40:35] | application/.WOFF2
[Error][13:40:35] | handler
[Error][13:40:36] | asset
[Info][13:40:36] | application/.ICO
[Error][13:41:11] | page
[Info][13:41:11] | C:\Users\AVIS\Desktop\gametools\A4Engine\bin\Debug\netcoreapp2.2\/assets/controllers/page/looteditor.html
[Error][13:41:11] | asset
[Error][13:41:11] | asset
[Info][13:41:11] | application/.JS
[Info][13:41:11] | text/css
[Error][13:41:11] | asset
[Info][13:41:11] | text/css
[Error][13:41:11] | asset
[Error][13:41:11] | asset
[Info][13:41:11] | application/.JS
[Info][13:41:11] | application/.JS
[Error][13:41:11] | asset
[Error][13:41:11] | asset
[Info][13:41:11] | text/css
[Info][13:41:11] | application/.JS
[Error][13:41:11] | asset
[Info][13:41:11] | application/.JS
[Error][13:41:11] | asset
[Error][13:41:11] | asset
[Info][13:41:11] | application/.JS
[Info][13:41:11] | application/.JS
[Error][13:41:11] | asset
[Error][13:41:11] | asset
[Info][13:41:11] | application/.JS
[Info][13:41:11] | application/.JS
[Error][13:41:11] | asset
[Error][13:41:11] | asset
[Info][13:41:11] | application/.JS
[Info][13:41:11] | application/.JS
[Error][13:41:11] | asset
[Info][13:41:11] | image/jpeg
[Error][13:41:11] | asset
[Info][13:41:11] | application/.PNG
[Error][13:41:11] | asset
[Info][13:41:11] | application/.WOFF2
[Error][13:41:11] | handler
[Error][13:41:11] | asset
[Info][13:41:11] | application/.ICO
[Error][13:41:42] | page
[Info][13:41:42] | C:\Users\AVIS\Desktop\gametools\A4Engine\bin\Debug\netcoreapp2.2\/assets/controllers/page/looteditor.html
[Error][13:41:42] | asset
[Error][13:41:42] | asset
[Info][13:41:42] | application/.JS
[Info][13:41:42] | text/css
[Error][13:41:42] | asset
[Info][13:41:42] | text/css
[Error][13:41:42] | asset
[Error][13:41:42] | asset
[Info][13:41:42] | application/.JS
[Info][13:41:42] | application/.JS
[Error][13:41:42] | asset
[Error][13:41:42] | asset
[Info][13:41:42] | text/css
[Info][13:41:42] | application/.JS
[Error][13:41:42] | asset
[Info][13:41:42] | application/.JS
[Error][13:41:42] | asset
[Error][13:41:42] | asset
[Info][13:41:42] | application/.JS
[Info][13:41:42] | application/.JS
[Error][13:41:42] | asset
[Error][13:41:42] | asset
[Info][13:41:42] | application/.JS
[Info][13:41:42] | application/.JS
[Error][13:41:42] | asset
[Error][13:41:42] | asset
[Info][13:41:42] | application/.JS
[Info][13:41:42] | application/.JS
[Error][13:41:42] | asset
[Info][13:41:42] | image/jpeg
[Error][13:41:42] | asset
[Info][13:41:42] | application/.PNG
[Error][13:41:42] | asset
[Info][13:41:42] | application/.WOFF2
[Error][13:41:42] | handler
[Error][13:41:42] | asset
[Info][13:41:42] | application/.ICO
[Error][13:45:41] | page
[Info][13:45:41] | C:\Users\AVIS\Desktop\gametools\A4Engine\bin\Debug\netcoreapp2.2\/assets/controllers/page/looteditor.html
[Error][13:45:41] | asset
[Error][13:45:41] | asset
[Info][13:45:41] | application/.JS
[Info][13:45:41] | text/css
[Error][13:45:41] | asset
[Info][13:45:41] | text/css
[Error][13:45:41] | asset
[Error][13:45:41] | asset
[Info][13:45:41] | application/.JS
[Info][13:45:41] | application/.JS
[Error][13:45:41] | asset
[Error][13:45:41] | asset
[Info][13:45:41] | text/css
[Info][13:45:41] | application/.JS
[Error][13:45:41] | asset
[Error][13:45:41] | asset
[Error][13:45:41] | asset
[Info][13:45:41] | application/.JS
[Info][13:45:41] | application/.JS
[Info][13:45:41] | application/.JS
[Error][13:45:41] | asset
[Error][13:45:41] | asset
[Error][13:45:41] | asset
[Info][13:45:41] | application/.JS
[Info][13:45:41] | application/.JS
[Info][13:45:41] | application/.JS
[Error][13:45:41] | asset
[Error][13:45:41] | asset
[Info][13:45:41] | image/jpeg
[Info][13:45:41] | application/.JS
[Error][13:45:41] | asset
[Info][13:45:41] | application/.PNG
[Error][13:45:41] | asset
[Info][13:45:41] | application/.WOFF2
[Error][13:45:41] | handler
[Error][13:45:41] | asset
[Info][13:45:41] | application/.ICO
[Try][14:14:45] | Init web panel
[Info][14:14:45] | rightId 2, right AllUserCmd
[Info][14:14:45] | rightId 3, right goTo
[Info][14:14:45] | rightId 4, right setWorldState
[Info][14:14:45] | rightId 5, right setNpcStat
[Info][14:14:45] | rightId 6, right setProperty
[Info][14:14:45] | rightId 7, right editItem
[Info][14:14:45] | rightId 8, right getItem
[Info][14:14:45] | rightId 9, right editScene
[Error][14:14:49] | page
[Info][14:14:49] | C:\Users\AVIS\Desktop\gametools\A4Engine\bin\Debug\netcoreapp2.2\/assets/controllers/page/looteditor.html
[Info][14:14:49] | UserId 1, right 1
[Info][14:14:49] | UserId 1, right 2
[Error][14:14:49] | asset
[Error][14:14:49] | asset
[Info][14:14:49] | text/css
[Info][14:14:49] | application/.JS
[Error][14:14:49] | asset
[Info][14:14:49] | text/css
[Error][14:14:49] | asset
[Info][14:14:49] | application/.JS
[Error][14:14:49] | asset
[Error][14:14:49] | asset
[Info][14:14:49] | text/css
[Info][14:14:49] | application/.JS
[Error][14:14:49] | asset
[Info][14:14:49] | application/.JS
[Error][14:14:49] | asset
[Error][14:14:49] | asset
[Info][14:14:49] | application/.JS
[Info][14:14:49] | application/.JS
[Error][14:14:49] | asset
[Info][14:14:49] | application/.JS
[Error][14:14:49] | asset
[Error][14:14:49] | asset
[Info][14:14:49] | application/.JS
[Info][14:14:49] | application/.JS
[Error][14:14:49] | asset
[Error][14:14:49] | asset
[Error][14:14:49] | asset
[Info][14:14:49] | application/.JS
[Info][14:14:49] | application/.JS
[Info][14:14:49] | image/jpeg
[Error][14:14:49] | asset
[Info][14:14:49] | application/.PNG
[Error][14:14:49] | asset
[Info][14:14:49] | application/.WOFF2
[Error][14:14:49] | handler
[Error][14:14:49] | asset
[Info][14:14:49] | application/.ICO
[Try][14:17:14] | Init web panel
[Info][14:17:15] | rightId 2, right AllUserCmd
[Info][14:17:15] | rightId 3, right goTo
[Info][14:17:15] | rightId 4, right setWorldState
[Info][14:17:15] | rightId 5, right setNpcStat
[Info][14:17:15] | rightId 6, right setProperty
[Info][14:17:15] | rightId 7, right editItem
[Info][14:17:15] | rightId 8, right getItem
[Info][14:17:15] | rightId 9, right editScene
[Error][14:17:15] | page
[Info][14:17:15] | C:\Users\AVIS\Desktop\gametools\A4Engine\bin\Debug\netcoreapp2.2\/assets/controllers/page/looteditor.html
[Info][14:17:15] | UserId 1, right 1
[Info][14:17:15] | UserId 1, right 2
[Error][14:17:15] | asset
[Error][14:17:15] | asset
[Info][14:17:15] | text/css
[Info][14:17:15] | application/.JS
[Error][14:17:15] | asset
[Info][14:17:15] | application/.JS
[Error][14:17:15] | asset
[Info][14:17:15] | text/css
[Error][14:17:15] | asset
[Error][14:17:15] | asset
[Info][14:17:15] | application/.JS
[Info][14:17:15] | text/css
[Error][14:17:15] | asset
[Error][14:17:15] | asset
[Info][14:17:15] | application/.JS
[Info][14:17:15] | application/.JS
[Error][14:17:15] | asset
[Error][14:17:15] | asset
[Info][14:17:15] | application/.JS
[Info][14:17:15] | application/.JS
[Error][14:17:15] | asset
[Error][14:17:15] | asset
[Info][14:17:15] | application/.JS
[Info][14:17:15] | application/.JS
[Error][14:17:15] | asset
[Error][14:17:15] | asset
[Info][14:17:15] | application/.JS
[Info][14:17:15] | application/.JS
[Error][14:17:15] | asset
[Info][14:17:15] | image/jpeg
[Error][14:17:15] | asset
[Info][14:17:15] | application/.PNG
[Error][14:17:15] | asset
[Info][14:17:16] | application/.WOFF2
[Error][14:17:16] | handler
[Error][14:17:16] | asset
[Info][14:17:16] | application/.ICO
[Error][14:27:16] | handler
[Error][14:27:18] | handler
[Error][14:27:20] | handler
[Error][14:27:28] | handler
[Error][14:27:38] | handler
[Error][14:28:42] | page
[Info][14:28:42] | C:\Users\AVIS\Desktop\gametools\A4Engine\bin\Debug\netcoreapp2.2\/assets/controllers/page/looteditor.html
[Error][14:28:42] | asset
[Error][14:28:42] | asset
[Info][14:28:42] | text/css
[Info][14:28:42] | application/.JS
[Error][14:28:42] | asset
[Info][14:28:42] | text/css
[Error][14:28:42] | asset
[Error][14:28:42] | asset
[Info][14:28:42] | application/.JS
[Info][14:28:42] | application/.JS
[Error][14:28:42] | asset
[Error][14:28:42] | asset
[Info][14:28:42] | application/.JS
[Info][14:28:42] | text/css
[Error][14:28:42] | asset
[Error][14:28:42] | asset
[Info][14:28:42] | application/.JS
[Info][14:28:42] | application/.JS
[Error][14:28:42] | asset
[Error][14:28:42] | asset
[Info][14:28:42] | application/.JS
[Info][14:28:42] | application/.JS
[Error][14:28:42] | asset
[Error][14:28:42] | asset
[Error][14:28:42] | asset
[Info][14:28:42] | application/.JS
[Info][14:28:42] | application/.JS
[Info][14:28:42] | application/.JS
[Error][14:28:42] | asset
[Info][14:28:42] | image/jpeg
[Error][14:28:42] | asset
[Info][14:28:42] | application/.PNG
[Error][14:28:42] | asset
[Info][14:28:42] | application/.WOFF2
[Error][14:28:42] | handler
[Error][14:28:42] | asset
[Info][14:28:42] | application/.ICO
[Error][14:28:43] | handler
[Error][14:30:53] | page
[Info][14:30:53] | C:\Users\AVIS\Desktop\gametools\A4Engine\bin\Debug\netcoreapp2.2\/assets/controllers/page/looteditor.html
[Error][14:30:53] | asset
[Error][14:30:53] | asset
[Info][14:30:53] | text/css
[Info][14:30:53] | application/.JS
[Error][14:30:53] | asset
[Error][14:30:53] | asset
[Info][14:30:53] | text/css
[Info][14:30:53] | application/.JS
[Error][14:30:53] | asset
[Error][14:30:53] | asset
[Info][14:30:53] | text/css
[Info][14:30:53] | application/.JS
[Error][14:30:53] | asset
[Error][14:30:53] | asset
[Info][14:30:53] | application/.JS
[Info][14:30:53] | application/.JS
[Error][14:30:53] | asset
[Error][14:30:53] | asset
[Info][14:30:53] | application/.JS
[Info][14:30:53] | application/.JS
[Error][14:30:53] | asset
[Error][14:30:53] | asset
[Info][14:30:53] | application/.JS
[Info][14:30:53] | application/.JS
[Error][14:30:53] | asset
[Error][14:30:53] | asset
[Info][14:30:53] | application/.JS
[Info][14:30:53] | application/.JS
[Error][14:30:53] | asset
[Info][14:30:53] | image/jpeg
[Error][14:30:53] | asset
[Info][14:30:53] | application/.PNG
[Error][14:30:53] | asset
[Info][14:30:53] | application/.WOFF2
[Error][14:30:53] | handler
[Error][14:30:53] | asset
[Info][14:30:53] | application/.ICO
[Error][14:30:54] | handler
[Error][14:30:58] | handler
[Error][14:32:44] | page
[Info][14:32:44] | C:\Users\AVIS\Desktop\gametools\A4Engine\bin\Debug\netcoreapp2.2\/assets/controllers/page/looteditor.html
[Error][14:32:44] | asset
[Error][14:32:44] | asset
[Info][14:32:44] | application/.JS
[Info][14:32:44] | text/css
[Error][14:32:44] | asset
[Info][14:32:44] | text/css
[Error][14:32:44] | asset
[Error][14:32:44] | asset
[Info][14:32:44] | application/.JS
[Info][14:32:44] | application/.JS
[Error][14:32:44] | asset
[Error][14:32:44] | asset
[Info][14:32:44] | application/.JS
[Info][14:32:44] | text/css
[Error][14:32:44] | asset
[Error][14:32:44] | asset
[Info][14:32:44] | application/.JS
[Info][14:32:44] | application/.JS
[Error][14:32:44] | asset
[Error][14:32:44] | asset
[Info][14:32:44] | application/.JS
[Info][14:32:44] | application/.JS
[Error][14:32:44] | asset
[Error][14:32:44] | asset
[Info][14:32:44] | application/.JS
[Info][14:32:44] | application/.JS
[Error][14:32:44] | asset
[Error][14:32:44] | asset
[Info][14:32:44] | application/.JS
[Info][14:32:44] | image/jpeg
[Error][14:32:44] | asset
[Info][14:32:44] | application/.PNG
[Error][14:32:44] | asset
[Info][14:32:44] | application/.WOFF2
[Error][14:32:44] | handler
[Error][14:32:44] | asset
[Info][14:32:44] | application/.ICO
[Error][14:32:45] | handler
[Error][14:32:58] | page
[Info][14:32:58] | C:\Users\AVIS\Desktop\gametools\A4Engine\bin\Debug\netcoreapp2.2\/assets/controllers/page/looteditor.html
[Error][14:32:58] | asset
[Info][14:32:58] | text/css
[Error][14:32:58] | asset
[Info][14:32:58] | application/.JS
[Error][14:32:58] | asset
[Info][14:32:58] | text/css
[Error][14:32:58] | asset
[Error][14:32:58] | asset
[Info][14:32:58] | text/css
[Info][14:32:58] | application/.JS
[Error][14:32:58] | asset
[Error][14:32:58] | asset
[Info][14:32:58] | application/.JS
[Info][14:32:58] | application/.JS
[Error][14:32:58] | asset
[Error][14:32:58] | asset
[Info][14:32:58] | application/.JS
[Info][14:32:58] | application/.JS
[Error][14:32:58] | asset
[Info][14:32:58] | application/.JS
[Error][14:32:58] | asset
[Error][14:32:58] | asset
[Info][14:32:58] | application/.JS
[Info][14:32:58] | application/.JS
[Error][14:32:58] | asset
[Error][14:32:58] | asset
[Info][14:32:58] | application/.JS
[Info][14:32:58] | application/.JS
[Error][14:32:58] | asset
[Info][14:32:58] | image/jpeg
[Error][14:32:58] | asset
[Info][14:32:58] | application/.PNG
[Error][14:32:58] | asset
[Info][14:32:58] | application/.WOFF2
[Error][14:32:58] | handler
[Error][14:32:58] | asset
[Info][14:32:58] | application/.ICO
[Error][14:32:59] | handler
[Error][14:33:09] | handler
[Error][14:33:11] | handler
[Error][14:33:20] | handler
[Error][14:33:21] | handler
[Try][14:37:34] | Init web panel
[Info][14:37:34] | rightId 2, right AllUserCmd
[Info][14:37:34] | rightId 3, right goTo
[Info][14:37:34] | rightId 4, right setWorldState
[Info][14:37:34] | rightId 5, right setNpcStat
[Info][14:37:34] | rightId 6, right setProperty
[Info][14:37:34] | rightId 7, right editItem
[Info][14:37:34] | rightId 8, right getItem
[Info][14:37:34] | rightId 9, right editScene
[Error][14:37:41] | page
[Info][14:37:41] | C:\Users\AVIS\Desktop\gametools\A4Engine\bin\Debug\netcoreapp2.2\/assets/controllers/page/looteditor.html
[Info][14:37:41] | UserId 1, right 1
[Info][14:37:41] | UserId 1, right 2
[Error][14:37:41] | asset
[Error][14:37:41] | asset
[Info][14:37:41] | application/.JS
[Info][14:37:41] | text/css
[Error][14:37:41] | asset
[Info][14:37:41] | text/css
[Error][14:37:41] | asset
[Info][14:37:41] | application/.JS
[Error][14:37:41] | asset
[Error][14:37:41] | asset
[Info][14:37:41] | application/.JS
[Info][14:37:41] | text/css
[Error][14:37:41] | asset
[Error][14:37:41] | asset
[Info][14:37:41] | application/.JS
[Info][14:37:41] | application/.JS
[Error][14:37:41] | asset
[Error][14:37:41] | asset
[Info][14:37:41] | application/.JS
[Info][14:37:41] | application/.JS
[Error][14:37:41] | asset
[Info][14:37:41] | application/.JS
[Error][14:37:41] | asset
[Error][14:37:41] | asset
[Error][14:37:41] | asset
[Info][14:37:41] | application/.JS
[Info][14:37:41] | application/.JS
[Info][14:37:41] | application/.JS
[Error][14:37:41] | asset
[Info][14:37:41] | image/jpeg
[Error][14:37:41] | asset
[Info][14:37:41] | application/.PNG
[Error][14:37:41] | asset
[Info][14:37:41] | application/.WOFF2
[Error][14:37:41] | handler
[Error][14:37:41] | asset
[Info][14:37:41] | application/.ICO
[Error][14:37:42] | handler
[Error][14:37:42] | handler
[Error][14:38:00] | page
[Info][14:38:00] | C:\Users\AVIS\Desktop\gametools\A4Engine\bin\Debug\netcoreapp2.2\/assets/controllers/page/looteditor.html
[Error][14:38:00] | asset
[Error][14:38:00] | asset
[Info][14:38:00] | text/css
[Info][14:38:00] | application/.JS
[Error][14:38:00] | asset
[Error][14:38:00] | asset
[Info][14:38:00] | text/css
[Info][14:38:00] | application/.JS
[Error][14:38:00] | asset
[Error][14:38:00] | asset
[Info][14:38:00] | text/css
[Info][14:38:00] | application/.JS
[Error][14:38:00] | asset
[Info][14:38:00] | application/.JS
[Error][14:38:00] | asset
[Error][14:38:00] | asset
[Info][14:38:00] | application/.JS
[Info][14:38:00] | application/.JS
[Error][14:38:00] | asset
[Info][14:38:00] | application/.JS
[Error][14:38:00] | asset
[Error][14:38:00] | asset
[Info][14:38:00] | application/.JS
[Info][14:38:00] | application/.JS
[Error][14:38:00] | asset
[Error][14:38:00] | asset
[Info][14:38:00] | application/.JS
[Info][14:38:00] | application/.JS
[Error][14:38:00] | asset
[Info][14:38:00] | image/jpeg
[Error][14:38:00] | asset
[Info][14:38:00] | application/.PNG
[Error][14:38:00] | asset
[Info][14:38:00] | application/.WOFF2
[Error][14:38:00] | handler
[Error][14:38:01] | handler
[Error][14:38:01] | handler
[Error][14:38:19] | page
[Info][14:38:19] | C:\Users\AVIS\Desktop\gametools\A4Engine\bin\Debug\netcoreapp2.2\/assets/controllers/page/looteditor.html
[Error][14:38:19] | asset
[Error][14:38:19] | asset
[Info][14:38:19] | text/css
[Info][14:38:19] | application/.JS
[Error][14:38:19] | asset
[Info][14:38:19] | text/css
[Error][14:38:19] | asset
[Error][14:38:19] | asset
[Info][14:38:19] | text/css
[Info][14:38:19] | application/.JS
[Error][14:38:19] | asset
[Error][14:38:19] | asset
[Info][14:38:19] | application/.JS
[Info][14:38:19] | application/.JS
[Error][14:38:19] | asset
[Error][14:38:19] | asset
[Info][14:38:19] | application/.JS
[Info][14:38:19] | application/.JS
[Error][14:38:19] | asset
[Error][14:38:19] | asset
[Info][14:38:19] | application/.JS
[Info][14:38:19] | application/.JS
[Error][14:38:19] | asset
[Error][14:38:19] | asset
[Info][14:38:19] | application/.JS
[Info][14:38:19] | application/.JS
[Error][14:38:19] | asset
[Error][14:38:19] | asset
[Info][14:38:19] | image/jpeg
[Info][14:38:19] | application/.JS
[Error][14:38:19] | asset
[Info][14:38:19] | application/.PNG
[Error][14:38:19] | asset
[Info][14:38:19] | application/.WOFF2
[Error][14:38:20] | handler
[Error][14:38:20] | asset
[Info][14:38:20] | application/.ICO
[Error][14:39:04] | page
[Info][14:39:04] | C:\Users\AVIS\Desktop\gametools\A4Engine\bin\Debug\netcoreapp2.2\/assets/controllers/page/looteditor.html
[Error][14:39:04] | asset
[Error][14:39:04] | asset
[Info][14:39:04] | application/.JS
[Info][14:39:04] | text/css
[Error][14:39:04] | asset
[Info][14:39:04] | text/css
[Error][14:39:04] | asset
[Error][14:39:04] | asset
[Info][14:39:04] | application/.JS
[Info][14:39:04] | application/.JS
[Error][14:39:04] | asset
[Error][14:39:04] | asset
[Info][14:39:04] | text/css
[Info][14:39:04] | application/.JS
[Error][14:39:04] | asset
[Info][14:39:04] | application/.JS
[Error][14:39:04] | asset
[Error][14:39:04] | asset
[Info][14:39:04] | application/.JS
[Info][14:39:04] | application/.JS
[Error][14:39:04] | asset
[Error][14:39:04] | asset
[Info][14:39:04] | application/.JS
[Info][14:39:04] | application/.JS
[Error][14:39:04] | asset
[Error][14:39:04] | asset
[Info][14:39:04] | application/.JS
[Info][14:39:04] | application/.JS
[Error][14:39:04] | asset
[Info][14:39:04] | image/jpeg
[Error][14:39:04] | asset
[Info][14:39:04] | application/.PNG
[Error][14:39:04] | asset
[Info][14:39:04] | application/.WOFF2
[Error][14:39:05] | handler
[Error][14:39:05] | asset
[Info][14:39:05] | application/.ICO
[Error][14:39:22] | page
[Info][14:39:22] | C:\Users\AVIS\Desktop\gametools\A4Engine\bin\Debug\netcoreapp2.2\/assets/controllers/page/looteditor.html
[Error][14:39:23] | asset
[Error][14:39:23] | asset
[Info][14:39:23] | text/css
[Info][14:39:23] | application/.JS
[Error][14:39:23] | asset
[Info][14:39:23] | text/css
[Error][14:39:23] | asset
[Info][14:39:23] | application/.JS
[Error][14:39:23] | asset
[Error][14:39:23] | asset
[Info][14:39:23] | text/css
[Info][14:39:23] | application/.JS
[Error][14:39:23] | asset
[Info][14:39:23] | application/.JS
[Error][14:39:23] | asset
[Error][14:39:23] | asset
[Info][14:39:23] | application/.JS
[Info][14:39:23] | application/.JS
[Error][14:39:23] | asset
[Info][14:39:23] | application/.JS
[Error][14:39:23] | asset
[Info][14:39:23] | application/.JS
[Error][14:39:23] | asset
[Error][14:39:23] | asset
[Info][14:39:23] | application/.JS
[Info][14:39:23] | application/.JS
[Error][14:39:23] | asset
[Error][14:39:23] | asset
[Info][14:39:23] | application/.JS
[Info][14:39:23] | image/jpeg
[Error][14:39:23] | asset
[Info][14:39:23] | application/.PNG
[Error][14:39:23] | asset
[Info][14:39:23] | application/.WOFF2
[Error][14:39:23] | handler
[Error][14:39:24] | handler
[Error][14:39:24] | handler
[Error][14:39:28] | handler
[Error][14:39:46] | handler
[Error][14:39:48] | page
[Info][14:39:48] | C:\Users\AVIS\Desktop\gametools\A4Engine\bin\Debug\netcoreapp2.2\/assets/controllers/page/looteditor.html
[Error][14:39:48] | asset
[Error][14:39:48] | asset
[Info][14:39:48] | text/css
[Info][14:39:48] | application/.JS
[Error][14:39:48] | asset
[Info][14:39:48] | text/css
[Error][14:39:48] | asset
[Info][14:39:48] | application/.JS
[Error][14:39:48] | asset
[Error][14:39:48] | asset
[Info][14:39:48] | text/css
[Info][14:39:48] | application/.JS
[Error][14:39:48] | asset
[Info][14:39:48] | application/.JS
[Error][14:39:48] | asset
[Error][14:39:48] | asset
[Info][14:39:48] | application/.JS
[Info][14:39:48] | application/.JS
[Error][14:39:48] | asset
[Error][14:39:48] | asset
[Info][14:39:48] | application/.JS
[Info][14:39:48] | application/.JS
[Error][14:39:48] | asset
[Error][14:39:48] | asset
[Info][14:39:48] | application/.JS
[Info][14:39:48] | application/.JS
[Error][14:39:48] | asset
[Info][14:39:48] | application/.JS
[Error][14:39:48] | asset
[Info][14:39:48] | image/jpeg
[Error][14:39:48] | asset
[Info][14:39:48] | application/.PNG
[Error][14:39:48] | asset
[Info][14:39:48] | application/.WOFF2
[Error][14:39:48] | handler
[Error][14:39:48] | asset
[Info][14:39:48] | application/.ICO
[Error][14:40:56] | page
[Info][14:40:56] | C:\Users\AVIS\Desktop\gametools\A4Engine\bin\Debug\netcoreapp2.2\/assets/controllers/page/looteditor.html
[Error][14:40:56] | asset
[Error][14:40:56] | asset
[Info][14:40:56] | application/.JS
[Info][14:40:56] | text/css
[Error][14:40:56] | asset
[Info][14:40:56] | text/css
[Error][14:40:56] | asset
[Error][14:40:56] | asset
[Info][14:40:56] | application/.JS
[Info][14:40:56] | application/.JS
[Error][14:40:56] | asset
[Error][14:40:56] | asset
[Info][14:40:56] | application/.JS
[Info][14:40:56] | text/css
[Error][14:40:56] | asset
[Error][14:40:56] | asset
[Info][14:40:56] | application/.JS
[Info][14:40:56] | application/.JS
[Error][14:40:56] | asset
[Error][14:40:56] | asset
[Info][14:40:56] | application/.JS
[Info][14:40:56] | application/.JS
[Error][14:40:56] | asset
[Error][14:40:56] | asset
[Info][14:40:56] | application/.JS
[Info][14:40:56] | application/.JS
[Error][14:40:56] | asset
[Error][14:40:56] | asset
[Info][14:40:56] | application/.JS
[Info][14:40:56] | image/jpeg
[Error][14:40:57] | asset
[Info][14:40:57] | application/.PNG
[Error][14:40:57] | asset
[Info][14:40:57] | application/.WOFF2
[Error][14:40:57] | handler
[Error][14:40:57] | asset
[Info][14:40:57] | application/.ICO
[Error][14:41:02] | handler
[Error][14:41:04] | handler
[Error][14:41:06] | page
[Info][14:41:06] | C:\Users\AVIS\Desktop\gametools\A4Engine\bin\Debug\netcoreapp2.2\/assets/controllers/page/looteditor.html
[Error][14:41:06] | asset
[Error][14:41:06] | asset
[Error][14:41:06] | asset
[Error][14:41:06] | asset
[Error][14:41:06] | asset
[Info][14:41:06] | text/css
[Info][14:41:06] | application/.JS
[Info][14:41:06] | text/css
[Info][14:41:06] | application/.JS
[Info][14:41:06] | application/.JS
[Error][14:41:06] | asset
[Info][14:41:06] | application/.JS
[Error][14:41:06] | asset
[Error][14:41:06] | asset
[Error][14:41:06] | asset
[Error][14:41:06] | asset
[Error][14:41:06] | asset
[Info][14:41:06] | application/.JS
[Info][14:41:06] | application/.JS
[Info][14:41:06] | application/.JS
[Info][14:41:06] | application/.JS
[Info][14:41:06] | application/.JS
[Error][14:41:06] | asset
[Error][14:41:06] | asset
[Info][14:41:06] | text/css
[Info][14:41:06] | application/.JS
[Error][14:41:06] | asset
[Error][14:41:06] | asset
[Info][14:41:06] | application/.JS
[Info][14:41:06] | image/jpeg
[Error][14:41:06] | asset
[Info][14:41:06] | application/.PNG
[Error][14:41:06] | asset
[Info][14:41:06] | application/.WOFF2
[Error][14:41:06] | handler
[Error][14:41:06] | asset
[Info][14:41:06] | application/.ICO
[Error][14:42:19] | handler
[Error][14:42:19] | handler
[Error][14:42:25] | handler
[Error][14:42:27] | handler
[Error][14:42:29] | page
[Info][14:42:29] | C:\Users\AVIS\Desktop\gametools\A4Engine\bin\Debug\netcoreapp2.2\/assets/controllers/page/looteditor.html
[Error][14:42:29] | asset
[Info][14:42:29] | text/css
[Error][14:42:29] | asset
[Info][14:42:29] | text/css
[Error][14:42:29] | asset
[Info][14:42:29] | application/.JS
[Error][14:42:29] | asset
[Info][14:42:29] | text/css
[Error][14:42:29] | asset
[Info][14:42:29] | application/.JS
[Error][14:42:29] | asset
[Info][14:42:29] | application/.JS
[Error][14:42:29] | asset
[Info][14:42:29] | application/.JS
[Error][14:42:29] | asset
[Info][14:42:29] | application/.JS
[Error][14:42:29] | asset
[Info][14:42:29] | application/.JS
[Error][14:42:29] | asset
[Info][14:42:29] | application/.JS
[Error][14:42:29] | asset
[Info][14:42:29] | application/.JS
[Error][14:42:29] | asset
[Info][14:42:29] | application/.JS
[Error][14:42:29] | asset
[Info][14:42:29] | application/.JS
[Error][14:42:29] | asset
[Info][14:42:29] | application/.JS
[Error][14:42:29] | asset
[Info][14:42:29] | image/jpeg
[Error][14:42:29] | asset
[Info][14:42:29] | application/.PNG
[Error][14:42:29] | asset
[Info][14:42:29] | application/.WOFF2
[Error][14:42:29] | handler
[Error][14:42:29] | asset
[Info][14:42:29] | application/.ICO
[Error][14:43:03] | page
[Info][14:43:03] | C:\Users\AVIS\Desktop\gametools\A4Engine\bin\Debug\netcoreapp2.2\/assets/controllers/page/looteditor.html
[Error][14:43:03] | asset
[Error][14:43:03] | asset
[Info][14:43:03] | application/.JS
[Info][14:43:03] | text/css
[Error][14:43:03] | asset
[Info][14:43:03] | text/css
[Error][14:43:04] | asset
[Error][14:43:04] | asset
[Info][14:43:04] | application/.JS
[Info][14:43:04] | application/.JS
[Error][14:43:04] | asset
[Error][14:43:04] | asset
[Info][14:43:04] | text/css
[Info][14:43:04] | application/.JS
[Error][14:43:04] | asset
[Info][14:43:04] | application/.JS
[Error][14:43:04] | asset
[Error][14:43:04] | asset
[Info][14:43:04] | application/.JS
[Info][14:43:04] | application/.JS
[Error][14:43:04] | asset
[Error][14:43:04] | asset
[Info][14:43:04] | application/.JS
[Info][14:43:04] | application/.JS
[Error][14:43:04] | asset
[Error][14:43:04] | asset
[Info][14:43:04] | application/.JS
[Info][14:43:04] | application/.JS
[Error][14:43:04] | asset
[Info][14:43:04] | image/jpeg
[Error][14:43:04] | asset
[Info][14:43:04] | application/.PNG
[Error][14:43:04] | asset
[Info][14:43:04] | application/.WOFF2
[Error][14:43:04] | handler
[Error][14:43:04] | asset
[Info][14:43:04] | application/.ICO
[Error][14:43:06] | handler
[Error][14:43:06] | handler
[Error][14:43:10] | handler
[Error][14:43:12] | handler
[Error][14:43:15] | page
[Info][14:43:15] | C:\Users\AVIS\Desktop\gametools\A4Engine\bin\Debug\netcoreapp2.2\/assets/controllers/page/looteditor.html
[Error][14:43:15] | asset
[Error][14:43:15] | asset
[Info][14:43:15] | application/.JS
[Info][14:43:15] | text/css
[Error][14:43:15] | asset
[Error][14:43:15] | asset
[Info][14:43:15] | application/.JS
[Info][14:43:15] | text/css
[Error][14:43:15] | asset
[Error][14:43:15] | asset
[Info][14:43:15] | application/.JS
[Info][14:43:15] | text/css
[Error][14:43:15] | asset
[Error][14:43:15] | asset
[Info][14:43:15] | application/.JS
[Info][14:43:15] | application/.JS
[Error][14:43:15] | asset
[Error][14:43:15] | asset
[Info][14:43:15] | application/.JS
[Info][14:43:15] | application/.JS
[Error][14:43:15] | asset
[Error][14:43:15] | asset
[Info][14:43:15] | application/.JS
[Info][14:43:15] | application/.JS
[Error][14:43:15] | asset
[Error][14:43:15] | asset
[Info][14:43:15] | application/.JS
[Info][14:43:15] | application/.JS
[Error][14:43:15] | asset
[Info][14:43:15] | image/jpeg
[Error][14:43:15] | asset
[Info][14:43:15] | application/.PNG
[Error][14:43:15] | asset
[Info][14:43:15] | application/.WOFF2
[Error][14:43:15] | handler
[Error][14:43:15] | asset
[Info][14:43:15] | application/.ICO
[Error][14:43:18] | page
[Info][14:43:18] | C:\Users\AVIS\Desktop\gametools\A4Engine\bin\Debug\netcoreapp2.2\/assets/controllers/page/looteditor.html
[Error][14:43:18] | asset
[Error][14:43:18] | asset
[Error][14:43:18] | asset
[Info][14:43:18] | text/css
[Error][14:43:18] | asset
[Info][14:43:18] | application/.JS
[Info][14:43:18] | application/.JS
[Info][14:43:18] | text/css
[Error][14:43:18] | asset
[Error][14:43:18] | asset
[Error][14:43:18] | asset
[Error][14:43:18] | asset
[Error][14:43:18] | asset
[Error][14:43:18] | asset
[Info][14:43:18] | application/.JS
[Info][14:43:18] | application/.JS
[Info][14:43:18] | application/.JS
[Info][14:43:18] | application/.JS
[Info][14:43:18] | application/.JS
[Info][14:43:18] | text/css
[Error][14:43:18] | asset
[Error][14:43:18] | asset
[Error][14:43:18] | asset
[Info][14:43:18] | application/.JS
[Info][14:43:18] | application/.JS
[Info][14:43:18] | application/.JS
[Error][14:43:18] | asset
[Error][14:43:18] | asset
[Info][14:43:18] | application/.JS
[Info][14:43:18] | image/jpeg
[Error][14:43:18] | asset
[Info][14:43:18] | application/.PNG
[Error][14:43:18] | asset
[Info][14:43:18] | application/.WOFF2
[Error][14:43:18] | handler
[Error][14:43:18] | asset
[Info][14:43:18] | application/.ICO
[Error][14:43:26] | handler
[Error][14:43:53] | page
[Info][14:43:53] | C:\Users\AVIS\Desktop\gametools\A4Engine\bin\Debug\netcoreapp2.2\/assets/controllers/page/looteditor.html
[Error][14:43:53] | asset
[Error][14:43:53] | asset
[Info][14:43:53] | application/.JS
[Info][14:43:53] | text/css
[Error][14:43:53] | asset
[Info][14:43:53] | text/css
[Error][14:43:53] | asset
[Error][14:43:53] | asset
[Info][14:43:53] | application/.JS
[Info][14:43:53] | application/.JS
[Error][14:43:53] | asset
[Error][14:43:53] | asset
[Info][14:43:53] | text/css
[Info][14:43:53] | application/.JS
[Error][14:43:53] | asset
[Info][14:43:53] | application/.JS
[Error][14:43:53] | asset
[Error][14:43:53] | asset
[Info][14:43:53] | application/.JS
[Info][14:43:53] | application/.JS
[Error][14:43:53] | asset
[Error][14:43:53] | asset
[Info][14:43:53] | application/.JS
[Info][14:43:53] | application/.JS
[Error][14:43:53] | asset
[Error][14:43:53] | asset
[Info][14:43:53] | application/.JS
[Error][14:43:53] | asset
[Info][14:43:53] | application/.JS
[Info][14:43:53] | image/jpeg
[Error][14:43:54] | asset
[Info][14:43:54] | application/.PNG
[Error][14:43:54] | asset
[Info][14:43:54] | application/.WOFF2
[Error][14:43:54] | handler
[Error][14:43:54] | asset
[Info][14:43:54] | application/.ICO
[Error][14:43:55] | handler
[Error][14:43:55] | handler
[Error][14:43:59] | page
[Info][14:43:59] | C:\Users\AVIS\Desktop\gametools\A4Engine\bin\Debug\netcoreapp2.2\/assets/controllers/page/looteditor.html
[Error][14:43:59] | asset
[Error][14:43:59] | asset
[Info][14:43:59] | text/css
[Error][14:43:59] | asset
[Error][14:43:59] | asset
[Info][14:43:59] | application/.JS
[Error][14:43:59] | asset
[Error][14:43:59] | asset
[Error][14:43:59] | asset
[Info][14:43:59] | application/.JS
[Info][14:43:59] | text/css
[Info][14:43:59] | application/.JS
[Info][14:43:59] | application/.JS
[Info][14:43:59] | application/.JS
[Error][14:43:59] | asset
[Error][14:43:59] | asset
[Error][14:43:59] | asset
[Error][14:43:59] | asset
[Error][14:43:59] | asset
[Info][14:43:59] | application/.JS
[Error][14:43:59] | asset
[Info][14:43:59] | text/css
[Info][14:43:59] | application/.JS
[Info][14:43:59] | application/.JS
[Info][14:43:59] | application/.JS
[Info][14:43:59] | application/.JS
[Error][14:43:59] | asset
[Error][14:43:59] | asset
[Info][14:43:59] | application/.JS
[Info][14:43:59] | image/jpeg
[Error][14:44:00] | asset
[Info][14:44:00] | application/.PNG
[Error][14:44:00] | asset
[Info][14:44:00] | application/.WOFF2
[Error][14:44:00] | handler
[Error][14:44:00] | asset
[Info][14:44:00] | application/.ICO
[Try][14:50:33] | Init web panel
[Info][14:50:34] | rightId 2, right AllUserCmd
[Info][14:50:34] | rightId 3, right goTo
[Info][14:50:34] | rightId 4, right setWorldState
[Info][14:50:34] | rightId 5, right setNpcStat
[Info][14:50:34] | rightId 6, right setProperty
[Info][14:50:34] | rightId 7, right editItem
[Info][14:50:34] | rightId 8, right getItem
[Info][14:50:34] | rightId 9, right editScene
[Error][14:52:53] | page
[Info][14:52:53] | C:\Users\AVIS\Desktop\gametools\A4Engine\bin\Debug\netcoreapp2.2\/assets/controllers/page/looteditor.html
[Info][14:52:53] | UserId 1, right 1
[Info][14:52:53] | UserId 1, right 2
[Error][14:52:53] | asset
[Error][14:52:53] | asset
[Info][14:52:53] | text/css
[Info][14:52:53] | application/.JS
[Error][14:52:53] | asset
[Info][14:52:53] | text/css
[Error][14:52:53] | asset
[Info][14:52:53] | application/.JS
[Error][14:52:53] | asset
[Error][14:52:53] | asset
[Info][14:52:53] | application/.JS
[Error][14:52:53] | asset
[Info][14:52:53] | application/.JS
[Info][14:52:53] | text/css
[Error][14:52:53] | asset
[Error][14:52:53] | asset
[Error][14:52:53] | asset
[Info][14:52:53] | application/.JS
[Info][14:52:53] | application/.JS
[Info][14:52:53] | application/.JS
[Error][14:52:53] | asset
[Error][14:52:53] | asset
[Error][14:52:53] | asset
[Info][14:52:53] | application/.JS
[Info][14:52:53] | application/.JS
[Info][14:52:53] | application/.JS
[Error][14:52:53] | asset
[Error][14:52:53] | asset
[Info][14:52:53] | application/.JS
[Info][14:52:53] | image/jpeg
[Error][14:52:53] | asset
[Info][14:52:53] | application/.PNG
[Error][14:52:53] | asset
[Info][14:52:53] | application/.WOFF2
[Error][14:52:53] | handler
[Error][14:52:54] | asset
[Info][14:52:54] | application/.ICO
[Error][14:52:58] | handler
[Error][14:52:58] | handler
[Error][14:53:00] | page
[Info][14:53:00] | C:\Users\AVIS\Desktop\gametools\A4Engine\bin\Debug\netcoreapp2.2\/assets/controllers/page/looteditor.html
[Error][14:53:00] | asset
[Error][14:53:00] | asset
[Info][14:53:00] | text/css
[Error][14:53:00] | asset
[Error][14:53:00] | asset
[Error][14:53:00] | asset
[Info][14:53:00] | application/.JS
[Info][14:53:00] | application/.JS
[Error][14:53:00] | asset
[Info][14:53:00] | text/css
[Error][14:53:00] | asset
[Info][14:53:00] | application/.JS
[Info][14:53:00] | application/.JS
[Info][14:53:00] | application/.JS
[Error][14:53:00] | asset
[Error][14:53:00] | asset
[Error][14:53:00] | asset
[Info][14:53:00] | text/css
[Info][14:53:00] | application/.JS
[Info][14:53:00] | application/.JS
[Error][14:53:00] | asset
[Info][14:53:00] | application/.JS
[Error][14:53:00] | asset
[Error][14:53:00] | asset
[Info][14:53:00] | application/.JS
[Info][14:53:00] | application/.JS
[Error][14:53:00] | asset
[Error][14:53:00] | asset
[Info][14:53:00] | application/.JS
[Info][14:53:00] | image/jpeg
[Error][14:53:00] | asset
[Info][14:53:00] | application/.PNG
[Error][14:53:00] | asset
[Info][14:53:00] | application/.WOFF2
[Error][14:53:00] | handler
[Error][14:53:01] | asset
[Info][14:53:01] | application/.ICO
[Try][14:53:28] | Init web panel
[Info][14:53:29] | rightId 2, right AllUserCmd
[Info][14:53:29] | rightId 3, right goTo
[Info][14:53:29] | rightId 4, right setWorldState
[Info][14:53:29] | rightId 5, right setNpcStat
[Info][14:53:29] | rightId 6, right setProperty
[Info][14:53:29] | rightId 7, right editItem
[Info][14:53:29] | rightId 8, right getItem
[Info][14:53:29] | rightId 9, right editScene
[Error][15:04:56] | handler
[Info][15:04:56] | UserId 1, right 1
[Info][15:04:56] | UserId 1, right 2
[Error][15:04:56] | handler
[Try][15:07:36] | Init web panel
[Info][15:07:37] | rightId 2, right AllUserCmd
[Info][15:07:37] | rightId 3, right goTo
[Info][15:07:37] | rightId 4, right setWorldState
[Info][15:07:37] | rightId 5, right setNpcStat
[Info][15:07:37] | rightId 6, right setProperty
[Info][15:07:37] | rightId 7, right editItem
[Info][15:07:37] | rightId 8, right getItem
[Info][15:07:37] | rightId 9, right editScene
[Error][15:07:43] | handler
[Info][15:07:43] | UserId 1, right 1
[Info][15:07:43] | UserId 1, right 2
[Info][15:07:43] | 9
[Error][15:07:43] | handler
[Error][15:07:49] | page
[Info][15:07:50] | C:\Users\AVIS\Desktop\gametools\A4Engine\bin\Debug\netcoreapp2.2\/assets/controllers/page/looteditor.html
[Error][15:07:50] | asset
[Error][15:07:50] | asset
[Info][15:07:50] | text/css
[Info][15:07:50] | application/.JS
[Error][15:07:50] | asset
[Error][15:07:50] | asset
[Info][15:07:50] | text/css
[Info][15:07:50] | application/.JS
[Error][15:07:50] | asset
[Error][15:07:50] | asset
[Info][15:07:50] | text/css
[Info][15:07:50] | application/.JS
[Error][15:07:50] | asset
[Info][15:07:50] | application/.JS
[Error][15:07:50] | asset
[Error][15:07:50] | asset
[Info][15:07:50] | application/.JS
[Info][15:07:50] | application/.JS
[Error][15:07:50] | asset
[Info][15:07:50] | application/.JS
[Error][15:07:50] | asset
[Error][15:07:50] | asset
[Info][15:07:50] | application/.JS
[Info][15:07:50] | application/.JS
[Error][15:07:50] | asset
[Error][15:07:50] | asset
[Info][15:07:50] | application/.JS
[Info][15:07:50] | application/.JS
[Error][15:07:50] | asset
[Info][15:07:50] | image/jpeg
[Error][15:07:50] | asset
[Info][15:07:50] | application/.PNG
[Error][15:07:50] | asset
[Info][15:07:50] | application/.WOFF2
[Error][15:07:50] | handler
[Error][15:07:50] | asset
[Info][15:07:50] | application/.ICO
[Error][15:07:52] | handler
[Info][15:07:52] | 9
[Error][15:07:52] | handler
[Info][15:07:57] | Stopping daemon.
[Info][15:07:57] | Disposing....
[Try][15:08:39] | Init web panel
[Info][15:08:39] | rightId 2, right AllUserCmd
[Info][15:08:39] | rightId 3, right goTo
[Info][15:08:39] | rightId 4, right setWorldState
[Info][15:08:39] | rightId 5, right setNpcStat
[Info][15:08:39] | rightId 6, right setProperty
[Info][15:08:39] | rightId 7, right editItem
[Info][15:08:39] | rightId 8, right getItem
[Info][15:08:39] | rightId 9, right editScene
[Error][15:08:45] | page
[Info][15:08:45] | C:\Users\AVIS\Desktop\gametools\A4Engine\bin\Debug\netcoreapp2.2\/assets/controllers/page/looteditor.html
[Info][15:08:45] | UserId 1, right 1
[Info][15:08:45] | UserId 1, right 2
[Error][15:08:45] | asset
[Error][15:08:45] | asset
[Info][15:08:45] | text/css
[Info][15:08:45] | application/.JS
[Error][15:08:45] | asset
[Info][15:08:45] | text/css
[Error][15:08:45] | asset
[Error][15:08:45] | asset
[Info][15:08:46] | application/.JS
[Info][15:08:46] | application/.JS
[Error][15:08:46] | asset
[Info][15:08:46] | application/.JS
[Error][15:08:46] | asset
[Error][15:08:46] | asset
[Error][15:08:46] | asset
[Info][15:08:46] | application/.JS
[Info][15:08:46] | application/.JS
[Info][15:08:46] | text/css
[Error][15:08:46] | asset
[Info][15:08:46] | application/.JS
[Error][15:08:46] | asset
[Error][15:08:46] | asset
[Info][15:08:46] | application/.JS
[Info][15:08:46] | application/.JS
[Error][15:08:46] | asset
[Error][15:08:46] | asset
[Error][15:08:46] | asset
[Info][15:08:46] | application/.JS
[Info][15:08:46] | image/jpeg
[Info][15:08:46] | application/.JS
[Error][15:08:46] | asset
[Info][15:08:46] | application/.PNG
[Error][15:08:46] | asset
[Info][15:08:46] | application/.WOFF2
[Error][15:08:46] | handler
[Error][15:08:46] | asset
[Info][15:08:46] | application/.ICO
[Error][15:08:47] | handler
[Error][15:08:47] | handler
[Error][15:09:09] | handler
[Error][15:12:47] | page
[Info][15:12:47] | C:\Users\AVIS\Desktop\gametools\A4Engine\bin\Debug\netcoreapp2.2\/assets/controllers/page/looteditor.html
[Error][15:12:47] | asset
[Error][15:12:47] | asset
[Info][15:12:47] | application/.JS
[Info][15:12:47] | text/css
[Error][15:12:47] | asset
[Info][15:12:47] | text/css
[Error][15:12:47] | asset
[Info][15:12:47] | application/.JS
[Error][15:12:47] | asset
[Error][15:12:47] | asset
[Info][15:12:47] | application/.JS
[Info][15:12:47] | text/css
[Error][15:12:47] | asset
[Error][15:12:47] | asset
[Info][15:12:47] | application/.JS
[Info][15:12:47] | application/.JS
[Error][15:12:47] | asset
[Error][15:12:47] | asset
[Info][15:12:47] | application/.JS
[Info][15:12:47] | application/.JS
[Error][15:12:47] | asset
[Error][15:12:47] | asset
[Info][15:12:47] | application/.JS
[Info][15:12:47] | application/.JS
[Error][15:12:47] | asset
[Error][15:12:47] | asset
[Info][15:12:47] | application/.JS
[Info][15:12:47] | application/.JS
[Error][15:12:47] | asset
[Info][15:12:47] | image/jpeg
[Error][15:12:47] | asset
[Info][15:12:47] | application/.PNG
[Error][15:12:47] | asset
[Info][15:12:47] | application/.WOFF2
[Error][15:12:47] | handler
[Error][15:12:47] | asset
[Info][15:12:47] | application/.ICO
[Error][15:13:00] | page
[Info][15:13:00] | C:\Users\AVIS\Desktop\gametools\A4Engine\bin\Debug\netcoreapp2.2\/assets/controllers/page/looteditor.html
[Error][15:13:00] | asset
[Error][15:13:00] | asset
[Info][15:13:00] | text/css
[Info][15:13:00] | application/.JS
[Error][15:13:00] | asset
[Info][15:13:00] | text/css
[Error][15:13:00] | asset
[Error][15:13:01] | asset
[Info][15:13:01] | text/css
[Info][15:13:01] | application/.JS
[Error][15:13:01] | asset
[Error][15:13:01] | asset
[Info][15:13:01] | application/.JS
[Info][15:13:01] | application/.JS
[Error][15:13:01] | asset
[Error][15:13:01] | asset
[Info][15:13:01] | application/.JS
[Info][15:13:01] | application/.JS
[Error][15:13:01] | asset
[Error][15:13:01] | asset
[Info][15:13:01] | application/.JS
[Info][15:13:01] | application/.JS
[Error][15:13:01] | asset
[Error][15:13:01] | asset
[Info][15:13:01] | application/.JS
[Info][15:13:01] | application/.JS
[Error][15:13:01] | asset
[Error][15:13:01] | asset
[Info][15:13:01] | application/.JS
[Info][15:13:01] | image/jpeg
[Error][15:13:01] | asset
[Info][15:13:01] | application/.PNG
[Error][15:13:01] | asset
[Info][15:13:01] | application/.WOFF2
[Error][15:13:01] | handler
[Error][15:13:01] | asset
[Info][15:13:01] | application/.ICO
[Error][15:13:21] | page
[Info][15:13:21] | C:\Users\AVIS\Desktop\gametools\A4Engine\bin\Debug\netcoreapp2.2\/assets/controllers/page/looteditor.html
[Error][15:13:21] | asset
[Error][15:13:21] | asset
[Info][15:13:21] | text/css
[Info][15:13:21] | application/.JS
[Error][15:13:21] | asset
[Error][15:13:21] | asset
[Info][15:13:21] | application/.JS
[Info][15:13:21] | text/css
[Error][15:13:21] | asset
[Info][15:13:21] | text/css
[Error][15:13:21] | asset
[Error][15:13:21] | asset
[Error][15:13:21] | asset
[Info][15:13:21] | application/.JS
[Info][15:13:21] | application/.JS
[Info][15:13:21] | application/.JS
[Error][15:13:21] | asset
[Error][15:13:21] | asset
[Error][15:13:21] | asset
[Error][15:13:21] | asset
[Error][15:13:21] | asset
[Info][15:13:21] | application/.JS
[Info][15:13:21] | application/.JS
[Info][15:13:21] | application/.JS
[Info][15:13:21] | application/.JS
[Info][15:13:21] | application/.JS
[Error][15:13:21] | asset
[Info][15:13:21] | application/.JS
[Error][15:13:21] | asset
[Info][15:13:21] | image/jpeg
[Error][15:13:21] | asset
[Info][15:13:21] | application/.PNG
[Error][15:13:21] | asset
[Info][15:13:21] | application/.WOFF2
[Error][15:13:21] | handler
[Error][15:13:21] | asset
[Info][15:13:21] | application/.ICO
[Error][15:13:27] | page
[Info][15:13:27] | C:\Users\AVIS\Desktop\gametools\A4Engine\bin\Debug\netcoreapp2.2\/assets/controllers/page/looteditor.html
[Error][15:13:27] | asset
[Error][15:13:27] | asset
[Error][15:13:27] | asset
[Error][15:13:27] | asset
[Error][15:13:27] | asset
[Info][15:13:27] | text/css
[Error][15:13:27] | asset
[Info][15:13:27] | application/.JS
[Info][15:13:27] | text/css
[Info][15:13:27] | application/.JS
[Info][15:13:27] | application/.JS
[Info][15:13:27] | application/.JS
[Error][15:13:27] | asset
[Error][15:13:27] | asset
[Error][15:13:27] | asset
[Info][15:13:27] | application/.JS
[Info][15:13:27] | text/css
[Info][15:13:27] | application/.JS
[Error][15:13:28] | asset
[Error][15:13:28] | asset
[Error][15:13:28] | asset
[Info][15:13:28] | application/.JS
[Error][15:13:28] | asset
[Info][15:13:28] | application/.JS
[Info][15:13:28] | application/.JS
[Info][15:13:28] | application/.JS
[Error][15:13:28] | asset
[Error][15:13:28] | asset
[Info][15:13:28] | application/.JS
[Info][15:13:28] | image/jpeg
[Error][15:13:28] | asset
[Info][15:13:28] | application/.PNG
[Error][15:13:28] | asset
[Info][15:13:28] | application/.WOFF2
[Error][15:13:28] | handler
[Error][15:13:28] | asset
[Info][15:13:28] | application/.ICO
[Error][15:15:20] | page
[Info][15:15:20] | C:\Users\AVIS\Desktop\gametools\A4Engine\bin\Debug\netcoreapp2.2\/assets/controllers/page/looteditor.html
[Error][15:15:20] | asset
[Info][15:15:20] | text/css
[Error][15:15:20] | asset
[Info][15:15:20] | application/.JS
[Error][15:15:20] | asset
[Info][15:15:20] | text/css
[Error][15:15:20] | asset
[Error][15:15:20] | asset
[Info][15:15:20] | application/.JS
[Info][15:15:20] | application/.JS
[Error][15:15:20] | asset
[Error][15:15:20] | asset
[Info][15:15:20] | text/css
[Info][15:15:20] | application/.JS
[Error][15:15:20] | asset
[Info][15:15:20] | application/.JS
[Error][15:15:20] | asset
[Error][15:15:20] | asset
[Info][15:15:20] | application/.JS
[Info][15:15:20] | application/.JS
[Error][15:15:20] | asset
[Error][15:15:20] | asset
[Info][15:15:20] | application/.JS
[Info][15:15:20] | application/.JS
[Error][15:15:20] | asset
[Error][15:15:20] | asset
[Info][15:15:20] | application/.JS
[Info][15:15:20] | application/.JS
[Error][15:15:20] | asset
[Info][15:15:20] | image/jpeg
[Error][15:15:20] | asset
[Info][15:15:20] | application/.PNG
[Error][15:15:20] | asset
[Info][15:15:20] | application/.WOFF2
[Error][15:15:20] | handler
[Error][15:15:20] | handler
[Error][15:15:21] | asset
[Info][15:15:21] | application/.ICO
[Error][15:15:22] | handler
[Error][15:15:39] | page
[Info][15:15:39] | C:\Users\AVIS\Desktop\gametools\A4Engine\bin\Debug\netcoreapp2.2\/assets/controllers/page/looteditor.html
[Error][15:15:40] | asset
[Error][15:15:40] | asset
[Info][15:15:40] | application/.JS
[Info][15:15:40] | text/css
[Error][15:15:40] | asset
[Info][15:15:40] | text/css
[Error][15:15:40] | asset
[Error][15:15:40] | asset
[Info][15:15:40] | application/.JS
[Info][15:15:40] | application/.JS
[Error][15:15:40] | asset
[Error][15:15:40] | asset
[Info][15:15:40] | application/.JS
[Info][15:15:40] | text/css
[Error][15:15:40] | asset
[Error][15:15:40] | asset
[Info][15:15:40] | application/.JS
[Info][15:15:40] | application/.JS
[Error][15:15:40] | asset
[Error][15:15:40] | asset
[Info][15:15:40] | application/.JS
[Info][15:15:40] | application/.JS
[Error][15:15:40] | asset
[Error][15:15:40] | asset
[Info][15:15:40] | application/.JS
[Info][15:15:40] | application/.JS
[Error][15:15:40] | asset
[Error][15:15:40] | asset
[Info][15:15:40] | application/.JS
[Info][15:15:40] | image/jpeg
[Error][15:15:40] | asset
[Info][15:15:40] | application/.PNG
[Error][15:15:40] | asset
[Info][15:15:40] | application/.WOFF2
[Error][15:15:40] | handler
[Error][15:15:40] | handler
[Error][15:15:40] | asset
[Info][15:15:40] | application/.ICO
[Error][15:15:54] | page
[Info][15:15:54] | C:\Users\AVIS\Desktop\gametools\A4Engine\bin\Debug\netcoreapp2.2\/assets/controllers/page/looteditor.html
[Error][15:15:54] | asset
[Error][15:15:54] | asset
[Info][15:15:54] | text/css
[Info][15:15:54] | application/.JS
[Error][15:15:54] | asset
[Info][15:15:54] | text/css
[Error][15:15:54] | asset
[Error][15:15:54] | asset
[Info][15:15:54] | application/.JS
[Info][15:15:54] | application/.JS
[Error][15:15:54] | asset
[Error][15:15:54] | asset
[Info][15:15:54] | application/.JS
[Info][15:15:54] | text/css
[Error][15:15:54] | asset
[Error][15:15:54] | asset
[Info][15:15:54] | application/.JS
[Info][15:15:54] | application/.JS
[Error][15:15:54] | asset
[Error][15:15:54] | asset
[Info][15:15:54] | application/.JS
[Info][15:15:54] | application/.JS
[Error][15:15:54] | asset
[Error][15:15:54] | asset
[Info][15:15:54] | application/.JS
[Info][15:15:54] | application/.JS
[Error][15:15:54] | asset
[Error][15:15:54] | asset
[Info][15:15:54] | image/jpeg
[Info][15:15:54] | application/.JS
[Error][15:15:55] | asset
[Info][15:15:55] | application/.PNG
[Error][15:15:55] | asset
[Info][15:15:55] | application/.WOFF2
[Error][15:15:55] | handler
[Error][15:15:55] | handler
[Error][15:15:55] | asset
[Info][15:15:55] | application/.ICO
[Error][15:15:56] | handler
[Error][15:16:00] | page
[Info][15:16:00] | C:\Users\AVIS\Desktop\gametools\A4Engine\bin\Debug\netcoreapp2.2\/assets/controllers/page/looteditor.html
[Error][15:16:00] | asset
[Error][15:16:00] | asset
[Error][15:16:00] | asset
[Error][15:16:00] | asset
[Error][15:16:00] | asset
[Info][15:16:00] | application/.JS
[Info][15:16:00] | text/css
[Info][15:16:00] | text/css
[Info][15:16:00] | application/.JS
[Info][15:16:00] | application/.JS
[Error][15:16:00] | asset
[Error][15:16:00] | asset
[Info][15:16:00] | application/.JS
[Info][15:16:00] | application/.JS
[Error][15:16:00] | asset
[Error][15:16:00] | asset
[Error][15:16:00] | asset
[Error][15:16:00] | asset
[Error][15:16:00] | asset
[Info][15:16:00] | application/.JS
[Info][15:16:00] | application/.JS
[Info][15:16:00] | application/.JS
[Info][15:16:00] | application/.JS
[Info][15:16:00] | application/.JS
[Error][15:16:00] | asset
[Info][15:16:00] | application/.JS
[Error][15:16:00] | asset
[Error][15:16:00] | asset
[Info][15:16:00] | text/css
[Info][15:16:00] | image/jpeg
[Error][15:16:00] | asset
[Info][15:16:00] | application/.PNG
[Error][15:16:00] | asset
[Info][15:16:00] | application/.WOFF2
[Error][15:16:00] | handler
[Error][15:16:00] | handler
[Error][15:16:00] | asset
[Info][15:16:00] | application/.ICO
[Error][15:16:01] | handler
[Try][15:17:34] | Init web panel
[Info][15:17:34] | rightId 2, right AllUserCmd
[Info][15:17:34] | rightId 3, right goTo
[Info][15:17:34] | rightId 4, right setWorldState
[Info][15:17:34] | rightId 5, right setNpcStat
[Info][15:17:34] | rightId 6, right setProperty
[Info][15:17:34] | rightId 7, right editItem
[Info][15:17:34] | rightId 8, right getItem
[Info][15:17:34] | rightId 9, right editScene
[Error][15:17:37] | page
[Info][15:17:37] | C:\Users\AVIS\Desktop\gametools\A4Engine\bin\Debug\netcoreapp2.2\/assets/controllers/page/looteditor.html
[Info][15:17:37] | UserId 1, right 1
[Info][15:17:37] | UserId 1, right 2
[Error][15:17:37] | asset
[Error][15:17:37] | asset
[Info][15:17:37] | application/.JS
[Info][15:17:37] | text/css
[Error][15:17:37] | asset
[Error][15:17:37] | asset
[Info][15:17:37] | application/.JS
[Info][15:17:37] | text/css
[Error][15:17:37] | asset
[Error][15:17:37] | asset
[Info][15:17:37] | text/css
[Info][15:17:37] | application/.JS
[Error][15:17:37] | asset
[Error][15:17:37] | asset
[Info][15:17:37] | application/.JS
[Info][15:17:37] | application/.JS
[Error][15:17:37] | asset
[Error][15:17:37] | asset
[Info][15:17:37] | application/.JS
[Info][15:17:37] | application/.JS
[Error][15:17:37] | asset
[Info][15:17:37] | application/.JS
[Error][15:17:37] | asset
[Error][15:17:37] | asset
[Error][15:17:37] | asset
[Info][15:17:37] | application/.JS
[Info][15:17:37] | application/.JS
[Info][15:17:37] | application/.JS
[Error][15:17:37] | asset
[Info][15:17:37] | image/jpeg
[Error][15:17:37] | asset
[Info][15:17:37] | application/.PNG
[Error][15:17:37] | asset
[Info][15:17:37] | application/.WOFF2
[Error][15:17:37] | handler
[Error][15:17:37] | asset
[Info][15:17:37] | application/.ICO
[Error][15:17:37] | handler
[Error][15:17:42] | handler
[Error][15:17:59] | handler
[Error][15:18:00] | page
[Info][15:18:00] | C:\Users\AVIS\Desktop\gametools\A4Engine\bin\Debug\netcoreapp2.2\/assets/controllers/page/looteditor.html
[Error][15:18:00] | asset
[Info][15:18:00] | text/css
[Error][15:18:00] | asset
[Info][15:18:00] | text/css
[Error][15:18:00] | asset
[Info][15:18:00] | text/css
[Error][15:18:00] | asset
[Info][15:18:00] | application/.JS
[Error][15:18:00] | asset
[Info][15:18:00] | application/.JS
[Error][15:18:00] | asset
[Info][15:18:00] | application/.JS
[Error][15:18:00] | asset
[Info][15:18:00] | application/.JS
[Error][15:18:00] | asset
[Info][15:18:00] | application/.JS
[Error][15:18:00] | asset
[Info][15:18:00] | application/.JS
[Error][15:18:00] | asset
[Info][15:18:00] | application/.JS
[Error][15:18:00] | asset
[Info][15:18:00] | application/.JS
[Error][15:18:00] | asset
[Info][15:18:00] | application/.JS
[Error][15:18:00] | asset
[Info][15:18:00] | application/.JS
[Error][15:18:00] | asset
[Info][15:18:00] | application/.JS
[Error][15:18:00] | asset
[Info][15:18:00] | image/jpeg
[Error][15:18:00] | asset
[Info][15:18:00] | application/.PNG
[Error][15:18:00] | asset
[Info][15:18:00] | application/.WOFF2
[Error][15:18:00] | handler
[Error][15:18:00] | handler
[Error][15:18:00] | asset
[Info][15:18:00] | application/.ICO
[Try][15:19:19] | Init web panel
[Info][15:19:20] | rightId 2, right AllUserCmd
[Info][15:19:20] | rightId 3, right goTo
[Info][15:19:20] | rightId 4, right setWorldState
[Info][15:19:20] | rightId 5, right setNpcStat
[Info][15:19:20] | rightId 6, right setProperty
[Info][15:19:20] | rightId 7, right editItem
[Info][15:19:20] | rightId 8, right getItem
[Info][15:19:20] | rightId 9, right editScene
[Error][15:19:23] | page
[Info][15:19:23] | C:\Users\AVIS\Desktop\gametools\A4Engine\bin\Debug\netcoreapp2.2\/assets/controllers/page/looteditor.html
[Info][15:19:23] | UserId 1, right 1
[Info][15:19:23] | UserId 1, right 2
[Error][15:19:23] | asset
[Error][15:19:23] | asset
[Info][15:19:23] | application/.JS
[Info][15:19:23] | text/css
[Error][15:19:23] | asset
[Error][15:19:23] | asset
[Info][15:19:23] | application/.JS
[Info][15:19:23] | text/css
[Error][15:19:23] | asset
[Info][15:19:23] | application/.JS
[Error][15:19:23] | asset
[Error][15:19:23] | asset
[Error][15:19:23] | asset
[Info][15:19:23] | text/css
[Info][15:19:23] | application/.JS
[Info][15:19:23] | application/.JS
[Error][15:19:23] | asset
[Info][15:19:23] | application/.JS
[Error][15:19:23] | asset
[Error][15:19:23] | asset
[Info][15:19:23] | application/.JS
[Error][15:19:23] | asset
[Info][15:19:23] | application/.JS
[Info][15:19:23] | application/.JS
[Error][15:19:23] | asset
[Error][15:19:23] | asset
[Error][15:19:23] | asset
[Info][15:19:23] | application/.JS
[Info][15:19:23] | image/jpeg
[Info][15:19:23] | application/.JS
[Error][15:19:23] | asset
[Info][15:19:23] | application/.PNG
[Error][15:19:23] | asset
[Info][15:19:23] | application/.WOFF2
[Error][15:19:23] | handler
[Error][15:19:23] | asset
[Info][15:19:23] | application/.ICO
[Error][15:19:23] | handler
[Error][15:19:24] | handler
[Error][15:19:26] | handler
[Error][15:19:27] | handler
[Error][15:19:27] | handler
[Error][15:19:40] | page
[Info][15:19:40] | C:\Users\AVIS\Desktop\gametools\A4Engine\bin\Debug\netcoreapp2.2\/assets/controllers/page/looteditor.html
[Error][15:19:40] | asset
[Info][15:19:40] | text/css
[Error][15:19:40] | asset
[Info][15:19:40] | text/css
[Error][15:19:40] | asset
[Info][15:19:40] | application/.JS
[Error][15:19:40] | asset
[Info][15:19:40] | application/.JS
[Error][15:19:40] | asset
[Info][15:19:40] | text/css
[Error][15:19:40] | asset
[Info][15:19:40] | application/.JS
[Error][15:19:40] | asset
[Info][15:19:40] | application/.JS
[Error][15:19:40] | asset
[Info][15:19:40] | application/.JS
[Error][15:19:40] | asset
[Info][15:19:40] | application/.JS
[Error][15:19:40] | asset
[Info][15:19:40] | application/.JS
[Error][15:19:40] | asset
[Info][15:19:40] | application/.JS
[Error][15:19:40] | asset
[Info][15:19:40] | application/.JS
[Error][15:19:40] | asset
[Info][15:19:40] | application/.JS
[Error][15:19:40] | asset
[Info][15:19:40] | application/.JS
[Error][15:19:40] | asset
[Info][15:19:40] | image/jpeg
[Error][15:19:40] | asset
[Info][15:19:40] | application/.PNG
