{"Text":"----------------LOOT SPAWN EVENT---------------","Id":0,"UserId":-1,"ConnectionId":-1,"UserName":"","Type":2,"Time":"2021-05-11T17:12:58.568879+05:00","MessageKey":0}
{"Text":"----------------LOOT SPAWN EVENT---------------","Id":0,"UserId":-1,"ConnectionId":-1,"UserName":"","Type":2,"Time":"2021-05-11T17:12:58.5825026+05:00","MessageKey":0}

{"Text":"----------------LOOT SPAWN EVENT---------------","Id":0,"UserId":-1,"ConnectionId":-1,"UserName":"","Type":2,"Time":"2021-05-11T17:27:58.5707632+05:00","MessageKey":0}
{"Text":"----------------LOOT SPAWN EVENT---------------","Id":0,"UserId":-1,"ConnectionId":-1,"UserName":"","Type":2,"Time":"2021-05-11T17:27:58.585972+05:00","MessageKey":0}

